q1	q2	maxCorr_lag
НАУКА--гранты	ЗДРАВООХРАНЕНИЕ--сердечный приступ	2
НАУКА--гранты	ИНФРАСТРУКТУРА--дороги	2
НАУКА--инновации	ПРОИЗВОДСТВО--биотехнологии	2
ОБРАЗОВАНИЕ--"прикладные исследования"	ЗДРАВООХРАНЕНИЕ--сердечный приступ	2
ПРОИЗВОДСТВО--"автомобильная промышленность"	ПРОИЗВОДСТВО--биотехнологии	2
ПРОИЗВОДСТВО--"текстильное производство"	ЗДРАВООХРАНЕНИЕ--ЗОЖ	2
ПРОИЗВОДСТВО--"текстильное производство"	НАУКА--"монументальные исследования"	2
ПРОИЗВОДСТВО--"текстильное производство"	ОБРАЗОВАНИЕ--университет	2
