q1	q2	maxCorr_lag
ЗДРАВООХРАНЕНИЕ--"нейро-дегенеративные заболевания"	НАУКА--наука	2
ЗДРАВООХРАНЕНИЕ--"нейро-дегенеративные заболевания"	ПРОИЗВОДСТВО--"пищевая промышленность"	2
ЗДРАВООХРАНЕНИЕ--"нейро-дегенеративные заболевания"	ПРОИЗВОДСТВО--"химическая промышленность"	2
ЗДРАВООХРАНЕНИЕ--"нейро-дегенеративные заболевания"	ПРОИЗВОДСТВО--тяжёлая промышленность	2
ЗДРАВООХРАНЕНИЕ--"сердечно-сосудистые заболевания"	НАУКА--институт	2
ЗДРАВООХРАНЕНИЕ--"сердечно-сосудистые заболевания"	НАУКА--монументальные исследования	2
ЗДРАВООХРАНЕНИЕ--"сердечно-сосудистые заболевания"	ПРОИЗВОДСТВО--"химическая промышленность"	2
ЗДРАВООХРАНЕНИЕ--"сердечный приступ"	ЗДРАВООХРАНЕНИЕ--лекарства	2
ЗДРАВООХРАНЕНИЕ--"сердечный приступ"	СЕЛЬСКОЕ ХОЗЯЙСТВО--поголовье скота	2
ЗДРАВООХРАНЕНИЕ--"сердечный приступ"	ТОРГОВЛЯ--"открытая экономическая зона"	2
ЗДРАВООХРАНЕНИЕ--"сердечный приступ"	ТОРГОВЛЯ--открытая экономическая зона	2
ЗДРАВООХРАНЕНИЕ--ЗОЖ	НАСЕЛЕНИЕ--"демографическая яма"	2
ЗДРАВООХРАНЕНИЕ--ЗОЖ	НАСЕЛЕНИЕ--рождаемость	2
ЗДРАВООХРАНЕНИЕ--ЗОЖ	НАУКА--институт	2
ЗДРАВООХРАНЕНИЕ--ЗОЖ	ТОРГОВЛЯ--оптовая торговля	2
ЗДРАВООХРАНЕНИЕ--вегетарианство	ЗДРАВООХРАНЕНИЕ--"сердечный приступ"	2
ЗДРАВООХРАНЕНИЕ--вегетарианство	ЗДРАВООХРАНЕНИЕ--сердечный приступ	2
ЗДРАВООХРАНЕНИЕ--вегетарианство	НАСЕЛЕНИЕ--смертность	2
ЗДРАВООХРАНЕНИЕ--вегетарианство	НАУКА--монументальные исследования	2
ЗДРАВООХРАНЕНИЕ--вегетарианство	ПРОИЗВОДСТВО--"химическая промышленность"	2
ЗДРАВООХРАНЕНИЕ--вегетарианство	ПРОИЗВОДСТВО--биотехнологии	2
ЗДРАВООХРАНЕНИЕ--вегетарианство	ТОРГОВЛЯ--международное сотрудничество	2
ЗДРАВООХРАНЕНИЕ--вегетарианство	ТОРГОВЛЯ--открытая экономическая зона	2
ЗДРАВООХРАНЕНИЕ--витамины	ЗДРАВООХРАНЕНИЕ--"сердечный приступ"	2
ЗДРАВООХРАНЕНИЕ--витамины	ПРОИЗВОДСТВО--биотехнологии	2
ЗДРАВООХРАНЕНИЕ--витамины	ПРОИЗВОДСТВО--пищевая промышленность	2
ЗДРАВООХРАНЕНИЕ--витамины	ТОРГОВЛЯ--международное сотрудничество	2
ЗДРАВООХРАНЕНИЕ--депрессия	ПРОИЗВОДСТВО--тяжёлая промышленность	2
ЗДРАВООХРАНЕНИЕ--лекарства	НАУКА--гранты	2
ЗДРАВООХРАНЕНИЕ--лекарства	ПРОИЗВОДСТВО--"лёгкая промышленность"	2
ЗДРАВООХРАНЕНИЕ--лекарства	ПРОИЗВОДСТВО--химическая промышленность	2
ЗДРАВООХРАНЕНИЕ--лекарства	ТОРГОВЛЯ--открытая экономическая зона	2
ЗДРАВООХРАНЕНИЕ--нейро-дегенеративные заболевания	ПРОИЗВОДСТВО--"текстильное производство"	2
ЗДРАВООХРАНЕНИЕ--нейро-дегенеративные заболевания	ТОРГОВЛЯ--"оптовая торговля"	2
ЗДРАВООХРАНЕНИЕ--ожирение	НАСЕЛЕНИЕ--"демографическая яма"	2
ЗДРАВООХРАНЕНИЕ--ожирение	ПРОИЗВОДСТВО--"химическая промышленность"	2
ЗДРАВООХРАНЕНИЕ--ожирение	ТОРГОВЛЯ--международное сотрудничество	2
ЗДРАВООХРАНЕНИЕ--сердечно-сосудистые заболевания	НАСЕЛЕНИЕ--"демографическая яма"	2
ЗДРАВООХРАНЕНИЕ--сердечный приступ	ПРОИЗВОДСТВО--"лёгкая промышленность"	2
ЗДРАВООХРАНЕНИЕ--спорт	НАСЕЛЕНИЕ--"демографическая яма"	2
ЗДРАВООХРАНЕНИЕ--спорт	ПРОИЗВОДСТВО--тяжёлая промышленность	2
ЗДРАВООХРАНЕНИЕ--спорт	ТОРГОВЛЯ--международное сотрудничество	2
ИНФРАСТРУКТУРА--"общественный транспорт"	ПРОИЗВОДСТВО--тяжёлая промышленность	2
ИНФРАСТРУКТУРА--дороги	ИНФРАСТРУКТУРА--общественный транспорт	2
ИНФРАСТРУКТУРА--общественный транспорт	ЗДРАВООХРАНЕНИЕ--БАД	2
ИНФРАСТРУКТУРА--общественный транспорт	ИНФРАСТРУКТУРА--"общественный транспорт"	2
ИНФРАСТРУКТУРА--парковка	ЗДРАВООХРАНЕНИЕ--"сердечный приступ"	2
ИНФРАСТРУКТУРА--парковка	НАУКА--патент	2
ИНФРАСТРУКТУРА--парковка	ОБРАЗОВАНИЕ--прикладные исследования	2
ИНФРАСТРУКТУРА--парковка	СЕЛЬСКОЕ ХОЗЯЙСТВО--пшеница	2
ИНФРАСТРУКТУРА--парковка	ТОРГОВЛЯ--беспошлинная торговля	2
ИНФРАСТРУКТУРА--строительство	ИНФРАСТРУКТУРА--общественный транспорт	2
ИНФРАСТРУКТУРА--строительство	ИНФРАСТРУКТУРА--штраф	2
ИНФРАСТРУКТУРА--штраф	ЗДРАВООХРАНЕНИЕ--ожирение	2
ИНФРАСТРУКТУРА--штраф	ИНФРАСТРУКТУРА--"общественный транспорт"	2
ИНФРАСТРУКТУРА--штраф	НАСЕЛЕНИЕ--демографическая яма	2
ИНФРАСТРУКТУРА--штраф	ОБРАЗОВАНИЕ--подготовка инженеров	2
ИНФРАСТРУКТУРА--штраф	ОБРАЗОВАНИЕ--подготовка рабочих	2
ИНФРАСТРУКТУРА--штраф	ОБРАЗОВАНИЕ--прикладные исследования	2
ИНФРАСТРУКТУРА--штраф	ОБРАЗОВАНИЕ--университет	2
ИНФРАСТРУКТУРА--штраф	ОБРАЗОВАНИЕ--учителя	2
ИНФРАСТРУКТУРА--штраф	ПРОИЗВОДСТВО--"пищевая промышленность"	2
ИНФРАСТРУКТУРА--штраф	СЕЛЬСКОЕ ХОЗЯЙСТВО--сельскохозяйственная техника	2
ИНФРАСТРУКТУРА--штраф	ТОРГОВЛЯ--беспошлинная торговля	2
ИНФРАСТРУКТУРА--штраф	ТОРГОВЛЯ--оптовая торговля	2
ИНФРАСТРУКТУРА--ямы	ИНФРАСТРУКТУРА--общественный транспорт	2
ИНФРАСТРУКТУРА--ямы	НАУКА--патент	2
НАСЕЛЕНИЕ--демографическая яма	НАСЕЛЕНИЕ--рождаемость	2
НАСЕЛЕНИЕ--демографическая яма	ОБРАЗОВАНИЕ--"подготовка рабочих"	2
НАСЕЛЕНИЕ--демографическая яма	СЕЛЬСКОЕ ХОЗЯЙСТВО--"поголовье скота"	2
НАСЕЛЕНИЕ--демографическая яма	ТОРГОВЛЯ--"беспошлинная торговля"	2
НАСЕЛЕНИЕ--демографическая яма	ТОРГОВЛЯ--"интернет-магазин"	2
НАСЕЛЕНИЕ--демографическая яма	ТОРГОВЛЯ--"розничная торговля"	2
НАСЕЛЕНИЕ--рождаемость	ЗДРАВООХРАНЕНИЕ--"сердечный приступ"	2
НАСЕЛЕНИЕ--рождаемость	ЗДРАВООХРАНЕНИЕ--витамины	2
НАСЕЛЕНИЕ--рождаемость	ЗДРАВООХРАНЕНИЕ--сердечный приступ	2
НАСЕЛЕНИЕ--рождаемость	НАСЕЛЕНИЕ--смертность	2
НАСЕЛЕНИЕ--рождаемость	НАУКА--патент	2
НАСЕЛЕНИЕ--рождаемость	ОБРАЗОВАНИЕ--прикладные исследования	2
НАСЕЛЕНИЕ--рождаемость	ПРОИЗВОДСТВО--"химическая промышленность"	2
НАСЕЛЕНИЕ--рождаемость	ПРОИЗВОДСТВО--биотехнологии	2
НАСЕЛЕНИЕ--рождаемость	ПРОИЗВОДСТВО--пищевая промышленность	2
НАСЕЛЕНИЕ--рождаемость	ПРОИЗВОДСТВО--тяжёлая промышленность	2
НАСЕЛЕНИЕ--рождаемость	СЕЛЬСКОЕ ХОЗЯЙСТВО--пшеница	2
НАСЕЛЕНИЕ--рождаемость	ТОРГОВЛЯ--беспошлинная торговля	2
НАСЕЛЕНИЕ--рождаемость	ТОРГОВЛЯ--международное сотрудничество	2
НАСЕЛЕНИЕ--свадьба	ЗДРАВООХРАНЕНИЕ--витамины	2
НАСЕЛЕНИЕ--свадьба	НАСЕЛЕНИЕ--"демографическая яма"	2
НАСЕЛЕНИЕ--свадьба	НАУКА--монументальные исследования	2
НАСЕЛЕНИЕ--смертность	ЗДРАВООХРАНЕНИЕ--витамины	2
НАСЕЛЕНИЕ--смертность	НАУКА--патент	2
НАСЕЛЕНИЕ--смертность	ПРОИЗВОДСТВО--тяжёлая промышленность	2
НАСЕЛЕНИЕ--смертность	ТОРГОВЛЯ--международное сотрудничество	2
НАУКА--"монументальные исследования"	НАУКА--наука	2
НАУКА--гранты	ЗДРАВООХРАНЕНИЕ--"сердечно-сосудистые заболевания"	2
НАУКА--гранты	ЗДРАВООХРАНЕНИЕ--"сердечный приступ"	2
НАУКА--гранты	ЗДРАВООХРАНЕНИЕ--ЗОЖ	2
НАУКА--гранты	ЗДРАВООХРАНЕНИЕ--сердечно-сосудистые заболевания	2
НАУКА--гранты	ЗДРАВООХРАНЕНИЕ--сердечный приступ	2
НАУКА--гранты	ИНФРАСТРУКТУРА--дороги	2
НАУКА--гранты	ИНФРАСТРУКТУРА--штраф	2
НАУКА--гранты	НАСЕЛЕНИЕ--демографическая яма	2
НАУКА--гранты	НАСЕЛЕНИЕ--смертность	2
НАУКА--гранты	НАУКА--"монументальные исследования"	2
НАУКА--гранты	НАУКА--зарплаты	2
НАУКА--гранты	НАУКА--наука	2
НАУКА--гранты	ОБРАЗОВАНИЕ--школа	2
НАУКА--гранты	ПРОИЗВОДСТВО--"химическая промышленность"	2
НАУКА--гранты	ПРОИЗВОДСТВО--биотехнологии	2
НАУКА--гранты	СЕЛЬСКОЕ ХОЗЯЙСТВО--неурожай	2
НАУКА--гранты	ТОРГОВЛЯ--международное сотрудничество	2
НАУКА--зарплаты	НАСЕЛЕНИЕ--свадьба	2
НАУКА--зарплаты	ОБРАЗОВАНИЕ--подготовка инженеров	2
НАУКА--зарплаты	ОБРАЗОВАНИЕ--подготовка рабочих	2
НАУКА--инновации	ИНФРАСТРУКТУРА--общественный транспорт	2
НАУКА--инновации	НАСЕЛЕНИЕ--демографическая яма	2
НАУКА--инновации	НАУКА--патент	2
НАУКА--инновации	ОБРАЗОВАНИЕ--прикладные исследования	2
НАУКА--инновации	ПРОИЗВОДСТВО--биотехнологии	2
НАУКА--инновации	ПРОИЗВОДСТВО--пищевая промышленность	2
НАУКА--инновации	ТОРГОВЛЯ--беспошлинная торговля	2
НАУКА--инновации	ТОРГОВЛЯ--международное сотрудничество	2
НАУКА--институт	ЗДРАВООХРАНЕНИЕ--витамины	2
НАУКА--институт	ЗДРАВООХРАНЕНИЕ--нейро-дегенеративные заболевания	2
НАУКА--институт	ИНФРАСТРУКТУРА--общественный транспорт	2
НАУКА--институт	ОБРАЗОВАНИЕ--подготовка инженеров	2
НАУКА--институт	ОБРАЗОВАНИЕ--прикладные исследования	2
НАУКА--институт	ПРОИЗВОДСТВО--биотехнологии	2
НАУКА--институт	ТОРГОВЛЯ--беспошлинная торговля	2
НАУКА--конференции	НАУКА--институт	2
НАУКА--конференции	ТОРГОВЛЯ--"оптовая торговля"	2
НАУКА--конференции	ТОРГОВЛЯ--оптовая торговля	2
НАУКА--монументальные исследования	ЗДРАВООХРАНЕНИЕ--"сердечный приступ"	2
НАУКА--монументальные исследования	ЗДРАВООХРАНЕНИЕ--витамины	2
НАУКА--монументальные исследования	ЗДРАВООХРАНЕНИЕ--сердечный приступ	2
НАУКА--монументальные исследования	НАУКА--патент	2
НАУКА--монументальные исследования	ПРОИЗВОДСТВО--биотехнологии	2
НАУКА--наука	ИНФРАСТРУКТУРА--общественный транспорт	2
НАУКА--наука	НАСЕЛЕНИЕ--"демографическая яма"	2
НАУКА--наука	НАСЕЛЕНИЕ--демографическая яма	2
НАУКА--наука	НАУКА--монументальные исследования	2
НАУКА--наука	ПРОИЗВОДСТВО--биотехнологии	2
НАУКА--наука	ПРОИЗВОДСТВО--пищевая промышленность	2
НАУКА--наука	ТОРГОВЛЯ--оптовая торговля	2
НАУКА--патент	ЗДРАВООХРАНЕНИЕ--"нейро-дегенеративные заболевания"	2
НАУКА--патент	ЗДРАВООХРАНЕНИЕ--депрессия	2
НАУКА--патент	ЗДРАВООХРАНЕНИЕ--спорт	2
НАУКА--патент	ИНФРАСТРУКТУРА--"общественный транспорт"	2
НАУКА--патент	НАУКА--гранты	2
НАУКА--патент	ОБРАЗОВАНИЕ--"подготовка инженеров"	2
НАУКА--патент	ОБРАЗОВАНИЕ--"прикладные исследования"	2
НАУКА--патент	ПРОИЗВОДСТВО--химическая промышленность	2
НАУКА--патент	СЕЛЬСКОЕ ХОЗЯЙСТВО--поголовье скота	2
НАУКА--патент	СЕЛЬСКОЕ ХОЗЯЙСТВО--сельскохозяйственная техника	2
НАУКА--патент	ТОРГОВЛЯ--интернет-магазин	2
НАУКА--патент	ТОРГОВЛЯ--международное сотрудничество	2
НАУКА--патент	ТОРГОВЛЯ--открытая экономическая зона	2
ОБРАЗОВАНИЕ--"подготовка инженеров"	ПРОИЗВОДСТВО--тяжёлая промышленность	2
ОБРАЗОВАНИЕ--"подготовка инженеров"	ТОРГОВЛЯ--международное сотрудничество	2
ОБРАЗОВАНИЕ--"подготовка рабочих"	ЗДРАВООХРАНЕНИЕ--"сердечный приступ"	2
ОБРАЗОВАНИЕ--"подготовка рабочих"	НАУКА--наука	2
ОБРАЗОВАНИЕ--"подготовка рабочих"	ПРОИЗВОДСТВО--"химическая промышленность"	2
ОБРАЗОВАНИЕ--"подготовка рабочих"	ПРОИЗВОДСТВО--биотехнологии	2
ОБРАЗОВАНИЕ--"подготовка рабочих"	ПРОИЗВОДСТВО--пищевая промышленность	2
ОБРАЗОВАНИЕ--"подготовка рабочих"	ПРОИЗВОДСТВО--тяжёлая промышленность	2
ОБРАЗОВАНИЕ--"подготовка рабочих"	ТОРГОВЛЯ--беспошлинная торговля	2
ОБРАЗОВАНИЕ--"прикладные исследования"	ЗДРАВООХРАНЕНИЕ--сердечный приступ	2
ОБРАЗОВАНИЕ--подготовка рабочих	ЗДРАВООХРАНЕНИЕ--вегетарианство	2
ОБРАЗОВАНИЕ--подготовка рабочих	ИНФРАСТРУКТУРА--общественный транспорт	2
ОБРАЗОВАНИЕ--подготовка рабочих	СЕЛЬСКОЕ ХОЗЯЙСТВО--сельскохозяйственная техника	2
ОБРАЗОВАНИЕ--прикладные исследования	ЗДРАВООХРАНЕНИЕ--вегетарианство	2
ОБРАЗОВАНИЕ--прикладные исследования	НАУКА--гранты	2
ОБРАЗОВАНИЕ--прикладные исследования	ОБРАЗОВАНИЕ--"подготовка рабочих"	2
ОБРАЗОВАНИЕ--университет	ПРОИЗВОДСТВО--"химическая промышленность"	2
ОБРАЗОВАНИЕ--университет	ПРОИЗВОДСТВО--тяжёлая промышленность	2
ОБРАЗОВАНИЕ--учителя	ИНФРАСТРУКТУРА--общественный транспорт	2
ОБРАЗОВАНИЕ--учёные	ИНФРАСТРУКТУРА--штраф	2
ОБРАЗОВАНИЕ--школа	ПРОИЗВОДСТВО--тяжёлая промышленность	2
ОБРАЗОВАНИЕ--школа	ТОРГОВЛЯ--"открытая экономическая зона"	2
ПРОИЗВОДСТВО--"автомобильная промышленность"	ЗДРАВООХРАНЕНИЕ--"нейро-дегенеративные заболевания"	2
ПРОИЗВОДСТВО--"автомобильная промышленность"	ЗДРАВООХРАНЕНИЕ--"сердечный приступ"	2
ПРОИЗВОДСТВО--"автомобильная промышленность"	ЗДРАВООХРАНЕНИЕ--ЗОЖ	2
ПРОИЗВОДСТВО--"автомобильная промышленность"	ЗДРАВООХРАНЕНИЕ--депрессия	2
ПРОИЗВОДСТВО--"автомобильная промышленность"	ЗДРАВООХРАНЕНИЕ--ожирение	2
ПРОИЗВОДСТВО--"автомобильная промышленность"	ЗДРАВООХРАНЕНИЕ--сердечный приступ	2
ПРОИЗВОДСТВО--"автомобильная промышленность"	ИНФРАСТРУКТУРА--"общественный транспорт"	2
ПРОИЗВОДСТВО--"автомобильная промышленность"	ИНФРАСТРУКТУРА--дороги	2
ПРОИЗВОДСТВО--"автомобильная промышленность"	НАСЕЛЕНИЕ--демографическая яма	2
ПРОИЗВОДСТВО--"автомобильная промышленность"	НАСЕЛЕНИЕ--смертность	2
ПРОИЗВОДСТВО--"автомобильная промышленность"	НАУКА--"монументальные исследования"	2
ПРОИЗВОДСТВО--"автомобильная промышленность"	НАУКА--инновации	2
ПРОИЗВОДСТВО--"автомобильная промышленность"	НАУКА--монументальные исследования	2
ПРОИЗВОДСТВО--"автомобильная промышленность"	ОБРАЗОВАНИЕ--"подготовка инженеров"	2
ПРОИЗВОДСТВО--"автомобильная промышленность"	ОБРАЗОВАНИЕ--школа	2
ПРОИЗВОДСТВО--"автомобильная промышленность"	ПРОИЗВОДСТВО--"тяжёлая промышленность"	2
ПРОИЗВОДСТВО--"автомобильная промышленность"	ПРОИЗВОДСТВО--автомобильная промышленность	2
ПРОИЗВОДСТВО--"автомобильная промышленность"	ПРОИЗВОДСТВО--биотехнологии	2
ПРОИЗВОДСТВО--"автомобильная промышленность"	ПРОИЗВОДСТВО--лёгкая промышленность	2
ПРОИЗВОДСТВО--"автомобильная промышленность"	ПРОИЗВОДСТВО--пищевая промышленность	2
ПРОИЗВОДСТВО--"автомобильная промышленность"	ТОРГОВЛЯ--оптовая торговля	2
ПРОИЗВОДСТВО--"лёгкая промышленность"	ЗДРАВООХРАНЕНИЕ--вегетарианство	2
ПРОИЗВОДСТВО--"лёгкая промышленность"	ИНФРАСТРУКТУРА--штраф	2
ПРОИЗВОДСТВО--"лёгкая промышленность"	ПРОИЗВОДСТВО--"автомобильная промышленность"	2
ПРОИЗВОДСТВО--"лёгкая промышленность"	ПРОИЗВОДСТВО--"текстильное производство"	2
ПРОИЗВОДСТВО--"пищевая промышленность"	НАУКА--институт	2
ПРОИЗВОДСТВО--"пищевая промышленность"	НАУКА--монументальные исследования	2
ПРОИЗВОДСТВО--"пищевая промышленность"	ТОРГОВЛЯ--"открытая экономическая зона"	2
ПРОИЗВОДСТВО--"пищевая промышленность"	ТОРГОВЛЯ--оптовая торговля	2
ПРОИЗВОДСТВО--"текстильное производство"	ЗДРАВООХРАНЕНИЕ--"нейро-дегенеративные заболевания"	2
ПРОИЗВОДСТВО--"текстильное производство"	ЗДРАВООХРАНЕНИЕ--"сердечно-сосудистые заболевания"	2
ПРОИЗВОДСТВО--"текстильное производство"	ЗДРАВООХРАНЕНИЕ--БАД	2
ПРОИЗВОДСТВО--"текстильное производство"	ЗДРАВООХРАНЕНИЕ--ЗОЖ	2
ПРОИЗВОДСТВО--"текстильное производство"	ЗДРАВООХРАНЕНИЕ--алкоголизм	2
ПРОИЗВОДСТВО--"текстильное производство"	ЗДРАВООХРАНЕНИЕ--депрессия	2
ПРОИЗВОДСТВО--"текстильное производство"	ЗДРАВООХРАНЕНИЕ--лекарства	2
ПРОИЗВОДСТВО--"текстильное производство"	ЗДРАВООХРАНЕНИЕ--ожирение	2
ПРОИЗВОДСТВО--"текстильное производство"	ЗДРАВООХРАНЕНИЕ--сердечно-сосудистые заболевания	2
ПРОИЗВОДСТВО--"текстильное производство"	ЗДРАВООХРАНЕНИЕ--сердечный приступ	2
ПРОИЗВОДСТВО--"текстильное производство"	ЗДРАВООХРАНЕНИЕ--спорт	2
ПРОИЗВОДСТВО--"текстильное производство"	ИНФРАСТРУКТУРА--"общественный транспорт"	2
ПРОИЗВОДСТВО--"текстильное производство"	ИНФРАСТРУКТУРА--дороги	2
ПРОИЗВОДСТВО--"текстильное производство"	ИНФРАСТРУКТУРА--строительство	2
ПРОИЗВОДСТВО--"текстильное производство"	ИНФРАСТРУКТУРА--ямы	2
ПРОИЗВОДСТВО--"текстильное производство"	НАСЕЛЕНИЕ--демографическая яма	2
ПРОИЗВОДСТВО--"текстильное производство"	НАСЕЛЕНИЕ--смертность	2
ПРОИЗВОДСТВО--"текстильное производство"	НАУКА--"монументальные исследования"	2
ПРОИЗВОДСТВО--"текстильное производство"	НАУКА--гранты	2
ПРОИЗВОДСТВО--"текстильное производство"	НАУКА--зарплаты	2
ПРОИЗВОДСТВО--"текстильное производство"	НАУКА--инновации	2
ПРОИЗВОДСТВО--"текстильное производство"	НАУКА--конференции	2
ПРОИЗВОДСТВО--"текстильное производство"	НАУКА--монументальные исследования	2
ПРОИЗВОДСТВО--"текстильное производство"	ОБРАЗОВАНИЕ--"подготовка инженеров"	2
ПРОИЗВОДСТВО--"текстильное производство"	ОБРАЗОВАНИЕ--"прикладные исследования"	2
ПРОИЗВОДСТВО--"текстильное производство"	ОБРАЗОВАНИЕ--университет	2
ПРОИЗВОДСТВО--"текстильное производство"	ОБРАЗОВАНИЕ--учёные	2
ПРОИЗВОДСТВО--"текстильное производство"	ОБРАЗОВАНИЕ--школа	2
ПРОИЗВОДСТВО--"текстильное производство"	ПРОИЗВОДСТВО--"пищевая промышленность"	2
ПРОИЗВОДСТВО--"текстильное производство"	ПРОИЗВОДСТВО--"тяжёлая промышленность"	2
ПРОИЗВОДСТВО--"текстильное производство"	ПРОИЗВОДСТВО--автомобильная промышленность	2
ПРОИЗВОДСТВО--"текстильное производство"	ПРОИЗВОДСТВО--лёгкая промышленность	2
ПРОИЗВОДСТВО--"текстильное производство"	ПРОИЗВОДСТВО--текстильное производство	2
ПРОИЗВОДСТВО--"текстильное производство"	ПРОИЗВОДСТВО--химическая промышленность	2
ПРОИЗВОДСТВО--"текстильное производство"	СЕЛЬСКОЕ ХОЗЯЙСТВО--"поголовье скота"	2
ПРОИЗВОДСТВО--"текстильное производство"	СЕЛЬСКОЕ ХОЗЯЙСТВО--неурожай	2
ПРОИЗВОДСТВО--"текстильное производство"	СЕЛЬСКОЕ ХОЗЯЙСТВО--поголовье скота	2
ПРОИЗВОДСТВО--"текстильное производство"	СЕЛЬСКОЕ ХОЗЯЙСТВО--сельскохозяйственная техника	2
ПРОИЗВОДСТВО--"текстильное производство"	СЕЛЬСКОЕ ХОЗЯЙСТВО--фермер	2
ПРОИЗВОДСТВО--"текстильное производство"	ТОРГОВЛЯ--"беспошлинная торговля"	2
ПРОИЗВОДСТВО--"текстильное производство"	ТОРГОВЛЯ--"открытая экономическая зона"	2
ПРОИЗВОДСТВО--"текстильное производство"	ТОРГОВЛЯ--"розничная торговля"	2
ПРОИЗВОДСТВО--"текстильное производство"	ТОРГОВЛЯ--интернет-магазин	2
ПРОИЗВОДСТВО--"текстильное производство"	ТОРГОВЛЯ--оптовая торговля	2
ПРОИЗВОДСТВО--"текстильное производство"	ТОРГОВЛЯ--открытая экономическая зона	2
ПРОИЗВОДСТВО--"тяжёлая промышленность"	ЗДРАВООХРАНЕНИЕ--сердечный приступ	2
ПРОИЗВОДСТВО--"тяжёлая промышленность"	НАУКА--наука	2
ПРОИЗВОДСТВО--"тяжёлая промышленность"	ПРОИЗВОДСТВО--"химическая промышленность"	2
ПРОИЗВОДСТВО--"тяжёлая промышленность"	ПРОИЗВОДСТВО--тяжёлая промышленность	2
ПРОИЗВОДСТВО--"химическая промышленность"	НАСЕЛЕНИЕ--"демографическая яма"	2
ПРОИЗВОДСТВО--автомобильная промышленность	СЕЛЬСКОЕ ХОЗЯЙСТВО--урожай	2
ПРОИЗВОДСТВО--лёгкая промышленность	СЕЛЬСКОЕ ХОЗЯЙСТВО--урожай	2
ПРОИЗВОДСТВО--текстильное производство	ИНФРАСТРУКТУРА--общественный транспорт	2
ПРОИЗВОДСТВО--текстильное производство	НАУКА--патент	2
ПРОИЗВОДСТВО--текстильное производство	ПРОИЗВОДСТВО--"автомобильная промышленность"	2
ПРОИЗВОДСТВО--тяжёлая промышленность	ТОРГОВЛЯ--"оптовая торговля"	2
ПРОИЗВОДСТВО--химическая промышленность	ЗДРАВООХРАНЕНИЕ--"сердечно-сосудистые заболевания"	2
ПРОИЗВОДСТВО--химическая промышленность	ЗДРАВООХРАНЕНИЕ--алкоголизм	2
ПРОИЗВОДСТВО--химическая промышленность	ЗДРАВООХРАНЕНИЕ--сердечный приступ	2
ПРОИЗВОДСТВО--химическая промышленность	ИНФРАСТРУКТУРА--дороги	2
ПРОИЗВОДСТВО--химическая промышленность	НАСЕЛЕНИЕ--демографическая яма	2
ПРОИЗВОДСТВО--химическая промышленность	НАСЕЛЕНИЕ--смертность	2
ПРОИЗВОДСТВО--химическая промышленность	ПРОИЗВОДСТВО--"пищевая промышленность"	2
ПРОИЗВОДСТВО--химическая промышленность	ПРОИЗВОДСТВО--биотехнологии	2
ПРОИЗВОДСТВО--химическая промышленность	ТОРГОВЛЯ--международное сотрудничество	2
СЕЛЬСКОЕ ХОЗЯЙСТВО--"поголовье скота"	ЗДРАВООХРАНЕНИЕ--сердечный приступ	2
СЕЛЬСКОЕ ХОЗЯЙСТВО--"поголовье скота"	ПРОИЗВОДСТВО--"химическая промышленность"	2
СЕЛЬСКОЕ ХОЗЯЙСТВО--"поголовье скота"	ПРОИЗВОДСТВО--биотехнологии	2
СЕЛЬСКОЕ ХОЗЯЙСТВО--"поголовье скота"	ПРОИЗВОДСТВО--тяжёлая промышленность	2
СЕЛЬСКОЕ ХОЗЯЙСТВО--"сельскохозяйственная техника"	ЗДРАВООХРАНЕНИЕ--вегетарианство	2
СЕЛЬСКОЕ ХОЗЯЙСТВО--"сельскохозяйственная техника"	ИНФРАСТРУКТУРА--общественный транспорт	2
СЕЛЬСКОЕ ХОЗЯЙСТВО--"сельскохозяйственная техника"	ИНФРАСТРУКТУРА--штраф	2
СЕЛЬСКОЕ ХОЗЯЙСТВО--"сельскохозяйственная техника"	НАСЕЛЕНИЕ--свадьба	2
СЕЛЬСКОЕ ХОЗЯЙСТВО--"сельскохозяйственная техника"	ОБРАЗОВАНИЕ--подготовка инженеров	2
СЕЛЬСКОЕ ХОЗЯЙСТВО--"сельскохозяйственная техника"	ТОРГОВЛЯ--"открытая экономическая зона"	2
СЕЛЬСКОЕ ХОЗЯЙСТВО--неурожай	НАСЕЛЕНИЕ--рождаемость	2
СЕЛЬСКОЕ ХОЗЯЙСТВО--неурожай	СЕЛЬСКОЕ ХОЗЯЙСТВО--пшеница	2
СЕЛЬСКОЕ ХОЗЯЙСТВО--неурожай	ТОРГОВЛЯ--"оптовая торговля"	2
СЕЛЬСКОЕ ХОЗЯЙСТВО--поголовье скота	СЕЛЬСКОЕ ХОЗЯЙСТВО--урожай	2
СЕЛЬСКОЕ ХОЗЯЙСТВО--пшеница	ЗДРАВООХРАНЕНИЕ--"нейро-дегенеративные заболевания"	2
СЕЛЬСКОЕ ХОЗЯЙСТВО--пшеница	ЗДРАВООХРАНЕНИЕ--ЗОЖ	2
СЕЛЬСКОЕ ХОЗЯЙСТВО--пшеница	ЗДРАВООХРАНЕНИЕ--вегетарианство	2
СЕЛЬСКОЕ ХОЗЯЙСТВО--пшеница	ЗДРАВООХРАНЕНИЕ--лекарства	2
СЕЛЬСКОЕ ХОЗЯЙСТВО--пшеница	ЗДРАВООХРАНЕНИЕ--ожирение	2
СЕЛЬСКОЕ ХОЗЯЙСТВО--пшеница	ИНФРАСТРУКТУРА--строительство	2
СЕЛЬСКОЕ ХОЗЯЙСТВО--пшеница	ИНФРАСТРУКТУРА--ямы	2
СЕЛЬСКОЕ ХОЗЯЙСТВО--пшеница	НАУКА--гранты	2
СЕЛЬСКОЕ ХОЗЯЙСТВО--пшеница	НАУКА--инновации	2
СЕЛЬСКОЕ ХОЗЯЙСТВО--пшеница	НАУКА--конференции	2
СЕЛЬСКОЕ ХОЗЯЙСТВО--пшеница	НАУКА--монументальные исследования	2
СЕЛЬСКОЕ ХОЗЯЙСТВО--пшеница	ОБРАЗОВАНИЕ--"подготовка инженеров"	2
СЕЛЬСКОЕ ХОЗЯЙСТВО--пшеница	ПРОИЗВОДСТВО--"тяжёлая промышленность"	2
СЕЛЬСКОЕ ХОЗЯЙСТВО--пшеница	ПРОИЗВОДСТВО--автомобильная промышленность	2
СЕЛЬСКОЕ ХОЗЯЙСТВО--пшеница	ПРОИЗВОДСТВО--лёгкая промышленность	2
СЕЛЬСКОЕ ХОЗЯЙСТВО--пшеница	ПРОИЗВОДСТВО--текстильное производство	2
СЕЛЬСКОЕ ХОЗЯЙСТВО--пшеница	ПРОИЗВОДСТВО--химическая промышленность	2
СЕЛЬСКОЕ ХОЗЯЙСТВО--пшеница	СЕЛЬСКОЕ ХОЗЯЙСТВО--"поголовье скота"	2
СЕЛЬСКОЕ ХОЗЯЙСТВО--пшеница	СЕЛЬСКОЕ ХОЗЯЙСТВО--поголовье скота	2
СЕЛЬСКОЕ ХОЗЯЙСТВО--пшеница	СЕЛЬСКОЕ ХОЗЯЙСТВО--сельскохозяйственная техника	2
СЕЛЬСКОЕ ХОЗЯЙСТВО--пшеница	СЕЛЬСКОЕ ХОЗЯЙСТВО--фермер	2
СЕЛЬСКОЕ ХОЗЯЙСТВО--пшеница	ТОРГОВЛЯ--"беспошлинная торговля"	2
СЕЛЬСКОЕ ХОЗЯЙСТВО--пшеница	ТОРГОВЛЯ--"интернет-магазин"	2
СЕЛЬСКОЕ ХОЗЯЙСТВО--пшеница	ТОРГОВЛЯ--"открытая экономическая зона"	2
СЕЛЬСКОЕ ХОЗЯЙСТВО--пшеница	ТОРГОВЛЯ--интернет-магазин	2
СЕЛЬСКОЕ ХОЗЯЙСТВО--пшеница	ТОРГОВЛЯ--оптовая торговля	2
СЕЛЬСКОЕ ХОЗЯЙСТВО--пшеница	ТОРГОВЛЯ--открытая экономическая зона	2
СЕЛЬСКОЕ ХОЗЯЙСТВО--сельскохозяйственная техника	ЗДРАВООХРАНЕНИЕ--БАД	2
СЕЛЬСКОЕ ХОЗЯЙСТВО--сельскохозяйственная техника	ЗДРАВООХРАНЕНИЕ--лекарства	2
СЕЛЬСКОЕ ХОЗЯЙСТВО--сельскохозяйственная техника	ИНФРАСТРУКТУРА--"общественный транспорт"	2
СЕЛЬСКОЕ ХОЗЯЙСТВО--сельскохозяйственная техника	ИНФРАСТРУКТУРА--строительство	2
СЕЛЬСКОЕ ХОЗЯЙСТВО--сельскохозяйственная техника	ОБРАЗОВАНИЕ--"подготовка инженеров"	2
СЕЛЬСКОЕ ХОЗЯЙСТВО--сельскохозяйственная техника	ОБРАЗОВАНИЕ--университет	2
СЕЛЬСКОЕ ХОЗЯЙСТВО--сельскохозяйственная техника	ПРОИЗВОДСТВО--"пищевая промышленность"	2
СЕЛЬСКОЕ ХОЗЯЙСТВО--сельскохозяйственная техника	ПРОИЗВОДСТВО--автомобильная промышленность	2
СЕЛЬСКОЕ ХОЗЯЙСТВО--сельскохозяйственная техника	ПРОИЗВОДСТВО--лёгкая промышленность	2
СЕЛЬСКОЕ ХОЗЯЙСТВО--сельскохозяйственная техника	СЕЛЬСКОЕ ХОЗЯЙСТВО--"поголовье скота"	2
СЕЛЬСКОЕ ХОЗЯЙСТВО--сельскохозяйственная техника	ТОРГОВЛЯ--"беспошлинная торговля"	2
СЕЛЬСКОЕ ХОЗЯЙСТВО--сельскохозяйственная техника	ТОРГОВЛЯ--"интернет-магазин"	2
СЕЛЬСКОЕ ХОЗЯЙСТВО--сельскохозяйственная техника	ТОРГОВЛЯ--"открытая экономическая зона"	2
СЕЛЬСКОЕ ХОЗЯЙСТВО--сельскохозяйственная техника	ТОРГОВЛЯ--"розничная торговля"	2
СЕЛЬСКОЕ ХОЗЯЙСТВО--сельскохозяйственная техника	ТОРГОВЛЯ--оптовая торговля	2
СЕЛЬСКОЕ ХОЗЯЙСТВО--урожай	ПРОИЗВОДСТВО--тяжёлая промышленность	2
ТОРГОВЛЯ--"беспошлинная торговля"	ИНФРАСТРУКТУРА--штраф	2
ТОРГОВЛЯ--"беспошлинная торговля"	ПРОИЗВОДСТВО--"химическая промышленность"	2
ТОРГОВЛЯ--"беспошлинная торговля"	ПРОИЗВОДСТВО--тяжёлая промышленность	2
ТОРГОВЛЯ--"беспошлинная торговля"	ТОРГОВЛЯ--беспошлинная торговля	2
ТОРГОВЛЯ--"оптовая торговля"	ЗДРАВООХРАНЕНИЕ--лекарства	2
ТОРГОВЛЯ--"оптовая торговля"	ИНФРАСТРУКТУРА--общественный транспорт	2
ТОРГОВЛЯ--"оптовая торговля"	НАСЕЛЕНИЕ--рождаемость	2
ТОРГОВЛЯ--"оптовая торговля"	ПРОИЗВОДСТВО--текстильное производство	2
ТОРГОВЛЯ--"розничная торговля"	ИНФРАСТРУКТУРА--штраф	2
ТОРГОВЛЯ--"розничная торговля"	ПРОИЗВОДСТВО--"химическая промышленность"	2
ТОРГОВЛЯ--"розничная торговля"	ПРОИЗВОДСТВО--тяжёлая промышленность	2
ТОРГОВЛЯ--"розничная торговля"	ТОРГОВЛЯ--международное сотрудничество	2
ТОРГОВЛЯ--беспошлинная торговля	ЗДРАВООХРАНЕНИЕ--вегетарианство	2
ТОРГОВЛЯ--беспошлинная торговля	ИНФРАСТРУКТУРА--строительство	2
ТОРГОВЛЯ--беспошлинная торговля	НАУКА--гранты	2
ТОРГОВЛЯ--беспошлинная торговля	ПРОИЗВОДСТВО--"лёгкая промышленность"	2
ТОРГОВЛЯ--беспошлинная торговля	ПРОИЗВОДСТВО--химическая промышленность	2
ТОРГОВЛЯ--беспошлинная торговля	СЕЛЬСКОЕ ХОЗЯЙСТВО--"поголовье скота"	2
ТОРГОВЛЯ--беспошлинная торговля	СЕЛЬСКОЕ ХОЗЯЙСТВО--поголовье скота	2
ТОРГОВЛЯ--беспошлинная торговля	ТОРГОВЛЯ--"интернет-магазин"	2
ТОРГОВЛЯ--беспошлинная торговля	ТОРГОВЛЯ--"открытая экономическая зона"	2
ТОРГОВЛЯ--беспошлинная торговля	ТОРГОВЛЯ--"розничная торговля"	2
ТОРГОВЛЯ--международное сотрудничество	ПРОИЗВОДСТВО--текстильное производство	2
ТОРГОВЛЯ--оптовая торговля	ЗДРАВООХРАНЕНИЕ--вегетарианство	2
ТОРГОВЛЯ--оптовая торговля	ЗДРАВООХРАНЕНИЕ--витамины	2
ТОРГОВЛЯ--оптовая торговля	НАУКА--патент	2
ТОРГОВЛЯ--оптовая торговля	ПРОИЗВОДСТВО--"химическая промышленность"	2
ТОРГОВЛЯ--оптовая торговля	ПРОИЗВОДСТВО--тяжёлая промышленность	2
ТОРГОВЛЯ--оптовая торговля	ТОРГОВЛЯ--международное сотрудничество	2
