q1	q2	maxCorr_lag
ЗДРАВООХРАНЕНИЕ--"нейро-дегенеративные заболевания"	ТОРГОВЛЯ--"оптовая торговля"	3
ЗДРАВООХРАНЕНИЕ--"сердечный приступ"	ЗДРАВООХРАНЕНИЕ--БАД	3
ЗДРАВООХРАНЕНИЕ--"сердечный приступ"	ЗДРАВООХРАНЕНИЕ--алкоголизм	3
ЗДРАВООХРАНЕНИЕ--"сердечный приступ"	ЗДРАВООХРАНЕНИЕ--депрессия	3
ЗДРАВООХРАНЕНИЕ--"сердечный приступ"	ЗДРАВООХРАНЕНИЕ--ожирение	3
ЗДРАВООХРАНЕНИЕ--"сердечный приступ"	ЗДРАВООХРАНЕНИЕ--сердечно-сосудистые заболевания	3
ЗДРАВООХРАНЕНИЕ--"сердечный приступ"	НАУКА--"монументальные исследования"	3
ЗДРАВООХРАНЕНИЕ--"сердечный приступ"	НАУКА--зарплаты	3
ЗДРАВООХРАНЕНИЕ--"сердечный приступ"	НАУКА--конференции	3
ЗДРАВООХРАНЕНИЕ--"сердечный приступ"	ОБРАЗОВАНИЕ--"подготовка инженеров"	3
ЗДРАВООХРАНЕНИЕ--"сердечный приступ"	ОБРАЗОВАНИЕ--"прикладные исследования"	3
ЗДРАВООХРАНЕНИЕ--"сердечный приступ"	ОБРАЗОВАНИЕ--университет	3
ЗДРАВООХРАНЕНИЕ--"сердечный приступ"	ОБРАЗОВАНИЕ--учёные	3
ЗДРАВООХРАНЕНИЕ--"сердечный приступ"	ОБРАЗОВАНИЕ--школа	3
ЗДРАВООХРАНЕНИЕ--"сердечный приступ"	ПРОИЗВОДСТВО--"пищевая промышленность"	3
ЗДРАВООХРАНЕНИЕ--"сердечный приступ"	ПРОИЗВОДСТВО--"тяжёлая промышленность"	3
ЗДРАВООХРАНЕНИЕ--"сердечный приступ"	ПРОИЗВОДСТВО--автомобильная промышленность	3
ЗДРАВООХРАНЕНИЕ--"сердечный приступ"	ПРОИЗВОДСТВО--лёгкая промышленность	3
ЗДРАВООХРАНЕНИЕ--"сердечный приступ"	ТОРГОВЛЯ--"беспошлинная торговля"	3
ЗДРАВООХРАНЕНИЕ--"сердечный приступ"	ТОРГОВЛЯ--интернет-магазин	3
ЗДРАВООХРАНЕНИЕ--вегетарианство	ПРОИЗВОДСТВО--химическая промышленность	3
ЗДРАВООХРАНЕНИЕ--витамины	СЕЛЬСКОЕ ХОЗЯЙСТВО--сельскохозяйственная техника	3
ЗДРАВООХРАНЕНИЕ--витамины	ТОРГОВЛЯ--открытая экономическая зона	3
ЗДРАВООХРАНЕНИЕ--ожирение	СЕЛЬСКОЕ ХОЗЯЙСТВО--сельскохозяйственная техника	3
ЗДРАВООХРАНЕНИЕ--сердечный приступ	НАУКА--патент	3
ИНФРАСТРУКТУРА--дороги	СЕЛЬСКОЕ ХОЗЯЙСТВО--"сельскохозяйственная техника"	3
ИНФРАСТРУКТУРА--дороги	ТОРГОВЛЯ--"международное сотрудничество"	3
ИНФРАСТРУКТУРА--строительство	ЗДРАВООХРАНЕНИЕ--алкоголизм	3
ИНФРАСТРУКТУРА--штраф	ЗДРАВООХРАНЕНИЕ--"сердечный приступ"	3
ИНФРАСТРУКТУРА--штраф	НАУКА--патент	3
ИНФРАСТРУКТУРА--ямы	ЗДРАВООХРАНЕНИЕ--БАД	3
ИНФРАСТРУКТУРА--ямы	ЗДРАВООХРАНЕНИЕ--алкоголизм	3
ИНФРАСТРУКТУРА--ямы	НАСЕЛЕНИЕ--свадьба	3
ИНФРАСТРУКТУРА--ямы	ОБРАЗОВАНИЕ--"подготовка рабочих"	3
НАСЕЛЕНИЕ--демографическая яма	ТОРГОВЛЯ--открытая экономическая зона	3
НАУКА--зарплаты	ЗДРАВООХРАНЕНИЕ--"нейро-дегенеративные заболевания"	3
НАУКА--зарплаты	ЗДРАВООХРАНЕНИЕ--ЗОЖ	3
НАУКА--зарплаты	ЗДРАВООХРАНЕНИЕ--сердечный приступ	3
НАУКА--зарплаты	ИНФРАСТРУКТУРА--дороги	3
НАУКА--зарплаты	НАСЕЛЕНИЕ--смертность	3
НАУКА--зарплаты	ПРОИЗВОДСТВО--пищевая промышленность	3
НАУКА--патент	ЗДРАВООХРАНЕНИЕ--сердечно-сосудистые заболевания	3
ОБРАЗОВАНИЕ--"подготовка инженеров"	ТОРГОВЛЯ--"оптовая торговля"	3
ОБРАЗОВАНИЕ--"подготовка рабочих"	НАУКА--патент	3
ОБРАЗОВАНИЕ--подготовка инженеров	НАУКА--инновации	3
ОБРАЗОВАНИЕ--подготовка инженеров	ОБРАЗОВАНИЕ--"подготовка рабочих"	3
ОБРАЗОВАНИЕ--подготовка инженеров	ТОРГОВЛЯ--оптовая торговля	3
ОБРАЗОВАНИЕ--подготовка инженеров	ТОРГОВЛЯ--открытая экономическая зона	3
ОБРАЗОВАНИЕ--подготовка рабочих	НАУКА--инновации	3
ОБРАЗОВАНИЕ--подготовка рабочих	ОБРАЗОВАНИЕ--"подготовка рабочих"	3
ОБРАЗОВАНИЕ--подготовка рабочих	ПРОИЗВОДСТВО--пищевая промышленность	3
ОБРАЗОВАНИЕ--подготовка рабочих	ТОРГОВЛЯ--оптовая торговля	3
ОБРАЗОВАНИЕ--подготовка рабочих	ТОРГОВЛЯ--открытая экономическая зона	3
ОБРАЗОВАНИЕ--прикладные исследования	ЗДРАВООХРАНЕНИЕ--БАД	3
ОБРАЗОВАНИЕ--прикладные исследования	ЗДРАВООХРАНЕНИЕ--алкоголизм	3
ОБРАЗОВАНИЕ--прикладные исследования	ИНФРАСТРУКТУРА--"общественный транспорт"	3
ОБРАЗОВАНИЕ--прикладные исследования	ТОРГОВЛЯ--открытая экономическая зона	3
ОБРАЗОВАНИЕ--учителя	НАУКА--инновации	3
ОБРАЗОВАНИЕ--учителя	ОБРАЗОВАНИЕ--"подготовка рабочих"	3
ОБРАЗОВАНИЕ--учителя	ТОРГОВЛЯ--оптовая торговля	3
ОБРАЗОВАНИЕ--учителя	ТОРГОВЛЯ--открытая экономическая зона	3
ПРОИЗВОДСТВО--"лёгкая промышленность"	ОБРАЗОВАНИЕ--"подготовка рабочих"	3
ПРОИЗВОДСТВО--"лёгкая промышленность"	ТОРГОВЛЯ--открытая экономическая зона	3
ПРОИЗВОДСТВО--"пищевая промышленность"	ПРОИЗВОДСТВО--пищевая промышленность	3
ПРОИЗВОДСТВО--"химическая промышленность"	ЗДРАВООХРАНЕНИЕ--лекарства	3
ПРОИЗВОДСТВО--биотехнологии	ЗДРАВООХРАНЕНИЕ--БАД	3
ПРОИЗВОДСТВО--биотехнологии	ЗДРАВООХРАНЕНИЕ--алкоголизм	3
ПРОИЗВОДСТВО--биотехнологии	ИНФРАСТРУКТУРА--"общественный транспорт"	3
ПРОИЗВОДСТВО--биотехнологии	ОБРАЗОВАНИЕ--"прикладные исследования"	3
ПРОИЗВОДСТВО--биотехнологии	ОБРАЗОВАНИЕ--учёные	3
ПРОИЗВОДСТВО--биотехнологии	ПРОИЗВОДСТВО--"пищевая промышленность"	3
ПРОИЗВОДСТВО--биотехнологии	ТОРГОВЛЯ--интернет-магазин	3
ПРОИЗВОДСТВО--биотехнологии	ТОРГОВЛЯ--открытая экономическая зона	3
ПРОИЗВОДСТВО--пищевая промышленность	ТОРГОВЛЯ--открытая экономическая зона	3
ПРОИЗВОДСТВО--текстильное производство	ОБРАЗОВАНИЕ--"подготовка рабочих"	3
ПРОИЗВОДСТВО--текстильное производство	СЕЛЬСКОЕ ХОЗЯЙСТВО--сельскохозяйственная техника	3
СЕЛЬСКОЕ ХОЗЯЙСТВО--"сельскохозяйственная техника"	ЗДРАВООХРАНЕНИЕ--"нейро-дегенеративные заболевания"	3
СЕЛЬСКОЕ ХОЗЯЙСТВО--"сельскохозяйственная техника"	ЗДРАВООХРАНЕНИЕ--БАД	3
СЕЛЬСКОЕ ХОЗЯЙСТВО--"сельскохозяйственная техника"	ЗДРАВООХРАНЕНИЕ--алкоголизм	3
СЕЛЬСКОЕ ХОЗЯЙСТВО--"сельскохозяйственная техника"	ЗДРАВООХРАНЕНИЕ--депрессия	3
СЕЛЬСКОЕ ХОЗЯЙСТВО--"сельскохозяйственная техника"	ЗДРАВООХРАНЕНИЕ--ожирение	3
СЕЛЬСКОЕ ХОЗЯЙСТВО--"сельскохозяйственная техника"	ЗДРАВООХРАНЕНИЕ--сердечно-сосудистые заболевания	3
СЕЛЬСКОЕ ХОЗЯЙСТВО--"сельскохозяйственная техника"	ИНФРАСТРУКТУРА--"общественный транспорт"	3
СЕЛЬСКОЕ ХОЗЯЙСТВО--"сельскохозяйственная техника"	НАСЕЛЕНИЕ--смертность	3
СЕЛЬСКОЕ ХОЗЯЙСТВО--"сельскохозяйственная техника"	НАУКА--гранты	3
СЕЛЬСКОЕ ХОЗЯЙСТВО--"сельскохозяйственная техника"	НАУКА--зарплаты	3
СЕЛЬСКОЕ ХОЗЯЙСТВО--"сельскохозяйственная техника"	НАУКА--инновации	3
СЕЛЬСКОЕ ХОЗЯЙСТВО--"сельскохозяйственная техника"	НАУКА--монументальные исследования	3
СЕЛЬСКОЕ ХОЗЯЙСТВО--"сельскохозяйственная техника"	ОБРАЗОВАНИЕ--"подготовка инженеров"	3
СЕЛЬСКОЕ ХОЗЯЙСТВО--"сельскохозяйственная техника"	ОБРАЗОВАНИЕ--"прикладные исследования"	3
СЕЛЬСКОЕ ХОЗЯЙСТВО--"сельскохозяйственная техника"	ПРОИЗВОДСТВО--"тяжёлая промышленность"	3
СЕЛЬСКОЕ ХОЗЯЙСТВО--"сельскохозяйственная техника"	ПРОИЗВОДСТВО--автомобильная промышленность	3
СЕЛЬСКОЕ ХОЗЯЙСТВО--"сельскохозяйственная техника"	ПРОИЗВОДСТВО--лёгкая промышленность	3
СЕЛЬСКОЕ ХОЗЯЙСТВО--"сельскохозяйственная техника"	ПРОИЗВОДСТВО--пищевая промышленность	3
СЕЛЬСКОЕ ХОЗЯЙСТВО--"сельскохозяйственная техника"	СЕЛЬСКОЕ ХОЗЯЙСТВО--"поголовье скота"	3
СЕЛЬСКОЕ ХОЗЯЙСТВО--"сельскохозяйственная техника"	ТОРГОВЛЯ--интернет-магазин	3
СЕЛЬСКОЕ ХОЗЯЙСТВО--"сельскохозяйственная техника"	ТОРГОВЛЯ--оптовая торговля	3
СЕЛЬСКОЕ ХОЗЯЙСТВО--"сельскохозяйственная техника"	ТОРГОВЛЯ--открытая экономическая зона	3
СЕЛЬСКОЕ ХОЗЯЙСТВО--поголовье скота	ТОРГОВЛЯ--"оптовая торговля"	3
СЕЛЬСКОЕ ХОЗЯЙСТВО--сельскохозяйственная техника	НАУКА--зарплаты	3
ТОРГОВЛЯ--"интернет-магазин"	СЕЛЬСКОЕ ХОЗЯЙСТВО--"сельскохозяйственная техника"	3
ТОРГОВЛЯ--"международное сотрудничество"	ЗДРАВООХРАНЕНИЕ--алкоголизм	3
ТОРГОВЛЯ--"международное сотрудничество"	ЗДРАВООХРАНЕНИЕ--депрессия	3
ТОРГОВЛЯ--"международное сотрудничество"	ИНФРАСТРУКТУРА--строительство	3
ТОРГОВЛЯ--"международное сотрудничество"	НАУКА--зарплаты	3
ТОРГОВЛЯ--"международное сотрудничество"	НАУКА--конференции	3
ТОРГОВЛЯ--"международное сотрудничество"	ОБРАЗОВАНИЕ--"прикладные исследования"	3
ТОРГОВЛЯ--"международное сотрудничество"	ОБРАЗОВАНИЕ--университет	3
ТОРГОВЛЯ--"международное сотрудничество"	ОБРАЗОВАНИЕ--учёные	3
ТОРГОВЛЯ--"международное сотрудничество"	ОБРАЗОВАНИЕ--школа	3
ТОРГОВЛЯ--"международное сотрудничество"	ПРОИЗВОДСТВО--"лёгкая промышленность"	3
ТОРГОВЛЯ--"международное сотрудничество"	СЕЛЬСКОЕ ХОЗЯЙСТВО--"сельскохозяйственная техника"	3
ТОРГОВЛЯ--"оптовая торговля"	СЕЛЬСКОЕ ХОЗЯЙСТВО--урожай	3
ТОРГОВЛЯ--международное сотрудничество	НАСЕЛЕНИЕ--"демографическая яма"	3
ТОРГОВЛЯ--международное сотрудничество	СЕЛЬСКОЕ ХОЗЯЙСТВО--поголовье скота	3
ТОРГОВЛЯ--международное сотрудничество	СЕЛЬСКОЕ ХОЗЯЙСТВО--фермер	3
ТОРГОВЛЯ--международное сотрудничество	ТОРГОВЛЯ--"открытая экономическая зона"	3
