q1	q2	maxCorr_lag
ЗДРАВООХРАНЕНИЕ--"нейро-дегенеративные заболевания"	ИНФРАСТРУКТУРА--парковка	4
ЗДРАВООХРАНЕНИЕ--"сердечно-сосудистые заболевания"	ТОРГОВЛЯ--международное сотрудничество	4
ЗДРАВООХРАНЕНИЕ--"сердечный приступ"	ИНФРАСТРУКТУРА--общественный транспорт	4
ЗДРАВООХРАНЕНИЕ--БАД	ПРОИЗВОДСТВО--"лёгкая промышленность"	4
ЗДРАВООХРАНЕНИЕ--ЗОЖ	ТОРГОВЛЯ--международное сотрудничество	4
ЗДРАВООХРАНЕНИЕ--алкоголизм	ИНФРАСТРУКТУРА--парковка	4
ЗДРАВООХРАНЕНИЕ--вегетарианство	НАУКА--гранты	4
ЗДРАВООХРАНЕНИЕ--вегетарианство	ПРОИЗВОДСТВО--текстильное производство	4
ЗДРАВООХРАНЕНИЕ--витамины	ЗДРАВООХРАНЕНИЕ--"нейро-дегенеративные заболевания"	4
ЗДРАВООХРАНЕНИЕ--витамины	ЗДРАВООХРАНЕНИЕ--ЗОЖ	4
ЗДРАВООХРАНЕНИЕ--витамины	ЗДРАВООХРАНЕНИЕ--ожирение	4
ЗДРАВООХРАНЕНИЕ--витамины	ЗДРАВООХРАНЕНИЕ--сердечно-сосудистые заболевания	4
ЗДРАВООХРАНЕНИЕ--витамины	ИНФРАСТРУКТУРА--дороги	4
ЗДРАВООХРАНЕНИЕ--витамины	ИНФРАСТРУКТУРА--парковка	4
ЗДРАВООХРАНЕНИЕ--витамины	ИНФРАСТРУКТУРА--строительство	4
ЗДРАВООХРАНЕНИЕ--витамины	ИНФРАСТРУКТУРА--ямы	4
ЗДРАВООХРАНЕНИЕ--витамины	НАУКА--"монументальные исследования"	4
ЗДРАВООХРАНЕНИЕ--витамины	НАУКА--гранты	4
ЗДРАВООХРАНЕНИЕ--витамины	НАУКА--зарплаты	4
ЗДРАВООХРАНЕНИЕ--витамины	НАУКА--наука	4
ЗДРАВООХРАНЕНИЕ--витамины	ОБРАЗОВАНИЕ--"прикладные исследования"	4
ЗДРАВООХРАНЕНИЕ--витамины	ОБРАЗОВАНИЕ--школа	4
ЗДРАВООХРАНЕНИЕ--витамины	ПРОИЗВОДСТВО--"тяжёлая промышленность"	4
ЗДРАВООХРАНЕНИЕ--витамины	ПРОИЗВОДСТВО--текстильное производство	4
ЗДРАВООХРАНЕНИЕ--витамины	ПРОИЗВОДСТВО--химическая промышленность	4
ЗДРАВООХРАНЕНИЕ--витамины	СЕЛЬСКОЕ ХОЗЯЙСТВО--"сельскохозяйственная техника"	4
ЗДРАВООХРАНЕНИЕ--витамины	ТОРГОВЛЯ--"интернет-магазин"	4
ЗДРАВООХРАНЕНИЕ--лекарства	ЗДРАВООХРАНЕНИЕ--"сердечно-сосудистые заболевания"	4
ЗДРАВООХРАНЕНИЕ--лекарства	ЗДРАВООХРАНЕНИЕ--ЗОЖ	4
ЗДРАВООХРАНЕНИЕ--лекарства	ЗДРАВООХРАНЕНИЕ--сердечно-сосудистые заболевания	4
ЗДРАВООХРАНЕНИЕ--лекарства	ЗДРАВООХРАНЕНИЕ--сердечный приступ	4
ЗДРАВООХРАНЕНИЕ--лекарства	ИНФРАСТРУКТУРА--"общественный транспорт"	4
ЗДРАВООХРАНЕНИЕ--лекарства	ИНФРАСТРУКТУРА--дороги	4
ЗДРАВООХРАНЕНИЕ--лекарства	НАУКА--"монументальные исследования"	4
ЗДРАВООХРАНЕНИЕ--лекарства	НАУКА--институт	4
ЗДРАВООХРАНЕНИЕ--лекарства	ОБРАЗОВАНИЕ--школа	4
ЗДРАВООХРАНЕНИЕ--лекарства	ПРОИЗВОДСТВО--"автомобильная промышленность"	4
ЗДРАВООХРАНЕНИЕ--лекарства	ПРОИЗВОДСТВО--"пищевая промышленность"	4
ЗДРАВООХРАНЕНИЕ--лекарства	СЕЛЬСКОЕ ХОЗЯЙСТВО--неурожай	4
ЗДРАВООХРАНЕНИЕ--нейро-дегенеративные заболевания	ЗДРАВООХРАНЕНИЕ--"сердечно-сосудистые заболевания"	4
ЗДРАВООХРАНЕНИЕ--нейро-дегенеративные заболевания	ЗДРАВООХРАНЕНИЕ--сердечно-сосудистые заболевания	4
ЗДРАВООХРАНЕНИЕ--нейро-дегенеративные заболевания	ЗДРАВООХРАНЕНИЕ--спорт	4
ЗДРАВООХРАНЕНИЕ--нейро-дегенеративные заболевания	ИНФРАСТРУКТУРА--дороги	4
ЗДРАВООХРАНЕНИЕ--нейро-дегенеративные заболевания	НАСЕЛЕНИЕ--демографическая яма	4
ЗДРАВООХРАНЕНИЕ--нейро-дегенеративные заболевания	НАУКА--"монументальные исследования"	4
ЗДРАВООХРАНЕНИЕ--нейро-дегенеративные заболевания	ПРОИЗВОДСТВО--"автомобильная промышленность"	4
ЗДРАВООХРАНЕНИЕ--нейро-дегенеративные заболевания	ПРОИЗВОДСТВО--"пищевая промышленность"	4
ЗДРАВООХРАНЕНИЕ--нейро-дегенеративные заболевания	СЕЛЬСКОЕ ХОЗЯЙСТВО--сельскохозяйственная техника	4
ЗДРАВООХРАНЕНИЕ--сердечный приступ	ИНФРАСТРУКТУРА--штраф	4
ЗДРАВООХРАНЕНИЕ--сердечный приступ	ОБРАЗОВАНИЕ--подготовка инженеров	4
ЗДРАВООХРАНЕНИЕ--спорт	ПРОИЗВОДСТВО--"лёгкая промышленность"	4
ЗДРАВООХРАНЕНИЕ--спорт	СЕЛЬСКОЕ ХОЗЯЙСТВО--"сельскохозяйственная техника"	4
ЗДРАВООХРАНЕНИЕ--спорт	ТОРГОВЛЯ--"розничная торговля"	4
ИНФРАСТРУКТУРА--"общественный транспорт"	ТОРГОВЛЯ--международное сотрудничество	4
ИНФРАСТРУКТУРА--дороги	НАУКА--институт	4
ИНФРАСТРУКТУРА--дороги	ПРОИЗВОДСТВО--лёгкая промышленность	4
ИНФРАСТРУКТУРА--общественный транспорт	НАСЕЛЕНИЕ--рождаемость	4
ИНФРАСТРУКТУРА--общественный транспорт	СЕЛЬСКОЕ ХОЗЯЙСТВО--пшеница	4
ИНФРАСТРУКТУРА--парковка	ОБРАЗОВАНИЕ--университет	4
ИНФРАСТРУКТУРА--парковка	ПРОИЗВОДСТВО--автомобильная промышленность	4
ИНФРАСТРУКТУРА--парковка	ПРОИЗВОДСТВО--лёгкая промышленность	4
ИНФРАСТРУКТУРА--парковка	ТОРГОВЛЯ--"беспошлинная торговля"	4
ИНФРАСТРУКТУРА--строительство	ЗДРАВООХРАНЕНИЕ--"сердечно-сосудистые заболевания"	4
ИНФРАСТРУКТУРА--строительство	ЗДРАВООХРАНЕНИЕ--сердечно-сосудистые заболевания	4
ИНФРАСТРУКТУРА--строительство	ЗДРАВООХРАНЕНИЕ--сердечный приступ	4
ИНФРАСТРУКТУРА--строительство	ИНФРАСТРУКТУРА--"общественный транспорт"	4
ИНФРАСТРУКТУРА--строительство	ИНФРАСТРУКТУРА--дороги	4
ИНФРАСТРУКТУРА--строительство	НАУКА--институт	4
ИНФРАСТРУКТУРА--строительство	ПРОИЗВОДСТВО--"автомобильная промышленность"	4
ИНФРАСТРУКТУРА--строительство	ПРОИЗВОДСТВО--"пищевая промышленность"	4
ИНФРАСТРУКТУРА--штраф	ПРОИЗВОДСТВО--"текстильное производство"	4
ИНФРАСТРУКТУРА--ямы	ЗДРАВООХРАНЕНИЕ--"сердечно-сосудистые заболевания"	4
ИНФРАСТРУКТУРА--ямы	ЗДРАВООХРАНЕНИЕ--депрессия	4
ИНФРАСТРУКТУРА--ямы	ЗДРАВООХРАНЕНИЕ--ожирение	4
ИНФРАСТРУКТУРА--ямы	ЗДРАВООХРАНЕНИЕ--сердечно-сосудистые заболевания	4
ИНФРАСТРУКТУРА--ямы	ЗДРАВООХРАНЕНИЕ--сердечный приступ	4
ИНФРАСТРУКТУРА--ямы	ИНФРАСТРУКТУРА--"общественный транспорт"	4
ИНФРАСТРУКТУРА--ямы	ИНФРАСТРУКТУРА--дороги	4
ИНФРАСТРУКТУРА--ямы	НАСЕЛЕНИЕ--демографическая яма	4
ИНФРАСТРУКТУРА--ямы	НАСЕЛЕНИЕ--смертность	4
ИНФРАСТРУКТУРА--ямы	НАУКА--зарплаты	4
ИНФРАСТРУКТУРА--ямы	НАУКА--инновации	4
ИНФРАСТРУКТУРА--ямы	НАУКА--институт	4
ИНФРАСТРУКТУРА--ямы	НАУКА--монументальные исследования	4
ИНФРАСТРУКТУРА--ямы	ОБРАЗОВАНИЕ--"подготовка инженеров"	4
ИНФРАСТРУКТУРА--ямы	ОБРАЗОВАНИЕ--школа	4
ИНФРАСТРУКТУРА--ямы	ПРОИЗВОДСТВО--"автомобильная промышленность"	4
ИНФРАСТРУКТУРА--ямы	ПРОИЗВОДСТВО--"пищевая промышленность"	4
ИНФРАСТРУКТУРА--ямы	ПРОИЗВОДСТВО--"тяжёлая промышленность"	4
ИНФРАСТРУКТУРА--ямы	ПРОИЗВОДСТВО--биотехнологии	4
ИНФРАСТРУКТУРА--ямы	ПРОИЗВОДСТВО--лёгкая промышленность	4
ИНФРАСТРУКТУРА--ямы	ПРОИЗВОДСТВО--пищевая промышленность	4
НАСЕЛЕНИЕ--"демографическая яма"	СЕЛЬСКОЕ ХОЗЯЙСТВО--пшеница	4
НАСЕЛЕНИЕ--демографическая яма	НАСЕЛЕНИЕ--смертность	4
НАСЕЛЕНИЕ--демографическая яма	ПРОИЗВОДСТВО--"химическая промышленность"	4
НАСЕЛЕНИЕ--рождаемость	НАУКА--гранты	4
НАСЕЛЕНИЕ--рождаемость	ПРОИЗВОДСТВО--"лёгкая промышленность"	4
НАСЕЛЕНИЕ--рождаемость	ПРОИЗВОДСТВО--"текстильное производство"	4
НАСЕЛЕНИЕ--рождаемость	ПРОИЗВОДСТВО--текстильное производство	4
НАСЕЛЕНИЕ--рождаемость	ПРОИЗВОДСТВО--химическая промышленность	4
НАСЕЛЕНИЕ--смертность	ИНФРАСТРУКТУРА--строительство	4
НАСЕЛЕНИЕ--смертность	НАУКА--конференции	4
НАСЕЛЕНИЕ--смертность	ОБРАЗОВАНИЕ--"прикладные исследования"	4
НАСЕЛЕНИЕ--смертность	ПРОИЗВОДСТВО--"лёгкая промышленность"	4
НАСЕЛЕНИЕ--смертность	ПРОИЗВОДСТВО--текстильное производство	4
НАСЕЛЕНИЕ--смертность	СЕЛЬСКОЕ ХОЗЯЙСТВО--неурожай	4
НАУКА--"монументальные исследования"	НАСЕЛЕНИЕ--"демографическая яма"	4
НАУКА--"монументальные исследования"	ПРОИЗВОДСТВО--"химическая промышленность"	4
НАУКА--"монументальные исследования"	ТОРГОВЛЯ--международное сотрудничество	4
НАУКА--зарплаты	ПРОИЗВОДСТВО--тяжёлая промышленность	4
НАУКА--зарплаты	СЕЛЬСКОЕ ХОЗЯЙСТВО--урожай	4
НАУКА--институт	ЗДРАВООХРАНЕНИЕ--вегетарианство	4
НАУКА--институт	НАУКА--гранты	4
НАУКА--институт	ПРОИЗВОДСТВО--"лёгкая промышленность"	4
НАУКА--институт	ПРОИЗВОДСТВО--химическая промышленность	4
НАУКА--конференции	ЗДРАВООХРАНЕНИЕ--витамины	4
НАУКА--конференции	ИНФРАСТРУКТУРА--общественный транспорт	4
НАУКА--конференции	НАСЕЛЕНИЕ--"демографическая яма"	4
НАУКА--конференции	НАСЕЛЕНИЕ--рождаемость	4
НАУКА--конференции	НАУКА--патент	4
НАУКА--конференции	ПРОИЗВОДСТВО--тяжёлая промышленность	4
НАУКА--наука	НАУКА--институт	4
НАУКА--патент	ЗДРАВООХРАНЕНИЕ--"сердечно-сосудистые заболевания"	4
ОБРАЗОВАНИЕ--"подготовка рабочих"	НАУКА--гранты	4
ОБРАЗОВАНИЕ--"подготовка рабочих"	НАУКА--конференции	4
ОБРАЗОВАНИЕ--"прикладные исследования"	ИНФРАСТРУКТУРА--парковка	4
ОБРАЗОВАНИЕ--"прикладные исследования"	ТОРГОВЛЯ--международное сотрудничество	4
ОБРАЗОВАНИЕ--подготовка инженеров	ЗДРАВООХРАНЕНИЕ--БАД	4
ОБРАЗОВАНИЕ--подготовка инженеров	ЗДРАВООХРАНЕНИЕ--ЗОЖ	4
ОБРАЗОВАНИЕ--подготовка инженеров	ЗДРАВООХРАНЕНИЕ--алкоголизм	4
ОБРАЗОВАНИЕ--подготовка инженеров	ЗДРАВООХРАНЕНИЕ--ожирение	4
ОБРАЗОВАНИЕ--подготовка инженеров	ЗДРАВООХРАНЕНИЕ--сердечно-сосудистые заболевания	4
ОБРАЗОВАНИЕ--подготовка инженеров	ИНФРАСТРУКТУРА--"общественный транспорт"	4
ОБРАЗОВАНИЕ--подготовка инженеров	ИНФРАСТРУКТУРА--дороги	4
ОБРАЗОВАНИЕ--подготовка инженеров	НАСЕЛЕНИЕ--смертность	4
ОБРАЗОВАНИЕ--подготовка инженеров	НАУКА--"монументальные исследования"	4
ОБРАЗОВАНИЕ--подготовка инженеров	НАУКА--гранты	4
ОБРАЗОВАНИЕ--подготовка инженеров	НАУКА--наука	4
ОБРАЗОВАНИЕ--подготовка инженеров	ОБРАЗОВАНИЕ--"прикладные исследования"	4
ОБРАЗОВАНИЕ--подготовка инженеров	ОБРАЗОВАНИЕ--университет	4
ОБРАЗОВАНИЕ--подготовка инженеров	ОБРАЗОВАНИЕ--учёные	4
ОБРАЗОВАНИЕ--подготовка инженеров	ПРОИЗВОДСТВО--"пищевая промышленность"	4
ОБРАЗОВАНИЕ--подготовка инженеров	ПРОИЗВОДСТВО--"химическая промышленность"	4
ОБРАЗОВАНИЕ--подготовка инженеров	ПРОИЗВОДСТВО--тяжёлая промышленность	4
ОБРАЗОВАНИЕ--подготовка рабочих	ЗДРАВООХРАНЕНИЕ--ЗОЖ	4
ОБРАЗОВАНИЕ--подготовка рабочих	ЗДРАВООХРАНЕНИЕ--ожирение	4
ОБРАЗОВАНИЕ--подготовка рабочих	ЗДРАВООХРАНЕНИЕ--сердечно-сосудистые заболевания	4
ОБРАЗОВАНИЕ--подготовка рабочих	ЗДРАВООХРАНЕНИЕ--сердечный приступ	4
ОБРАЗОВАНИЕ--подготовка рабочих	ИНФРАСТРУКТУРА--"общественный транспорт"	4
ОБРАЗОВАНИЕ--подготовка рабочих	ИНФРАСТРУКТУРА--дороги	4
ОБРАЗОВАНИЕ--подготовка рабочих	НАУКА--гранты	4
ОБРАЗОВАНИЕ--подготовка рабочих	НАУКА--наука	4
ОБРАЗОВАНИЕ--подготовка рабочих	ОБРАЗОВАНИЕ--"прикладные исследования"	4
ОБРАЗОВАНИЕ--подготовка рабочих	ОБРАЗОВАНИЕ--университет	4
ОБРАЗОВАНИЕ--подготовка рабочих	ОБРАЗОВАНИЕ--учёные	4
ОБРАЗОВАНИЕ--подготовка рабочих	ПРОИЗВОДСТВО--"пищевая промышленность"	4
ОБРАЗОВАНИЕ--подготовка рабочих	ПРОИЗВОДСТВО--"химическая промышленность"	4
ОБРАЗОВАНИЕ--подготовка рабочих	ПРОИЗВОДСТВО--тяжёлая промышленность	4
ОБРАЗОВАНИЕ--подготовка рабочих	ТОРГОВЛЯ--интернет-магазин	4
ОБРАЗОВАНИЕ--прикладные исследования	ЗДРАВООХРАНЕНИЕ--"сердечно-сосудистые заболевания"	4
ОБРАЗОВАНИЕ--прикладные исследования	ЗДРАВООХРАНЕНИЕ--ЗОЖ	4
ОБРАЗОВАНИЕ--прикладные исследования	ЗДРАВООХРАНЕНИЕ--сердечно-сосудистые заболевания	4
ОБРАЗОВАНИЕ--прикладные исследования	ЗДРАВООХРАНЕНИЕ--сердечный приступ	4
ОБРАЗОВАНИЕ--прикладные исследования	ИНФРАСТРУКТУРА--дороги	4
ОБРАЗОВАНИЕ--прикладные исследования	ПРОИЗВОДСТВО--"пищевая промышленность"	4
ОБРАЗОВАНИЕ--прикладные исследования	ПРОИЗВОДСТВО--"химическая промышленность"	4
ОБРАЗОВАНИЕ--прикладные исследования	ПРОИЗВОДСТВО--тяжёлая промышленность	4
ОБРАЗОВАНИЕ--университет	НАСЕЛЕНИЕ--"демографическая яма"	4
ОБРАЗОВАНИЕ--университет	НАУКА--наука	4
ОБРАЗОВАНИЕ--учителя	ЗДРАВООХРАНЕНИЕ--"сердечно-сосудистые заболевания"	4
ОБРАЗОВАНИЕ--учителя	ЗДРАВООХРАНЕНИЕ--ЗОЖ	4
ОБРАЗОВАНИЕ--учителя	ЗДРАВООХРАНЕНИЕ--ожирение	4
ОБРАЗОВАНИЕ--учителя	ЗДРАВООХРАНЕНИЕ--сердечно-сосудистые заболевания	4
ОБРАЗОВАНИЕ--учителя	ЗДРАВООХРАНЕНИЕ--сердечный приступ	4
ОБРАЗОВАНИЕ--учителя	ИНФРАСТРУКТУРА--"общественный транспорт"	4
ОБРАЗОВАНИЕ--учителя	ИНФРАСТРУКТУРА--дороги	4
ОБРАЗОВАНИЕ--учителя	НАСЕЛЕНИЕ--смертность	4
ОБРАЗОВАНИЕ--учителя	НАУКА--гранты	4
ОБРАЗОВАНИЕ--учителя	НАУКА--наука	4
ОБРАЗОВАНИЕ--учителя	ОБРАЗОВАНИЕ--"прикладные исследования"	4
ОБРАЗОВАНИЕ--учителя	ОБРАЗОВАНИЕ--университет	4
ОБРАЗОВАНИЕ--учителя	ОБРАЗОВАНИЕ--учёные	4
ОБРАЗОВАНИЕ--учителя	ПРОИЗВОДСТВО--"пищевая промышленность"	4
ОБРАЗОВАНИЕ--учителя	ПРОИЗВОДСТВО--"химическая промышленность"	4
ОБРАЗОВАНИЕ--учителя	ПРОИЗВОДСТВО--тяжёлая промышленность	4
ОБРАЗОВАНИЕ--учителя	ПРОИЗВОДСТВО--химическая промышленность	4
ОБРАЗОВАНИЕ--учителя	ТОРГОВЛЯ--интернет-магазин	4
ОБРАЗОВАНИЕ--учёные	НАСЕЛЕНИЕ--"демографическая яма"	4
ОБРАЗОВАНИЕ--учёные	ПРОИЗВОДСТВО--"лёгкая промышленность"	4
ОБРАЗОВАНИЕ--учёные	СЕЛЬСКОЕ ХОЗЯЙСТВО--урожай	4
ОБРАЗОВАНИЕ--школа	ИНФРАСТРУКТУРА--общественный транспорт	4
ОБРАЗОВАНИЕ--школа	НАСЕЛЕНИЕ--"демографическая яма"	4
ПРОИЗВОДСТВО--"автомобильная промышленность"	ЗДРАВООХРАНЕНИЕ--вегетарианство	4
ПРОИЗВОДСТВО--"автомобильная промышленность"	ЗДРАВООХРАНЕНИЕ--витамины	4
ПРОИЗВОДСТВО--"автомобильная промышленность"	НАУКА--гранты	4
ПРОИЗВОДСТВО--"автомобильная промышленность"	ОБРАЗОВАНИЕ--"подготовка рабочих"	4
ПРОИЗВОДСТВО--"автомобильная промышленность"	СЕЛЬСКОЕ ХОЗЯЙСТВО--"поголовье скота"	4
ПРОИЗВОДСТВО--"автомобильная промышленность"	СЕЛЬСКОЕ ХОЗЯЙСТВО--поголовье скота	4
ПРОИЗВОДСТВО--"автомобильная промышленность"	ТОРГОВЛЯ--открытая экономическая зона	4
ПРОИЗВОДСТВО--"лёгкая промышленность"	ЗДРАВООХРАНЕНИЕ--ЗОЖ	4
ПРОИЗВОДСТВО--"лёгкая промышленность"	ЗДРАВООХРАНЕНИЕ--ожирение	4
ПРОИЗВОДСТВО--"лёгкая промышленность"	ЗДРАВООХРАНЕНИЕ--сердечно-сосудистые заболевания	4
ПРОИЗВОДСТВО--"лёгкая промышленность"	ИНФРАСТРУКТУРА--"общественный транспорт"	4
ПРОИЗВОДСТВО--"лёгкая промышленность"	ИНФРАСТРУКТУРА--дороги	4
ПРОИЗВОДСТВО--"лёгкая промышленность"	НАСЕЛЕНИЕ--демографическая яма	4
ПРОИЗВОДСТВО--"лёгкая промышленность"	НАУКА--"монументальные исследования"	4
ПРОИЗВОДСТВО--"лёгкая промышленность"	НАУКА--наука	4
ПРОИЗВОДСТВО--"лёгкая промышленность"	ОБРАЗОВАНИЕ--университет	4
ПРОИЗВОДСТВО--"лёгкая промышленность"	ПРОИЗВОДСТВО--"пищевая промышленность"	4
ПРОИЗВОДСТВО--"лёгкая промышленность"	ПРОИЗВОДСТВО--"химическая промышленность"	4
ПРОИЗВОДСТВО--"лёгкая промышленность"	ПРОИЗВОДСТВО--лёгкая промышленность	4
ПРОИЗВОДСТВО--"лёгкая промышленность"	СЕЛЬСКОЕ ХОЗЯЙСТВО--сельскохозяйственная техника	4
ПРОИЗВОДСТВО--"пищевая промышленность"	ЗДРАВООХРАНЕНИЕ--витамины	4
ПРОИЗВОДСТВО--"пищевая промышленность"	ОБРАЗОВАНИЕ--"подготовка рабочих"	4
ПРОИЗВОДСТВО--"пищевая промышленность"	СЕЛЬСКОЕ ХОЗЯЙСТВО--урожай	4
ПРОИЗВОДСТВО--"текстильное производство"	ИНФРАСТРУКТУРА--парковка	4
ПРОИЗВОДСТВО--"текстильное производство"	СЕЛЬСКОЕ ХОЗЯЙСТВО--урожай	4
ПРОИЗВОДСТВО--"тяжёлая промышленность"	НАСЕЛЕНИЕ--"демографическая яма"	4
ПРОИЗВОДСТВО--"химическая промышленность"	ИНФРАСТРУКТУРА--штраф	4
ПРОИЗВОДСТВО--"химическая промышленность"	НАУКА--зарплаты	4
ПРОИЗВОДСТВО--"химическая промышленность"	ОБРАЗОВАНИЕ--школа	4
ПРОИЗВОДСТВО--автомобильная промышленность	НАУКА--наука	4
ПРОИЗВОДСТВО--биотехнологии	ЗДРАВООХРАНЕНИЕ--"сердечно-сосудистые заболевания"	4
ПРОИЗВОДСТВО--биотехнологии	ЗДРАВООХРАНЕНИЕ--ЗОЖ	4
ПРОИЗВОДСТВО--биотехнологии	ЗДРАВООХРАНЕНИЕ--спорт	4
ПРОИЗВОДСТВО--биотехнологии	НАСЕЛЕНИЕ--демографическая яма	4
ПРОИЗВОДСТВО--биотехнологии	ПРОИЗВОДСТВО--"химическая промышленность"	4
ПРОИЗВОДСТВО--биотехнологии	СЕЛЬСКОЕ ХОЗЯЙСТВО--неурожай	4
ПРОИЗВОДСТВО--лёгкая промышленность	НАСЕЛЕНИЕ--"демографическая яма"	4
ПРОИЗВОДСТВО--лёгкая промышленность	НАУКА--наука	4
ПРОИЗВОДСТВО--лёгкая промышленность	ПРОИЗВОДСТВО--"химическая промышленность"	4
ПРОИЗВОДСТВО--лёгкая промышленность	ПРОИЗВОДСТВО--тяжёлая промышленность	4
ПРОИЗВОДСТВО--пищевая промышленность	ЗДРАВООХРАНЕНИЕ--"сердечно-сосудистые заболевания"	4
ПРОИЗВОДСТВО--пищевая промышленность	ЗДРАВООХРАНЕНИЕ--ЗОЖ	4
ПРОИЗВОДСТВО--пищевая промышленность	ЗДРАВООХРАНЕНИЕ--сердечно-сосудистые заболевания	4
ПРОИЗВОДСТВО--пищевая промышленность	ЗДРАВООХРАНЕНИЕ--сердечный приступ	4
ПРОИЗВОДСТВО--пищевая промышленность	ИНФРАСТРУКТУРА--дороги	4
ПРОИЗВОДСТВО--пищевая промышленность	НАСЕЛЕНИЕ--"демографическая яма"	4
ПРОИЗВОДСТВО--пищевая промышленность	НАУКА--гранты	4
ПРОИЗВОДСТВО--пищевая промышленность	НАУКА--конференции	4
ПРОИЗВОДСТВО--пищевая промышленность	ОБРАЗОВАНИЕ--"прикладные исследования"	4
ПРОИЗВОДСТВО--пищевая промышленность	ПРОИЗВОДСТВО--"химическая промышленность"	4
ПРОИЗВОДСТВО--пищевая промышленность	СЕЛЬСКОЕ ХОЗЯЙСТВО--неурожай	4
ПРОИЗВОДСТВО--пищевая промышленность	ТОРГОВЛЯ--интернет-магазин	4
ПРОИЗВОДСТВО--текстильное производство	ЗДРАВООХРАНЕНИЕ--БАД	4
ПРОИЗВОДСТВО--текстильное производство	ЗДРАВООХРАНЕНИЕ--алкоголизм	4
ПРОИЗВОДСТВО--текстильное производство	ЗДРАВООХРАНЕНИЕ--депрессия	4
ПРОИЗВОДСТВО--текстильное производство	ЗДРАВООХРАНЕНИЕ--ожирение	4
ПРОИЗВОДСТВО--текстильное производство	ЗДРАВООХРАНЕНИЕ--сердечный приступ	4
ПРОИЗВОДСТВО--текстильное производство	ИНФРАСТРУКТУРА--"общественный транспорт"	4
ПРОИЗВОДСТВО--текстильное производство	НАУКА--гранты	4
ПРОИЗВОДСТВО--текстильное производство	НАУКА--зарплаты	4
ПРОИЗВОДСТВО--текстильное производство	НАУКА--инновации	4
ПРОИЗВОДСТВО--текстильное производство	НАУКА--институт	4
ПРОИЗВОДСТВО--текстильное производство	НАУКА--монументальные исследования	4
ПРОИЗВОДСТВО--текстильное производство	ОБРАЗОВАНИЕ--"подготовка инженеров"	4
ПРОИЗВОДСТВО--текстильное производство	ОБРАЗОВАНИЕ--"прикладные исследования"	4
ПРОИЗВОДСТВО--текстильное производство	ПРОИЗВОДСТВО--"тяжёлая промышленность"	4
ПРОИЗВОДСТВО--текстильное производство	ПРОИЗВОДСТВО--автомобильная промышленность	4
ПРОИЗВОДСТВО--текстильное производство	ПРОИЗВОДСТВО--биотехнологии	4
ПРОИЗВОДСТВО--текстильное производство	ПРОИЗВОДСТВО--лёгкая промышленность	4
ПРОИЗВОДСТВО--текстильное производство	ПРОИЗВОДСТВО--пищевая промышленность	4
ПРОИЗВОДСТВО--текстильное производство	ПРОИЗВОДСТВО--химическая промышленность	4
ПРОИЗВОДСТВО--текстильное производство	СЕЛЬСКОЕ ХОЗЯЙСТВО--"поголовье скота"	4
ПРОИЗВОДСТВО--текстильное производство	СЕЛЬСКОЕ ХОЗЯЙСТВО--поголовье скота	4
ПРОИЗВОДСТВО--текстильное производство	ТОРГОВЛЯ--"открытая экономическая зона"	4
ПРОИЗВОДСТВО--текстильное производство	ТОРГОВЛЯ--интернет-магазин	4
ПРОИЗВОДСТВО--текстильное производство	ТОРГОВЛЯ--открытая экономическая зона	4
ПРОИЗВОДСТВО--тяжёлая промышленность	ЗДРАВООХРАНЕНИЕ--"сердечно-сосудистые заболевания"	4
ПРОИЗВОДСТВО--тяжёлая промышленность	СЕЛЬСКОЕ ХОЗЯЙСТВО--фермер	4
СЕЛЬСКОЕ ХОЗЯЙСТВО--"сельскохозяйственная техника"	ЗДРАВООХРАНЕНИЕ--"сердечно-сосудистые заболевания"	4
СЕЛЬСКОЕ ХОЗЯЙСТВО--"сельскохозяйственная техника"	НАУКА--институт	4
СЕЛЬСКОЕ ХОЗЯЙСТВО--"сельскохозяйственная техника"	ОБРАЗОВАНИЕ--подготовка рабочих	4
СЕЛЬСКОЕ ХОЗЯЙСТВО--"сельскохозяйственная техника"	ПРОИЗВОДСТВО--"пищевая промышленность"	4
СЕЛЬСКОЕ ХОЗЯЙСТВО--"сельскохозяйственная техника"	СЕЛЬСКОЕ ХОЗЯЙСТВО--урожай	4
СЕЛЬСКОЕ ХОЗЯЙСТВО--неурожай	ЗДРАВООХРАНЕНИЕ--витамины	4
СЕЛЬСКОЕ ХОЗЯЙСТВО--неурожай	ЗДРАВООХРАНЕНИЕ--нейро-дегенеративные заболевания	4
СЕЛЬСКОЕ ХОЗЯЙСТВО--неурожай	ИНФРАСТРУКТУРА--парковка	4
СЕЛЬСКОЕ ХОЗЯЙСТВО--неурожай	ПРОИЗВОДСТВО--тяжёлая промышленность	4
СЕЛЬСКОЕ ХОЗЯЙСТВО--пшеница	ЗДРАВООХРАНЕНИЕ--"сердечно-сосудистые заболевания"	4
СЕЛЬСКОЕ ХОЗЯЙСТВО--пшеница	ЗДРАВООХРАНЕНИЕ--сердечный приступ	4
СЕЛЬСКОЕ ХОЗЯЙСТВО--пшеница	ИНФРАСТРУКТУРА--"общественный транспорт"	4
СЕЛЬСКОЕ ХОЗЯЙСТВО--пшеница	НАУКА--институт	4
СЕЛЬСКОЕ ХОЗЯЙСТВО--пшеница	ПРОИЗВОДСТВО--"пищевая промышленность"	4
СЕЛЬСКОЕ ХОЗЯЙСТВО--пшеница	ПРОИЗВОДСТВО--"текстильное производство"	4
СЕЛЬСКОЕ ХОЗЯЙСТВО--пшеница	ТОРГОВЛЯ--международное сотрудничество	4
СЕЛЬСКОЕ ХОЗЯЙСТВО--сельскохозяйственная техника	ОБРАЗОВАНИЕ--учителя	4
СЕЛЬСКОЕ ХОЗЯЙСТВО--сельскохозяйственная техника	ПРОИЗВОДСТВО--"химическая промышленность"	4
СЕЛЬСКОЕ ХОЗЯЙСТВО--сельскохозяйственная техника	ТОРГОВЛЯ--беспошлинная торговля	4
СЕЛЬСКОЕ ХОЗЯЙСТВО--сельскохозяйственная техника	ТОРГОВЛЯ--международное сотрудничество	4
СЕЛЬСКОЕ ХОЗЯЙСТВО--урожай	ЗДРАВООХРАНЕНИЕ--вегетарианство	4
СЕЛЬСКОЕ ХОЗЯЙСТВО--урожай	ИНФРАСТРУКТУРА--общественный транспорт	4
СЕЛЬСКОЕ ХОЗЯЙСТВО--урожай	ТОРГОВЛЯ--беспошлинная торговля	4
СЕЛЬСКОЕ ХОЗЯЙСТВО--фермер	СЕЛЬСКОЕ ХОЗЯЙСТВО--урожай	4
ТОРГОВЛЯ--"беспошлинная торговля"	ПРОИЗВОДСТВО--"автомобильная промышленность"	4
ТОРГОВЛЯ--"интернет-магазин"	ЗДРАВООХРАНЕНИЕ--"сердечно-сосудистые заболевания"	4
ТОРГОВЛЯ--"интернет-магазин"	ИНФРАСТРУКТУРА--общественный транспорт	4
ТОРГОВЛЯ--"интернет-магазин"	ИНФРАСТРУКТУРА--штраф	4
ТОРГОВЛЯ--"интернет-магазин"	ПРОИЗВОДСТВО--"автомобильная промышленность"	4
ТОРГОВЛЯ--"интернет-магазин"	ПРОИЗВОДСТВО--"текстильное производство"	4
ТОРГОВЛЯ--"международное сотрудничество"	ЗДРАВООХРАНЕНИЕ--"сердечно-сосудистые заболевания"	4
ТОРГОВЛЯ--"международное сотрудничество"	ЗДРАВООХРАНЕНИЕ--витамины	4
ТОРГОВЛЯ--"международное сотрудничество"	ЗДРАВООХРАНЕНИЕ--спорт	4
ТОРГОВЛЯ--"международное сотрудничество"	ИНФРАСТРУКТУРА--общественный транспорт	4
ТОРГОВЛЯ--"международное сотрудничество"	ИНФРАСТРУКТУРА--штраф	4
ТОРГОВЛЯ--"международное сотрудничество"	ПРОИЗВОДСТВО--"автомобильная промышленность"	4
ТОРГОВЛЯ--"оптовая торговля"	ЗДРАВООХРАНЕНИЕ--вегетарианство	4
ТОРГОВЛЯ--"оптовая торговля"	ЗДРАВООХРАНЕНИЕ--витамины	4
ТОРГОВЛЯ--"оптовая торговля"	ИНФРАСТРУКТУРА--"общественный транспорт"	4
ТОРГОВЛЯ--"оптовая торговля"	НАСЕЛЕНИЕ--смертность	4
ТОРГОВЛЯ--"оптовая торговля"	НАУКА--гранты	4
ТОРГОВЛЯ--"оптовая торговля"	НАУКА--инновации	4
ТОРГОВЛЯ--"оптовая торговля"	НАУКА--монументальные исследования	4
ТОРГОВЛЯ--"оптовая торговля"	НАУКА--патент	4
ТОРГОВЛЯ--"оптовая торговля"	ОБРАЗОВАНИЕ--"подготовка рабочих"	4
ТОРГОВЛЯ--"оптовая торговля"	ПРОИЗВОДСТВО--"химическая промышленность"	4
ТОРГОВЛЯ--"оптовая торговля"	ПРОИЗВОДСТВО--автомобильная промышленность	4
ТОРГОВЛЯ--"оптовая торговля"	ПРОИЗВОДСТВО--лёгкая промышленность	4
ТОРГОВЛЯ--"оптовая торговля"	ПРОИЗВОДСТВО--пищевая промышленность	4
ТОРГОВЛЯ--"оптовая торговля"	ПРОИЗВОДСТВО--химическая промышленность	4
ТОРГОВЛЯ--"оптовая торговля"	СЕЛЬСКОЕ ХОЗЯЙСТВО--"поголовье скота"	4
ТОРГОВЛЯ--"оптовая торговля"	ТОРГОВЛЯ--интернет-магазин	4
ТОРГОВЛЯ--"оптовая торговля"	ТОРГОВЛЯ--оптовая торговля	4
ТОРГОВЛЯ--"оптовая торговля"	ТОРГОВЛЯ--открытая экономическая зона	4
ТОРГОВЛЯ--"открытая экономическая зона"	НАСЕЛЕНИЕ--смертность	4
ТОРГОВЛЯ--"открытая экономическая зона"	НАУКА--институт	4
ТОРГОВЛЯ--"розничная торговля"	ПРОИЗВОДСТВО--"автомобильная промышленность"	4
ТОРГОВЛЯ--беспошлинная торговля	ЗДРАВООХРАНЕНИЕ--"сердечно-сосудистые заболевания"	4
ТОРГОВЛЯ--беспошлинная торговля	ЗДРАВООХРАНЕНИЕ--алкоголизм	4
ТОРГОВЛЯ--беспошлинная торговля	ЗДРАВООХРАНЕНИЕ--ожирение	4
ТОРГОВЛЯ--беспошлинная торговля	ЗДРАВООХРАНЕНИЕ--сердечно-сосудистые заболевания	4
ТОРГОВЛЯ--беспошлинная торговля	ЗДРАВООХРАНЕНИЕ--сердечный приступ	4
ТОРГОВЛЯ--беспошлинная торговля	ЗДРАВООХРАНЕНИЕ--спорт	4
ТОРГОВЛЯ--беспошлинная торговля	ИНФРАСТРУКТУРА--"общественный транспорт"	4
ТОРГОВЛЯ--беспошлинная торговля	ИНФРАСТРУКТУРА--дороги	4
ТОРГОВЛЯ--беспошлинная торговля	НАСЕЛЕНИЕ--демографическая яма	4
ТОРГОВЛЯ--беспошлинная торговля	НАСЕЛЕНИЕ--смертность	4
ТОРГОВЛЯ--беспошлинная торговля	НАУКА--"монументальные исследования"	4
ТОРГОВЛЯ--беспошлинная торговля	ОБРАЗОВАНИЕ--"подготовка инженеров"	4
ТОРГОВЛЯ--беспошлинная торговля	ОБРАЗОВАНИЕ--университет	4
ТОРГОВЛЯ--беспошлинная торговля	ОБРАЗОВАНИЕ--учёные	4
ТОРГОВЛЯ--беспошлинная торговля	ОБРАЗОВАНИЕ--школа	4
ТОРГОВЛЯ--беспошлинная торговля	ПРОИЗВОДСТВО--"пищевая промышленность"	4
ТОРГОВЛЯ--беспошлинная торговля	ПРОИЗВОДСТВО--"текстильное производство"	4
ТОРГОВЛЯ--беспошлинная торговля	ПРОИЗВОДСТВО--"химическая промышленность"	4
ТОРГОВЛЯ--беспошлинная торговля	СЕЛЬСКОЕ ХОЗЯЙСТВО--неурожай	4
ТОРГОВЛЯ--беспошлинная торговля	ТОРГОВЛЯ--интернет-магазин	4
ТОРГОВЛЯ--беспошлинная торговля	ТОРГОВЛЯ--международное сотрудничество	4
ТОРГОВЛЯ--интернет-магазин	НАУКА--наука	4
ТОРГОВЛЯ--международное сотрудничество	ПРОИЗВОДСТВО--"автомобильная промышленность"	4
