ЗАБОЛЕВАНИЕ	ДЕЯТЕЛЬНОСТЬ КОНЦЕРТНЫХ И ТЕАТРАЛЬНЫХ ЗАЛОВ	-0.653647
ЗАБОЛЕВАНИЕ	ДОШКОЛЬНОЕ И НАЧАЛЬНОЕ ОБРАЗОВАНИЕ	-0.655865
ЗАБОЛЕВАНИЕ	ДЕЯТЕЛЬНОСТЬ ПРОЧЕГО СУХОПУТНОГО ТРАНСПОРТА	-0.659980
ЗАБОЛЕВАНИЕ	СПЕЦИАЛЬНАЯ СВЯЗЬ	-0.679223
ДЕЯТЕЛЬНОСТЬ В ОБЛАСТИ РАДИОВЕЩАНИЯ И ТЕЛЕВИДЕНИЯ	ЖИВОТНОВОДСТВО	-0.732326
ДЕЯТЕЛЬНОСТЬ В ОБЛАСТИ РАДИОВЕЩАНИЯ И ТЕЛЕВИДЕНИЯ	ЛЕСОВОДСТВО	-0.766997
ДЕЯТЕЛЬНОСТЬ В ОБЛАСТИ РАДИОВЕЩАНИЯ И ТЕЛЕВИДЕНИЯ	РАСТЕНИЕВОДСТВО	-0.738481
ДЕЯТЕЛЬНОСТЬ В ОБЛАСТИ РАДИОВЕЩАНИЯ И ТЕЛЕВИДЕНИЯ	ОВОЩЕВОДСТВО	-0.816953
ДЕЯТЕЛЬНОСТЬ В ОБЛАСТИ РАДИОВЕЩАНИЯ И ТЕЛЕВИДЕНИЯ	СЕЛЬСКОХОЗЯЙСТВЕННАЯ ТЕХНИКА	-0.671647
ПРОЧАЯ ДЕЯТЕЛЬНОСТЬ В ОБЛАСТИ СПОРТА	ЛЕСОВОДСТВО	-0.655571
ДЕЯТЕЛЬНОСТЬ ИНФОРМАЦИОННАХ АГЕНТСТВ	ОРГАНИЗАЦИЯ ПОХОРОН И ПРЕДОСТАВЛЕНИЕ СВЯЗАННЫХ С НИМИ УСЛУГ	-0.790985
ДЕЯТЕЛЬНОСТЬ ИНФОРМАЦИОННАХ АГЕНТСТВ	ЖИВОТНОВОДСТВО	-0.781355
ДЕЯТЕЛЬНОСТЬ ИНФОРМАЦИОННАХ АГЕНТСТВ	ЛЕСНОЕ ХОЗЯЙСТВО	-0.668638
ДЕЯТЕЛЬНОСТЬ ИНФОРМАЦИОННАХ АГЕНТСТВ	ЛЕСОВОДСТВО	-0.849769
ДЕЯТЕЛЬНОСТЬ ИНФОРМАЦИОННАХ АГЕНТСТВ	РАСТЕНИЕВОДСТВО	-0.812556
ДЕЯТЕЛЬНОСТЬ ИНФОРМАЦИОННАХ АГЕНТСТВ	ОВОЩЕВОДСТВО	-0.846713
ДЕЯТЕЛЬНОСТЬ ИНФОРМАЦИОННАХ АГЕНТСТВ	СЕЛЬСКОХОЗЯЙСТВЕННАЯ ТЕХНИКА	-0.702851
ДЕЯТЕЛЬНОСТЬ ПРОФЕССИОНАЛЬНЫХ ОРГАНИЗАЦИЙ	ОРГАНИЗАЦИЯ ПОХОРОН И ПРЕДОСТАВЛЕНИЕ СВЯЗАННЫХ С НИМИ УСЛУГ	-0.675594
ДЕЯТЕЛЬНОСТЬ ПРОФЕССИОНАЛЬНЫХ ОРГАНИЗАЦИЙ	ЖИВОТНОВОДСТВО	-0.693031
ДЕЯТЕЛЬНОСТЬ ПРОФЕССИОНАЛЬНЫХ ОРГАНИЗАЦИЙ	ЛЕСОВОДСТВО	-0.765434
ДЕЯТЕЛЬНОСТЬ ПРОФЕССИОНАЛЬНЫХ ОРГАНИЗАЦИЙ	РАСТЕНИЕВОДСТВО	-0.726437
ДЕЯТЕЛЬНОСТЬ ПРОФЕССИОНАЛЬНЫХ ОРГАНИЗАЦИЙ	ОВОЩЕВОДСТВО	-0.784495
ДЕЯТЕЛЬНОСТЬ ПРОФЕССИОНАЛЬНЫХ ОРГАНИЗАЦИЙ	СЕЛЬСКОХОЗЯЙСТВЕННАЯ ТЕХНИКА	-0.660058
ДЕЯТЕЛЬНОСТЬ ПРОФЕССИОНАЛЬНЫХ СОЮЗОВ	ЛЕСОВОДСТВО	-0.708685
ДЕЯТЕЛЬНОСТЬ ПРОФЕССИОНАЛЬНЫХ СОЮЗОВ	РАСТЕНИЕВОДСТВО	-0.650107
ДЕЯТЕЛЬНОСТЬ ПРОФЕССИОНАЛЬНЫХ СОЮЗОВ	ОВОЩЕВОДСТВО	-0.756560
ДЕЯТЕЛЬНОСТЬ ПОЛИТИЧЕСКИХ ОРГАНИЗАЦИЙ	ОРГАНИЗАЦИЯ ПОХОРОН И ПРЕДОСТАВЛЕНИЕ СВЯЗАННЫХ С НИМИ УСЛУГ	-0.660948
ДЕЯТЕЛЬНОСТЬ ПОЛИТИЧЕСКИХ ОРГАНИЗАЦИЙ	ЖИВОТНОВОДСТВО	-0.666499
ДЕЯТЕЛЬНОСТЬ ПОЛИТИЧЕСКИХ ОРГАНИЗАЦИЙ	ЛЕСОВОДСТВО	-0.741104
ДЕЯТЕЛЬНОСТЬ ПОЛИТИЧЕСКИХ ОРГАНИЗАЦИЙ	РАСТЕНИЕВОДСТВО	-0.682944
ДЕЯТЕЛЬНОСТЬ ПОЛИТИЧЕСКИХ ОРГАНИЗАЦИЙ	ОВОЩЕВОДСТВО	-0.733248
ДЕЯТЕЛЬНОСТЬ ПОЛИТИЧЕСКИХ ОРГАНИЗАЦИЙ	СЕЛЬСКОХОЗЯЙСТВЕННАЯ ТЕХНИКА	-0.673414
ДЕЯТЕЛЬНОСТЬ ПРОЧИХ ОБЩЕСТВЕННЫХ ОРГАНИЗАЦИЙ& НЕ ВКЛЮЧЁННЫХ В ДРУГИЕ ГРУППИРОВКИ	ОРГАНИЗАЦИЯ ПОХОРОН И ПРЕДОСТАВЛЕНИЕ СВЯЗАННЫХ С НИМИ УСЛУГ	-0.661732
ДЕЯТЕЛЬНОСТЬ ПРОЧИХ ОБЩЕСТВЕННЫХ ОРГАНИЗАЦИЙ& НЕ ВКЛЮЧЁННЫХ В ДРУГИЕ ГРУППИРОВКИ	ЖИВОТНОВОДСТВО	-0.736478
ДЕЯТЕЛЬНОСТЬ ПРОЧИХ ОБЩЕСТВЕННЫХ ОРГАНИЗАЦИЙ& НЕ ВКЛЮЧЁННЫХ В ДРУГИЕ ГРУППИРОВКИ	ЛЕСОВОДСТВО	-0.745448
ДЕЯТЕЛЬНОСТЬ ПРОЧИХ ОБЩЕСТВЕННЫХ ОРГАНИЗАЦИЙ& НЕ ВКЛЮЧЁННЫХ В ДРУГИЕ ГРУППИРОВКИ	РАСТЕНИЕВОДСТВО	-0.744373
ДЕЯТЕЛЬНОСТЬ ПРОЧИХ ОБЩЕСТВЕННЫХ ОРГАНИЗАЦИЙ& НЕ ВКЛЮЧЁННЫХ В ДРУГИЕ ГРУППИРОВКИ	ОВОЩЕВОДСТВО	-0.820863
ДЕЯТЕЛЬНОСТЬ ПРОЧИХ ОБЩЕСТВЕННЫХ ОРГАНИЗАЦИЙ& НЕ ВКЛЮЧЁННЫХ В ДРУГИЕ ГРУППИРОВКИ	СЕЛЬСКОХОЗЯЙСТВЕННАЯ ТЕХНИКА	-0.711855
ОРГАНИЗАЦИЯ ПОХОРОН И ПРЕДОСТАВЛЕНИЕ СВЯЗАННЫХ С НИМИ УСЛУГ	ДЕЯТЕЛЬНОСТЬ БИБЛИОТЕК& АРХИВОВ& УЧРЕЖДЕНИЙ КЛУБНОГО ТИПА	-0.776103
ОРГАНИЗАЦИЯ ПОХОРОН И ПРЕДОСТАВЛЕНИЕ СВЯЗАННЫХ С НИМИ УСЛУГ	ВЫСШЕЕ ОБРАЗОВАНИЕ	-0.778154
ОРГАНИЗАЦИЯ ПОХОРОН И ПРЕДОСТАВЛЕНИЕ СВЯЗАННЫХ С НИМИ УСЛУГ	ОБЩЕЕ ПОНЯТИЕ ПО ТЕМЕ "ОБРАЗОВАНИЕ"	-0.670327
ОРГАНИЗАЦИЯ ПОХОРОН И ПРЕДОСТАВЛЕНИЕ СВЯЗАННЫХ С НИМИ УСЛУГ	ДЕЯТЕЛЬНОСТЬ В ОБЛАСТИ ЭЛЕКТРОСВЯЗИ	-0.691272
ДЕЯТЕЛЬНОСТЬ БИБЛИОТЕК& АРХИВОВ& УЧРЕЖДЕНИЙ КЛУБНОГО ТИПА	ЖИВОТНОВОДСТВО	-0.810009
ДЕЯТЕЛЬНОСТЬ БИБЛИОТЕК& АРХИВОВ& УЧРЕЖДЕНИЙ КЛУБНОГО ТИПА	ЛЕСНОЕ ХОЗЯЙСТВО	-0.667968
ДЕЯТЕЛЬНОСТЬ БИБЛИОТЕК& АРХИВОВ& УЧРЕЖДЕНИЙ КЛУБНОГО ТИПА	ЛЕСОВОДСТВО	-0.799883
ДЕЯТЕЛЬНОСТЬ БИБЛИОТЕК& АРХИВОВ& УЧРЕЖДЕНИЙ КЛУБНОГО ТИПА	РАСТЕНИЕВОДСТВО	-0.823534
ДЕЯТЕЛЬНОСТЬ БИБЛИОТЕК& АРХИВОВ& УЧРЕЖДЕНИЙ КЛУБНОГО ТИПА	ОВОЩЕВОДСТВО	-0.871730
ДЕЯТЕЛЬНОСТЬ БИБЛИОТЕК& АРХИВОВ& УЧРЕЖДЕНИЙ КЛУБНОГО ТИПА	СЕЛЬСКОХОЗЯЙСТВЕННАЯ ТЕХНИКА	-0.673477
ДЕЯТЕЛЬНОСТЬ ЯРМАРОК И ПАРКОВ С АТТРАКЦИОНАМИ	УДАЛЕНИЕ И ОБРАБОТКА ТВЁРДЫХ ОТХОДОВ	-0.663976
ДЕЯТЕЛЬНОСТЬ ЯРМАРОК И ПАРКОВ С АТТРАКЦИОНАМИ	ЖИВОТНОВОДСТВО	-0.689079
ДЕЯТЕЛЬНОСТЬ ЯРМАРОК И ПАРКОВ С АТТРАКЦИОНАМИ	ЛЕСНОЕ ХОЗЯЙСТВО	-0.650186
ДЕЯТЕЛЬНОСТЬ ЯРМАРОК И ПАРКОВ С АТТРАКЦИОНАМИ	РАСТЕНИЕВОДСТВО	-0.668840
ВЫСШЕЕ ОБРАЗОВАНИЕ	ЖИВОТНОВОДСТВО	-0.817606
ВЫСШЕЕ ОБРАЗОВАНИЕ	ЛЕСНОЕ ХОЗЯЙСТВО	-0.747173
ВЫСШЕЕ ОБРАЗОВАНИЕ	ЛЕСОВОДСТВО	-0.699273
ВЫСШЕЕ ОБРАЗОВАНИЕ	РАСТЕНИЕВОДСТВО	-0.804370
ВЫСШЕЕ ОБРАЗОВАНИЕ	ДЕКОРАТИВНОЕ САДОВОДСТВО И ПРОИЗВОДСТВО ПРОДУКЦИИ ПИТОМНИКОВ	-0.688982
ВЫСШЕЕ ОБРАЗОВАНИЕ	ОВОЩЕВОДСТВО	-0.787286
ВЫСШЕЕ ОБРАЗОВАНИЕ	СЕЛЬСКОХОЗЯЙСТВЕННАЯ ТЕХНИКА	-0.762938
ОБЩЕЕ ПОНЯТИЕ ПО ТЕМЕ "ОБРАЗОВАНИЕ"	ЖИВОТНОВОДСТВО	-0.716145
ОБЩЕЕ ПОНЯТИЕ ПО ТЕМЕ "ОБРАЗОВАНИЕ"	ЛЕСОВОДСТВО	-0.808050
ОБЩЕЕ ПОНЯТИЕ ПО ТЕМЕ "ОБРАЗОВАНИЕ"	РАСТЕНИЕВОДСТВО	-0.742658
ОБЩЕЕ ПОНЯТИЕ ПО ТЕМЕ "ОБРАЗОВАНИЕ"	ОВОЩЕВОДСТВО	-0.824903
ОБЩЕЕ ПОНЯТИЕ ПО ТЕМЕ "ОБРАЗОВАНИЕ"	СЕЛЬСКОХОЗЯЙСТВЕННАЯ ТЕХНИКА	-0.696341
ОСНОВНОЕ И СРЕДНЕЕ ОБЩЕЕ ОБРАЗОВАНИЕ	ЛЕСОВОДСТВО	-0.660520
ЖИВОТНОВОДСТВО	ДЕЯТЕЛЬНОСТЬ В ОБЛАСТИ ЭЛЕКТРОСВЯЗИ	-0.690478
ЛЕСОВОДСТВО	ДЕЯТЕЛЬНОСТЬ В ОБЛАСТИ ЭЛЕКТРОСВЯЗИ	-0.723832
ЛЕСОВОДСТВО	ДОКУМЕНТАЛЬНАЯ ЭЛЕКТРОСВЯЗЬ	-0.661705
ОБЩЕЕ ПОНЯТИЕ В С.Х.	ОВОЩЕВОДСТВО	-0.669728
РАСТЕНИЕВОДСТВО	ДЕЯТЕЛЬНОСТЬ В ОБЛАСТИ ЭЛЕКТРОСВЯЗИ	-0.709634
ОВОЩЕВОДСТВО	ДЕЯТЕЛЬНОСТЬ В ОБЛАСТИ ЭЛЕКТРОСВЯЗИ	-0.755755
