epochs	information_source	description	name	epoch	display	type	short_name	stat
["2013"]	Администрация муниципального образования	Рейтинг городов по площади. Под площадью города понимается выраженная в квадратных километрах территория в пределах городской черты. Площадь города указывается в генеральном плане - документе, на основе которого осуществляется планировка, застройка, реконструкция и иные виды градостроительного освоения территории.	Площадь города	2013	value	city	city_area	2


rate	order	rate_grow	object_id	object_name	value	rating_place	url	object_url	units
10	bigger_better	0	1	Москва	2511	1	/city/moskva	/city/moskva	км2
6.1	bigger_better	0	2	Санкт-Петербург	1439	2	/city/sankt-peterburg	/city/sankt-peterburg	км2
3.8	bigger_better	0	14	Пермь	799.68	3	/city/perm	/city/perm	км2
3.5	bigger_better	0	11	Уфа	707.93	4	/city/ufa	/city/ufa	км2
3.2	bigger_better	0	81	Орск	642	5	/city/orsk	/city/orsk	км2
3.2	bigger_better	0	24	Владивосток	625	6	/city/vladivostok	/city/vladivostok	км2
3	bigger_better	0	8	Омск	566.9	7	/city/omsk	/city/omsk	км2
3	bigger_better	0	12	Волгоград	565	8	/city/volgograd	/city/volgograd	км2
2.9	bigger_better	0	6	Казань	548.44	9	/city/kazan	/city/kazan	км2
2.9	bigger_better	0	7	Самара	541.382	10	/city/samara	/city/samara	км2
2.9	bigger_better	0	54	Чита	534	11	/city/chita	/city/chita	км2
2.8	bigger_better	0	9	Челябинск	530	12	/city/chelyabinsk	/city/chelyabinsk	км2
2.7	bigger_better	0	3	Новосибирск	502.7	13	/city/novosibirsk	/city/novosibirsk	км2
2.7	bigger_better	0	33	Астрахань	500	14	/city/astrahan	/city/astrahan	км2
2.7	bigger_better	0	4	Екатеринбург	495	15	/city/ekaterinburg	/city/ekaterinburg	км2
2.6	bigger_better	0	27	Махачкала	468.13	16	/city/mahachkala	/city/mahachkala	км2
2.5	bigger_better	0	114	Березники	431.1	17	/city/berezniki	/city/berezniki	км2
2.5	bigger_better	0	76	Братск	428	18	/city/bratsk	/city/bratsk	км2
2.5	bigger_better	0	29	Новокузнецк	424.27	19	/city/novokuzneck	/city/novokuzneck	км2
2.5	bigger_better	0	79	Дзержинск	421.53	20	/city/dzerzhinsk	/city/dzerzhinsk	км2
2.4	bigger_better	0	5	Нижний Новгород	410.68	21	/city/nizhniy-novgorod	/city/nizhniy-novgorod	км2
2.4	bigger_better	0	26	Хабаровск	400	22	/city/habarovsk	/city/habarovsk	км2
2.4	bigger_better	0	44	Магнитогорск	394.9	23	/city/magnitogorsk	/city/magnitogorsk	км2
2.4	bigger_better	0	16	Саратов	394	24	/city/saratov	/city/saratov	км2
2.3	bigger_better	0	57	Курган	393.03	25	/city/kurgan	/city/kurgan	км2
2.3	bigger_better	0	13	Красноярск	379	26	/city/krasnoyarsk	/city/krasnoyarsk	км2
2.2	bigger_better	0	42	Улан-Удэ	365	27	/city/ulan-ude	/city/ulan-ude	км2
2.2	bigger_better	0	100	Петропавловск-Камчатский	362	28	/city/petropavlovsk-kamchatskiy	/city/petropavlovsk-kamchatskiy	км2
2.2	bigger_better	0	58	Сургут	353.97	29	/city/surgut	/city/surgut	км2
2.2	bigger_better	0	10	Ростов-на-Дону	348.5	30	/city/rostov-na-donu	/city/rostov-na-donu	км2
2.2	bigger_better	0	15	Воронеж	340	31	/city/voronezh	/city/voronezh	км2
2.1	bigger_better	0	110	Находка	325.9	32	/city/nahodka	/city/nahodka	км2
2.1	bigger_better	0	72	Комсомольск-на-Амуре	325	33	/city/komsomolsk-na-amure	/city/komsomolsk-na-amure	км2
2.1	bigger_better	0	21	Барнаул	322.01	34	/city/barnaul	/city/barnaul	км2
2.1	bigger_better	0	88	Благовещенск	320.97	35	/city/blagoveschensk	/city/blagoveschensk	км2
2.1	bigger_better	0	36	Липецк	320	36	/city/lipeck	/city/lipeck	км2
2.1	bigger_better	0	22	Ульяновск	316.9	37	/city/ulyanovsk	/city/ulyanovsk	км2
2.1	bigger_better	0	20	Ижевск	315.15	38	/city/izhevsk	/city/izhevsk	км2
2	bigger_better	0	67	Грозный	305	39	/city/groznyy	/city/groznyy	км2
2	bigger_better	0	50	Нижний Тагил	297.47	40	/city/nizhniy-tagil	/city/nizhniy-tagil	км2
2	bigger_better	0	30	Томск	295.1	41	/city/tomsk	/city/tomsk	км2
2	bigger_better	0	31	Кемерово	294.8	42	/city/kemerovo	/city/kemerovo	км2
2	bigger_better	0	51	Архангельск	294.42	43	/city/arhangelsk	/city/arhangelsk	км2
2	bigger_better	0	84	Ангарск	294	44	/city/angarsk	/city/angarsk	км2
2	bigger_better	0	92	Бийск	291.67	45	/city/biysk	/city/biysk	км2
2	bigger_better	0	34	Пенза	290.4	46	/city/penza	/city/penza	км2
2	bigger_better	0	103	Норильск	284	47	/city/norilsk	/city/norilsk	км2
1.9	bigger_better	0	23	Иркутск	279.98	48	/city/irkutsk	/city/irkutsk	км2
1.9	bigger_better	0	96	Армавир	279.2	49	/city/armavir	/city/armavir	км2
1.9	bigger_better	0	43	Ставрополь	276	50	/city/stavropol	/city/stavropol	км2
1.9	bigger_better	0	71	Нижневартовск	271.32	51	/city/nizhnevartovsk	/city/nizhnevartovsk	км2
1.9	bigger_better	0	18	Тольятти	268.33	52	/city/tolyatti	/city/tolyatti	км2
1.9	bigger_better	0	28	Оренбург	258.57	53	/city/orenburg	/city/orenburg	км2
1.8	bigger_better	0	39	Чебоксары	250.88	54	/city/cheboksary	/city/cheboksary	км2
1.8	bigger_better	0	123	Копейск	242.73	55	/city/kopeysk	/city/kopeysk	км2
1.8	bigger_better	0	19	Тюмень	234.34	56	/city/tyumen	/city/tyumen	км2
1.8	bigger_better	0	149	Сергиев Посад	234	57	/city/sergiev-posad	/city/sergiev-posad	км2
1.8	bigger_better	0	61	Владикавказ	227.46	58	/city/vladikavkaz	/city/vladikavkaz	км2
1.7	bigger_better	0	140	Новый Уренгой	226.5	59	/city/novyy-urengoy	/city/novyy-urengoy	км2
1.7	bigger_better	0	40	Калининград	223.03	60	/city/kaliningrad	/city/kaliningrad	км2
1.7	bigger_better	0	93	Прокопьевск	217	61	/city/prokopevsk	/city/prokopevsk	км2
1.7	bigger_better	0	158	Элиста	210.45	62	/city/elista	/city/elista	км2
1.7	bigger_better	0	25	Ярославль	205.4	63	/city/yaroslavl	/city/yaroslavl	км2
1.6	bigger_better	0	86	Старый Оскол	199.1	64	/city/staryy-oskol	/city/staryy-oskol	км2
1.6	bigger_better	0	32	Рязань	195.79	65	/city/ryazan	/city/ryazan	км2
1.6	bigger_better	0	17	Краснодар	192.19	66	/city/krasnodar	/city/krasnodar	км2
1.6	bigger_better	0	150	Ноябрьск	189	67	/city/noyabrsk	/city/noyabrsk	км2
1.6	bigger_better	0	41	Курск	187.64	68	/city/kursk	/city/kursk	км2
1.6	bigger_better	0	45	Брянск	186.4	69	/city/bryansk	/city/bryansk	км2
1.6	bigger_better	0	49	Сочи	176.77	70	/city/sochi	/city/sochi	км2
1.6	bigger_better	0	111	Уссурийск	173	71	/city/ussuriysk	/city/ussuriysk	км2
1.5	bigger_better	0	35	Набережные Челны	171.03	72	/city/naberezhnye-chelny	/city/naberezhnye-chelny	км2
1.5	bigger_better	0	38	Киров	169.73	73	/city/kirov	/city/kirov	км2
1.5	bigger_better	0	53	Калуга	168.5	74	/city/kaluga	/city/kaluga	км2
1.5	bigger_better	0	55	Смоленск	166.35	75	/city/smolensk	/city/smolensk	км2
1.5	bigger_better	0	97	Южно-Сахалинск	164.66	76	/city/yuzhno-sahalinsk	/city/yuzhno-sahalinsk	км2
1.5	bigger_better	0	108	Волгодонск	162.8	77	/city/volgodonsk	/city/volgodonsk	км2
1.5	bigger_better	0	157	Домодедово	159.27	78	/city/domodedovo	/city/domodedovo	км2
1.5	bigger_better	0	80	Шахты	159.08	79	/city/shahty	/city/shahty	км2
1.5	bigger_better	0	63	Мурманск	154.77	80	/city/murmansk	/city/murmansk	км2
1.5	bigger_better	0	131	Нефтеюганск	153.79	81	/city/nefteyugansk	/city/nefteyugansk	км2
1.5	bigger_better	0	48	Белгород	153.1	82	/city/belgorod	/city/belgorod	км2
1.5	bigger_better	0	47	Тверь	152.22	83	/city/tver	/city/tver	км2
1.5	bigger_better	0	77	Сыктывкар	152	84	/city/syktyvkar	/city/syktyvkar	км2
1.5	bigger_better	0	134	Нефтекамск	147.25	85	/city/neftekamsk	/city/neftekamsk	км2
1.5	bigger_better	0	37	Тула	145.81	86	/city/tula	/city/tula	км2
1.5	bigger_better	0	56	Волжский	145	87	/city/volzhskiy	/city/volzhskiy	км2
1.5	bigger_better	0	69	Кострома	144.53	88	/city/kostroma	/city/kostroma	км2
1.4	bigger_better	0	107	Каменск-Уральский	142.24	89	/city/kamensk-uralskiy	/city/kamensk-uralskiy	км2
1.4	bigger_better	0	146	Новошахтинск	138	90	/city/novoshahtinsk	/city/novoshahtinsk	км2
1.4	bigger_better	0	160	Назрань	136.08	91	/city/nazran	/city/nazran	км2
1.4	bigger_better	0	70	Петрозаводск	135	92	/city/petrozavodsk	/city/petrozavodsk	км2
1.4	bigger_better	0	75	Новороссийск	131.88	93	/city/novorossiysk	/city/novorossiysk	км2
1.4	bigger_better	0	105	Новочеркасск	127.94	94	/city/novocherkassk	/city/novocherkassk	км2
1.4	bigger_better	0	52	Владимир	124.59	95	/city/vladimir	/city/vladimir	км2
1.4	bigger_better	0	59	Орёл	121.21	96	/city/orel	/city/orel	км2
1.4	bigger_better	0	60	Череповец	120.94	97	/city/cherepovec	/city/cherepovec	км2
1.4	bigger_better	0	98	Северодвинск	120.51	98	/city/severodvinsk	/city/severodvinsk	км2
1.4	bigger_better	0	65	Якутск	120	99	/city/yakutsk	/city/yakutsk	км2
1.4	bigger_better	0	104	Сызрань	117	100	/city/syzran	/city/syzran	км2
1.3	bigger_better	0	62	Вологда	116	101	/city/vologda	/city/vologda	км2
1.3	bigger_better	0	116	Альметьевск	115	102	/city/almetevsk	/city/almetevsk	км2
1.3	bigger_better	0	109	Абакан	112.81	103	/city/abakan	/city/abakan	км2
1.3	bigger_better	0	115	Миасс	111.9	104	/city/miass	/city/miass	км2
1.3	bigger_better	0	142	Кызыл	111.6	105	/city/kyzyl	/city/kyzyl	км2
1.3	bigger_better	0	106	Златоуст	111	106	/city/zlatoust	/city/zlatoust	км2
1.3	bigger_better	0	85	Химки	110.2	107	/city/himki	/city/himki	км2
1.3	bigger_better	0	68	Стерлитамак	108.52	108	/city/sterlitamak	/city/sterlitamak	км2
1.3	bigger_better	0	89	Энгельс	108	109	/city/engels	/city/engels	км2
1.3	bigger_better	0	113	Салават	106.23	110	/city/salavat	/city/salavat	км2
1.3	bigger_better	0	46	Иваново	104.84	111	/city/ivanovo	/city/ivanovo	км2
1.3	bigger_better	0	118	Пятигорск	103.7	112	/city/pyatigorsk	/city/pyatigorsk	км2
1.3	bigger_better	0	148	Ачинск	101.75	113	/city/achinsk	/city/achinsk	км2
1.3	bigger_better	0	94	Рыбинск	101.42	114	/city/rybinsk	/city/rybinsk	км2
1.3	bigger_better	0	73	Йошкар-Ола	100.39	115	/city/yoshkar-ola	/city/yoshkar-ola	км2
1.3	bigger_better	0	138	Невинномысск	100.357	116	/city/nevinnomyssk	/city/nevinnomyssk	км2
1.3	bigger_better	0	145	Октябрьский	98.83	117	/city/oktyabrskiy	/city/oktyabrskiy	км2
1.3	bigger_better	0	91	Псков	95.6	118	/city/pskov	/city/pskov	км2
1.3	bigger_better	0	66	Тамбов	90.89	119	/city/tambov	/city/tambov	км2
1.3	bigger_better	0	87	Великий Новгород	90	120	/city/velikiy-novgorod	/city/velikiy-novgorod	км2
1.2	bigger_better	0	166	Сарапул	86.01	121	/city/sarapul	/city/sarapul	км2
1.2	bigger_better	0	152	Новокуйбышевск	86	122	/city/novokuybyshevsk	/city/novokuybyshevsk	км2
1.2	bigger_better	0	117	Рубцовск	83.25	123	/city/rubcovsk	/city/rubcovsk	км2
1.2	bigger_better	0	139	Камышин	81	124	/city/kamyshin	/city/kamyshin	км2
1.2	bigger_better	0	74	Таганрог	80.21	125	/city/taganrog	/city/taganrog	км2
1.2	bigger_better	0	132	Первоуральск	80	126	/city/pervouralsk	/city/pervouralsk	км2
1.2	bigger_better	0	95	Балаково	79	127	/city/balakovo	/city/balakovo	км2
1.2	bigger_better	0	141	Батайск	77.68	128	/city/bataysk	/city/bataysk	км2
1.2	bigger_better	0	127	Новомосковск	75.88	129	/city/novomoskovsk	/city/novomoskovsk	км2
1.2	bigger_better	0	126	Кисловодск	72	130	/city/kislovodsk	/city/kislovodsk	км2
1.2	bigger_better	0	64	Саранск	71.5	131	/city/saransk	/city/saransk	км2
1.2	bigger_better	0	130	Черкесск	69.8	132	/city/cherkessk	/city/cherkessk	км2
1.2	bigger_better	0	137	Дербент	69.63	133	/city/derbent	/city/derbent	км2
1.2	bigger_better	0	161	Артём	68.69	134	/city/artem	/city/artem	км2
1.2	bigger_better	0	165	Бердск	67.06	135	/city/berdsk	/city/berdsk	км2
1.2	bigger_better	0	78	Нальчик	67	136	/city/nalchik	/city/nalchik	км2
1.2	bigger_better	0	119	Коломна	65.1	137	/city/kolomna	/city/kolomna	км2
1.2	bigger_better	0	151	Елец	65.1	138	/city/elec	/city/elec	км2
1.2	bigger_better	0	82	Нижнекамск	61.53	139	/city/nizhnekamsk	/city/nizhnekamsk	км2
1.1	bigger_better	0	156	Пушкино	60.33	140	/city/pushkino	/city/pushkino	км2
1.1	bigger_better	0	164	Раменское	59.46	141	/city/ramenskoe	/city/ramenskoe	км2
1.1	bigger_better	0	120	Майкоп	58.62	142	/city/maykop	/city/maykop	км2
1.1	bigger_better	0	121	Ковров	57.4	143	/city/kovrov	/city/kovrov	км2
1.1	bigger_better	0	162	Ессентуки	55.25	144	/city/essentuki	/city/essentuki	км2
1.1	bigger_better	0	163	Ногинск	52	145	/city/noginsk	/city/noginsk	км2
1.1	bigger_better	0	99	Королёв	51.95	146	/city/korolev	/city/korolev	км2
1.1	bigger_better	0	133	Новочебоксарск	51.4	147	/city/novocheboksarsk	/city/novocheboksarsk	км2
1.1	bigger_better	0	112	Электросталь	49.51	148	/city/elektrostal	/city/elektrostal	км2
1.1	bigger_better	0	153	Жуковский	47.229	149	/city/zhukovskiy	/city/zhukovskiy	км2
1.1	bigger_better	0	144	Муром	43.78	150	/city/murom	/city/murom	км2
1.1	bigger_better	0	101	Люберцы	43.68	151	/city/lyubercy	/city/lyubercy	км2
1.1	bigger_better	0	154	Обнинск	42.97	152	/city/obninsk	/city/obninsk	км2
1.1	bigger_better	0	155	Арзамас	41.7	153	/city/arzamas	/city/arzamas	км2
1.1	bigger_better	0	90	Подольск	40.39	154	/city/podolsk	/city/podolsk	км2
1.1	bigger_better	0	136	Димитровград	40	155	/city/dimitrovgrad	/city/dimitrovgrad	км2
1.1	bigger_better	0	83	Балашиха	38.72	156	/city/balashiha	/city/balashiha	км2
1.1	bigger_better	0	125	Хасавюрт	38.48	157	/city/hasavyurt	/city/hasavyurt	км2
1.1	bigger_better	0	135	Орехово-Зуево	36.38	158	/city/orehovo-zuevo	/city/orehovo-zuevo	км2
1.1	bigger_better	0	102	Мытищи	34.59	159	/city/mytischi	/city/mytischi	км2
1	bigger_better	0	159	Каспийск	32.94	160	/city/kaspiysk	/city/kaspiysk	км2
1	bigger_better	0	129	Серпухов	32.1	161	/city/serpuhov	/city/serpuhov	км2
1	bigger_better	0	143	Щёлково	28.1	162	/city/schelkovo	/city/schelkovo	км2
1	bigger_better	0	128	Красногорск	25.65	163	/city/krasnogorsk	/city/krasnogorsk	км2
1	bigger_better	0	122	Железнодорожный	24.08	164	/city/zheleznodorozhnyy	/city/zheleznodorozhnyy	км2
1	bigger_better	0	124	Одинцово	19.6	165	/city/odincovo	/city/odincovo	км2
