epochs	information_source	description	name	epoch	display	type	short_name	stat
["2013","2012","2011","2010","2009","2008"]	Росстат	Годовой объем расходов городского бюджета на сферу физической культуры и спорта.	Расходы на спорт	2013	value	city	costs_sports	10160


rate	order	rate_grow	object_id	object_name	value	rating_place	url	object_url	units
10	bigger_better	0	1	Москва	20325701796.31	1	/city/moskva	/city/moskva	<i class="rub">q</i>
5.2	bigger_better	0	2	Санкт-Петербург	9488441702	2	/city/sankt-peterburg	/city/sankt-peterburg	<i class="rub">q</i>
1.8	bigger_better	0	9	Челябинск	1914402000	3	/city/chelyabinsk	/city/chelyabinsk	<i class="rub">q</i>
1.4	bigger_better	58	131	Нефтеюганск	948675000	4	/city/nefteyugansk	/city/nefteyugansk	<i class="rub">q</i>
1.3	bigger_better	5	26	Хабаровск	669312500	5	/city/habarovsk	/city/habarovsk	<i class="rub">q</i>
1.3	bigger_better	-2	3	Новосибирск	650312000	6	/city/novosibirsk	/city/novosibirsk	<i class="rub">q</i>
1.3	bigger_better	2	58	Сургут	586953000	7	/city/surgut	/city/surgut	<i class="rub">q</i>
1.2	bigger_better	-2	8	Омск	525437000	8	/city/omsk	/city/omsk	<i class="rub">q</i>
1.2	bigger_better	-2	13	Красноярск	496621000	9	/city/krasnoyarsk	/city/krasnoyarsk	<i class="rub">q</i>
1.2	bigger_better	5	103	Норильск	420805000	10	/city/norilsk	/city/norilsk	<i class="rub">q</i>
1.2	bigger_better	58	30	Томск	410871000	11	/city/tomsk	/city/tomsk	<i class="rub">q</i>
1.2	bigger_better	20	11	Уфа	405389042.3	12	/city/ufa	/city/ufa	<i class="rub">q</i>
1.2	bigger_better	-5	4	Екатеринбург	389504000	13	/city/ekaterinburg	/city/ekaterinburg	<i class="rub">q</i>
1.2	bigger_better	3	75	Новороссийск	369174000	14	/city/novorossiysk	/city/novorossiysk	<i class="rub">q</i>
1.2	bigger_better	75	5	Нижний Новгород	368308800	15	/city/nizhniy-novgorod	/city/nizhniy-novgorod	<i class="rub">q</i>
1.2	bigger_better	19	23	Иркутск	365598000	16	/city/irkutsk	/city/irkutsk	<i class="rub">q</i>
1.1	bigger_better	-5	31	Кемерово	328370600	17	/city/kemerovo	/city/kemerovo	<i class="rub">q</i>
1.1	bigger_better	2	81	Орск	312834000	18	/city/orsk	/city/orsk	<i class="rub">q</i>
1.1	bigger_better	-8	62	Вологда	301964800	19	/city/vologda	/city/vologda	<i class="rub">q</i>
1.1	bigger_better	10	14	Пермь	279946500	20	/city/perm	/city/perm	<i class="rub">q</i>
1.1	bigger_better	-8	150	Ноябрьск	275508000	21	/city/noyabrsk	/city/noyabrsk	<i class="rub">q</i>
1.1	bigger_better	-3	17	Краснодар	267285000	22	/city/krasnodar	/city/krasnodar	<i class="rub">q</i>
1.1	bigger_better	-5	60	Череповец	249129600	23	/city/cherepovec	/city/cherepovec	<i class="rub">q</i>
1.1	bigger_better	-10	44	Магнитогорск	203938000	24	/city/magnitogorsk	/city/magnitogorsk	<i class="rub">q</i>
1.1	bigger_better	2	121	Ковров	200377400	25	/city/kovrov	/city/kovrov	<i class="rub">q</i>
1.1	bigger_better	21	70	Петрозаводск	199284000	26	/city/petrozavodsk	/city/petrozavodsk	<i class="rub">q</i>
1.1	bigger_better	-4	15	Воронеж	192588000	27	/city/voronezh	/city/voronezh	<i class="rub">q</i>
1.1	bigger_better	-23	24	Владивосток	179508700	28	/city/vladivostok	/city/vladivostok	<i class="rub">q</i>
1.1	bigger_better	-7	36	Липецк	166110000	29	/city/lipeck	/city/lipeck	<i class="rub">q</i>
1.1	bigger_better	0	32	Рязань	161617000	30	/city/ryazan	/city/ryazan	<i class="rub">q</i>
1.1	bigger_better	49	49	Сочи	158081000	31	/city/sochi	/city/sochi	<i class="rub">q</i>
1.1	bigger_better	7	83	Балашиха	156073587.73	32	/city/balashiha	/city/balashiha	<i class="rub">q</i>
1.1	bigger_better	-8	140	Новый Уренгой	156073000	33	/city/novyy-urengoy	/city/novyy-urengoy	<i class="rub">q</i>
1.1	bigger_better	37	38	Киров	153963200	34	/city/kirov	/city/kirov	<i class="rub">q</i>
1.1	bigger_better	7	12	Волгоград	142023000	35	/city/volgograd	/city/volgograd	<i class="rub">q</i>
1.1	bigger_better	-14	84	Ангарск	140698600	36	/city/angarsk	/city/angarsk	<i class="rub">q</i>
1.1	bigger_better	-10	19	Тюмень	138264000	37	/city/tyumen	/city/tyumen	<i class="rub">q</i>
1.1	bigger_better	-6	7	Самара	137867700	38	/city/samara	/city/samara	<i class="rub">q</i>
1.1	bigger_better	-22	161	Артём	132827400	39	/city/artem	/city/artem	<i class="rub">q</i>
1.1	bigger_better	-2	25	Ярославль	130809000	40	/city/yaroslavl	/city/yaroslavl	<i class="rub">q</i>
1.1	bigger_better	-7	54	Чита	129678200	41	/city/chita	/city/chita	<i class="rub">q</i>
1.1	bigger_better	53	63	Мурманск	128380800	42	/city/murmansk	/city/murmansk	<i class="rub">q</i>
1.1	bigger_better	16	48	Белгород	128155000	43	/city/belgorod	/city/belgorod	<i class="rub">q</i>
1.1	bigger_better	21	106	Златоуст	127653000	44	/city/zlatoust	/city/zlatoust	<i class="rub">q</i>
1.1	bigger_better	-5	6	Казань	126357000	45	/city/kazan	/city/kazan	<i class="rub">q</i>
1.1	bigger_better	6	53	Калуга	121436000	46	/city/kaluga	/city/kaluga	<i class="rub">q</i>
1.1	bigger_better	-2	157	Домодедово	117344700	47	/city/domodedovo	/city/domodedovo	<i class="rub">q</i>
1	bigger_better	0	109	Абакан	113484000	48	/city/abakan	/city/abakan	<i class="rub">q</i>
1	bigger_better	-18	46	Иваново	104963900	49	/city/ivanovo	/city/ivanovo	<i class="rub">q</i>
1	bigger_better	-6	104	Сызрань	102475400	50	/city/syzran	/city/syzran	<i class="rub">q</i>
1	bigger_better	17	92	Бийск	102084000	51	/city/biysk	/city/biysk	<i class="rub">q</i>
1	bigger_better	24	86	Старый Оскол	95751000	52	/city/staryy-oskol	/city/staryy-oskol	<i class="rub">q</i>
1	bigger_better	37	39	Чебоксары	95161000	53	/city/cheboksary	/city/cheboksary	<i class="rub">q</i>
1	bigger_better	-3	40	Калининград	92497000	54	/city/kaliningrad	/city/kaliningrad	<i class="rub">q</i>
1	bigger_better	33	20	Ижевск	91982000	55	/city/izhevsk	/city/izhevsk	<i class="rub">q</i>
1	bigger_better	-9	10	Ростов-на-Дону	87286000	56	/city/rostov-na-donu	/city/rostov-na-donu	<i class="rub">q</i>
1	bigger_better	-9	152	Новокуйбышевск	87140000	57	/city/novokuybyshevsk	/city/novokuybyshevsk	<i class="rub">q</i>
1	bigger_better	1	107	Каменск-Уральский	86552000	58	/city/kamensk-uralskiy	/city/kamensk-uralskiy	<i class="rub">q</i>
1	bigger_better	52	98	Северодвинск	86490000	59	/city/severodvinsk	/city/severodvinsk	<i class="rub">q</i>
1	bigger_better	-10	93	Прокопьевск	86399800	60	/city/prokopevsk	/city/prokopevsk	<i class="rub">q</i>
1	bigger_better	-16	76	Братск	83516000	61	/city/bratsk	/city/bratsk	<i class="rub">q</i>
1	bigger_better	-1	96	Армавир	81755000	62	/city/armavir	/city/armavir	<i class="rub">q</i>
1	bigger_better	-25	138	Невинномысск	80961800	63	/city/nevinnomyssk	/city/nevinnomyssk	<i class="rub">q</i>
1	bigger_better	-28	56	Волжский	80437000	64	/city/volzhskiy	/city/volzhskiy	<i class="rub">q</i>
1	bigger_better	9	37	Тула	79203000	65	/city/tula	/city/tula	<i class="rub">q</i>
1	bigger_better	-14	74	Таганрог	78502000	66	/city/taganrog	/city/taganrog	<i class="rub">q</i>
1	bigger_better	20	143	Щёлково	77720600	67	/city/schelkovo	/city/schelkovo	<i class="rub">q</i>
1	bigger_better	30	50	Нижний Тагил	77384000	68	/city/nizhniy-tagil	/city/nizhniy-tagil	<i class="rub">q</i>
1	bigger_better	1	148	Ачинск	77114000	69	/city/achinsk	/city/achinsk	<i class="rub">q</i>
1	bigger_better	12	52	Владимир	76116000	70	/city/vladimir	/city/vladimir	<i class="rub">q</i>
1	bigger_better	-16	47	Тверь	73632000	71	/city/tver	/city/tver	<i class="rub">q</i>
1	bigger_better	-5	136	Димитровград	72111000	72	/city/dimitrovgrad	/city/dimitrovgrad	<i class="rub">q</i>
1	bigger_better	-4	29	Новокузнецк	69926100	73	/city/novokuzneck	/city/novokuzneck	<i class="rub">q</i>
1	bigger_better	-47	16	Саратов	69791000	74	/city/saratov	/city/saratov	<i class="rub">q</i>
1	bigger_better	-2	127	Новомосковск	69727600	75	/city/novomoskovsk	/city/novomoskovsk	<i class="rub">q</i>
1	bigger_better	-19	132	Первоуральск	62136000	76	/city/pervouralsk	/city/pervouralsk	<i class="rub">q</i>
1	bigger_better	-23	34	Пенза	60855000	77	/city/penza	/city/penza	<i class="rub">q</i>
1	bigger_better	-15	33	Астрахань	57689000	78	/city/astrahan	/city/astrahan	<i class="rub">q</i>
1	bigger_better	48	118	Пятигорск	56179900	79	/city/pyatigorsk	/city/pyatigorsk	<i class="rub">q</i>
1	bigger_better	21	79	Дзержинск	55383000	80	/city/dzerzhinsk	/city/dzerzhinsk	<i class="rub">q</i>
1	bigger_better	10	72	Комсомольск-на-Амуре	52835000	81	/city/komsomolsk-na-amure	/city/komsomolsk-na-amure	<i class="rub">q</i>
1	bigger_better	24	45	Брянск	51839000	82	/city/bryansk	/city/bryansk	<i class="rub">q</i>
1	bigger_better	2	100	Петропавловск-Камчатский	51817000	83	/city/petropavlovsk-kamchatskiy	/city/petropavlovsk-kamchatskiy	<i class="rub">q</i>
1	bigger_better	23	59	Орёл	51115600	84	/city/orel	/city/orel	<i class="rub">q</i>
1	bigger_better	53	68	Стерлитамак	46042700	85	/city/sterlitamak	/city/sterlitamak	<i class="rub">q</i>
1	bigger_better	-30	111	Уссурийск	45539700	86	/city/ussuriysk	/city/ussuriysk	<i class="rub">q</i>
1	bigger_better	-57	71	Нижневартовск	43645000	87	/city/nizhnevartovsk	/city/nizhnevartovsk	<i class="rub">q</i>
1	bigger_better	15	88	Благовещенск	42572000	88	/city/blagoveschensk	/city/blagoveschensk	<i class="rub">q</i>
1	bigger_better	-5	156	Пушкино	42021080	89	/city/pushkino	/city/pushkino	<i class="rub">q</i>
1	bigger_better	-4	112	Электросталь	41784300	90	/city/elektrostal	/city/elektrostal	<i class="rub">q</i>
1	bigger_better	-26	55	Смоленск	40979500	91	/city/smolensk	/city/smolensk	<i class="rub">q</i>
1	bigger_better	10	105	Новочеркасск	40421000	92	/city/novocherkassk	/city/novocherkassk	<i class="rub">q</i>
1	bigger_better	32	21	Барнаул	39987000	93	/city/barnaul	/city/barnaul	<i class="rub">q</i>
1	bigger_better	-52	97	Южно-Сахалинск	39066000	94	/city/yuzhno-sahalinsk	/city/yuzhno-sahalinsk	<i class="rub">q</i>
1	bigger_better	9	114	Березники	38683000	95	/city/berezniki	/city/berezniki	<i class="rub">q</i>
1	bigger_better	-19	149	Сергиев Посад	38664501.23	96	/city/sergiev-posad	/city/sergiev-posad	<i class="rub">q</i>
1	bigger_better	-8	22	Ульяновск	36718000	97	/city/ulyanovsk	/city/ulyanovsk	<i class="rub">q</i>
1	bigger_better	2	28	Оренбург	36169000	98	/city/orenburg	/city/orenburg	<i class="rub">q</i>
1	bigger_better	10	113	Салават	36152700	99	/city/salavat	/city/salavat	<i class="rub">q</i>
1	bigger_better	-5	154	Обнинск	35281000	100	/city/obninsk	/city/obninsk	<i class="rub">q</i>
1	bigger_better	-8	82	Нижнекамск	33566000	101	/city/nizhnekamsk	/city/nizhnekamsk	<i class="rub">q</i>
1	bigger_better	-19	87	Великий Новгород	33192400	102	/city/velikiy-novgorod	/city/velikiy-novgorod	<i class="rub">q</i>
1	bigger_better	16	18	Тольятти	33143000	103	/city/tolyatti	/city/tolyatti	<i class="rub">q</i>
1	bigger_better	-10	108	Волгодонск	32737000	104	/city/volgodonsk	/city/volgodonsk	<i class="rub">q</i>
1	bigger_better	-43	91	Псков	29830600	105	/city/pskov	/city/pskov	<i class="rub">q</i>
1	bigger_better	-1	151	Елец	28754500	106	/city/elec	/city/elec	<i class="rub">q</i>
1	bigger_better	9	123	Копейск	27675000	107	/city/kopeysk	/city/kopeysk	<i class="rub">q</i>
1	bigger_better	-28	166	Сарапул	27578500	108	/city/sarapul	/city/sarapul	<i class="rub">q</i>
1	bigger_better	5	110	Находка	25534300	109	/city/nahodka	/city/nahodka	<i class="rub">q</i>
1	bigger_better	-35	126	Кисловодск	24810600	110	/city/kislovodsk	/city/kislovodsk	<i class="rub">q</i>
1	bigger_better	-3	66	Тамбов	24601000	111	/city/tambov	/city/tambov	<i class="rub">q</i>
1	bigger_better	14	41	Курск	24554000	112	/city/kursk	/city/kursk	<i class="rub">q</i>
1	bigger_better	-3	155	Арзамас	24228000	113	/city/arzamas	/city/arzamas	<i class="rub">q</i>
1	bigger_better	18	117	Рубцовск	23370000	114	/city/rubcovsk	/city/rubcovsk	<i class="rub">q</i>
1	bigger_better	-37	146	Новошахтинск	23163000	115	/city/novoshahtinsk	/city/novoshahtinsk	<i class="rub">q</i>
1	bigger_better	2	65	Якутск	22592700	116	/city/yakutsk	/city/yakutsk	<i class="rub">q</i>
1	bigger_better	4	57	Курган	21529800	117	/city/kurgan	/city/kurgan	<i class="rub">q</i>
1	bigger_better	5	77	Сыктывкар	21309000	118	/city/syktyvkar	/city/syktyvkar	<i class="rub">q</i>
1	bigger_better	-61	67	Грозный	20736200	119	/city/groznyy	/city/groznyy	<i class="rub">q</i>
1	bigger_better	-8	80	Шахты	20102000	120	/city/shahty	/city/shahty	<i class="rub">q</i>
1	bigger_better	-22	61	Владикавказ	19980000	121	/city/vladikavkaz	/city/vladikavkaz	<i class="rub">q</i>
1	bigger_better	-43	145	Октябрьский	19839100	122	/city/oktyabrskiy	/city/oktyabrskiy	<i class="rub">q</i>
1	bigger_better	8	115	Миасс	18198000	123	/city/miass	/city/miass	<i class="rub">q</i>
1	bigger_better	0	142	Кызыл	16802000	124	/city/kyzyl	/city/kyzyl	<i class="rub">q</i>
1	bigger_better	22	130	Черкесск	16661200	125	/city/cherkessk	/city/cherkessk	<i class="rub">q</i>
1	bigger_better	2	120	Майкоп	16311000	126	/city/maykop	/city/maykop	<i class="rub">q</i>
1	bigger_better	-5	51	Архангельск	16056000	127	/city/arhangelsk	/city/arhangelsk	<i class="rub">q</i>
1	bigger_better	-8	139	Камышин	15990000	128	/city/kamyshin	/city/kamyshin	<i class="rub">q</i>
1	bigger_better	4	116	Альметьевск	13905000	129	/city/almetevsk	/city/almetevsk	<i class="rub">q</i>
1	bigger_better	-15	94	Рыбинск	12171000	130	/city/rybinsk	/city/rybinsk	<i class="rub">q</i>
1	bigger_better	5	141	Батайск	11378000	131	/city/bataysk	/city/bataysk	<i class="rub">q</i>
1	bigger_better	13	35	Набережные Челны	11239000	132	/city/naberezhnye-chelny	/city/naberezhnye-chelny	<i class="rub">q</i>
1	bigger_better	-3	95	Балаково	10444000	133	/city/balakovo	/city/balakovo	<i class="rub">q</i>
1	bigger_better	1	64	Саранск	9694000	134	/city/saransk	/city/saransk	<i class="rub">q</i>
1	bigger_better	-1	162	Ессентуки	7477500	135	/city/essentuki	/city/essentuki	<i class="rub">q</i>
1	bigger_better	1	69	Кострома	6872000	136	/city/kostroma	/city/kostroma	<i class="rub">q</i>
1	bigger_better	7	133	Новочебоксарск	6459000	137	/city/novocheboksarsk	/city/novocheboksarsk	<i class="rub">q</i>
1	bigger_better	2	73	Йошкар-Ола	5082100	138	/city/yoshkar-ola	/city/yoshkar-ola	<i class="rub">q</i>
1	bigger_better	3	89	Энгельс	4857000	139	/city/engels	/city/engels	<i class="rub">q</i>
1	bigger_better	1	158	Элиста	4794600	140	/city/elista	/city/elista	<i class="rub">q</i>
1	bigger_better	-24	78	Нальчик	4276000	141	/city/nalchik	/city/nalchik	<i class="rub">q</i>
1	bigger_better	-3	42	Улан-Удэ	4242000	142	/city/ulan-ude	/city/ulan-ude	<i class="rub">q</i>
1	bigger_better	0	144	Муром	2848000	143	/city/murom	/city/murom	<i class="rub">q</i>
1	bigger_better	-15	134	Нефтекамск	2179957.01	144	/city/neftekamsk	/city/neftekamsk	<i class="rub">q</i>
1	bigger_better	-48	43	Ставрополь	2177500	145	/city/stavropol	/city/stavropol	<i class="rub">q</i>
1	bigger_better	-33	165	Бердск	2049000	146	/city/berdsk	/city/berdsk	<i class="rub">q</i>
1	bigger_better	-1	164	Раменское	1575000	147	/city/ramenskoe	/city/ramenskoe	<i class="rub">q</i>
