epochs	information_source	description	name	epoch	display	type	short_name	stat
["2013"]	Рейтинговое агентство SGM	Рейтинг городов по стабильности развития. Рассчитывается через 32 показателя городского развития в социально-экономической и экологической сферах.	Стабильность развития	2013	rate	city	developmental_stability	169


rate	order	rate_grow	object_id	object_name	value	rating_place	url	object_url	units
10	bigger_better	0	128	Красногорск	0.682	1	/city/krasnogorsk	/city/krasnogorsk	
9.2	bigger_better	0	1	Москва	0.652	2	/city/moskva	/city/moskva	
8.9	bigger_better	0	140	Новый Уренгой	0.642	3	/city/novyy-urengoy	/city/novyy-urengoy	
8.6	bigger_better	0	99	Королёв	0.628	4	/city/korolev	/city/korolev	
8.5	bigger_better	0	48	Белгород	0.627	5	/city/belgorod	/city/belgorod	
8.5	bigger_better	0	102	Мытищи	0.624	6	/city/mytischi	/city/mytischi	
8.3	bigger_better	0	83	Балашиха	0.617	7	/city/balashiha	/city/balashiha	
8.2	bigger_better	0	4	Екатеринбург	0.6152	8	/city/ekaterinburg	/city/ekaterinburg	
8.2	bigger_better	0	53	Калуга	0.615	9	/city/kaluga	/city/kaluga	
8.1	bigger_better	0	90	Подольск	0.609	10	/city/podolsk	/city/podolsk	
8	bigger_better	0	122	Железнодорожный	0.605	11	/city/zheleznodorozhnyy	/city/zheleznodorozhnyy	
7.9	bigger_better	0	62	Вологда	0.601	12	/city/vologda	/city/vologda	
7.8	bigger_better	0	87	Великий Новгород	0.6	13	/city/velikiy-novgorod	/city/velikiy-novgorod	
7.8	bigger_better	0	124	Одинцово	0.598	14	/city/odincovo	/city/odincovo	
7.8	bigger_better	0	2	Санкт-Петербург	0.597	15	/city/sankt-peterburg	/city/sankt-peterburg	
7.6	bigger_better	0	20	Ижевск	0.591	16	/city/izhevsk	/city/izhevsk	
7.5	bigger_better	0	71	Нижневартовск	0.588	17	/city/nizhnevartovsk	/city/nizhnevartovsk	
7.4	bigger_better	0	157	Домодедово	0.585	18	/city/domodedovo	/city/domodedovo	
7.4	bigger_better	0	101	Люберцы	0.583	19	/city/lyubercy	/city/lyubercy	
7.3	bigger_better	0	6	Казань	0.58	20	/city/kazan	/city/kazan	
7.3	bigger_better	0	153	Жуковский	0.578	21	/city/zhukovskiy	/city/zhukovskiy	
7.1	bigger_better	0	52	Владимир	0.5732	22	/city/vladimir	/city/vladimir	
7.1	bigger_better	0	78	Нальчик	0.573	23	/city/nalchik	/city/nalchik	
7.1	bigger_better	0	131	Нефтеюганск	0.572	24	/city/nefteyugansk	/city/nefteyugansk	
7.1	bigger_better	0	73	Йошкар-Ола	0.571	25	/city/yoshkar-ola	/city/yoshkar-ola	
7	bigger_better	0	154	Обнинск	0.569	26	/city/obninsk	/city/obninsk	
7	bigger_better	0	163	Ногинск	0.568	27	/city/noginsk	/city/noginsk	
6.9	bigger_better	0	119	Коломна	0.5662	28	/city/kolomna	/city/kolomna	
6.9	bigger_better	0	121	Ковров	0.566	29	/city/kovrov	/city/kovrov	
6.9	bigger_better	0	41	Курск	0.5632	30	/city/kursk	/city/kursk	
6.9	bigger_better	0	38	Киров	0.563	31	/city/kirov	/city/kirov	
6.9	bigger_better	0	136	Димитровград	0.563	32	/city/dimitrovgrad	/city/dimitrovgrad	
6.8	bigger_better	0	116	Альметьевск	0.562	33	/city/almetevsk	/city/almetevsk	
6.8	bigger_better	0	32	Рязань	0.559	34	/city/ryazan	/city/ryazan	
6.8	bigger_better	0	58	Сургут	0.559	35	/city/surgut	/city/surgut	
6.7	bigger_better	0	45	Брянск	0.557	36	/city/bryansk	/city/bryansk	
6.7	bigger_better	0	17	Краснодар	0.556	37	/city/krasnodar	/city/krasnodar	
6.7	bigger_better	0	35	Набережные Челны	0.556	38	/city/naberezhnye-chelny	/city/naberezhnye-chelny	
6.6	bigger_better	0	95	Балаково	0.5522	39	/city/balakovo	/city/balakovo	
6.6	bigger_better	0	85	Химки	0.552	40	/city/himki	/city/himki	
6.5	bigger_better	0	118	Пятигорск	0.551	41	/city/pyatigorsk	/city/pyatigorsk	
6.4	bigger_better	0	135	Орехово-Зуево	0.547	42	/city/orehovo-zuevo	/city/orehovo-zuevo	
6.4	bigger_better	0	40	Калининград	0.546	43	/city/kaliningrad	/city/kaliningrad	
6.4	bigger_better	0	10	Ростов-на-Дону	0.545	44	/city/rostov-na-donu	/city/rostov-na-donu	
6.4	bigger_better	0	108	Волгодонск	0.545	45	/city/volgodonsk	/city/volgodonsk	
6.4	bigger_better	0	143	Щёлково	0.545	46	/city/schelkovo	/city/schelkovo	
6.4	bigger_better	0	145	Октябрьский	0.545	47	/city/oktyabrskiy	/city/oktyabrskiy	
6.4	bigger_better	0	66	Тамбов	0.544	48	/city/tambov	/city/tambov	
6.3	bigger_better	0	5	Нижний Новгород	0.54	49	/city/nizhniy-novgorod	/city/nizhniy-novgorod	
6.3	bigger_better	0	15	Воронеж	0.54	50	/city/voronezh	/city/voronezh	
6.2	bigger_better	0	14	Пермь	0.539	51	/city/perm	/city/perm	
6.2	bigger_better	0	28	Оренбург	0.538	52	/city/orenburg	/city/orenburg	
6.2	bigger_better	0	47	Тверь	0.537	53	/city/tver	/city/tver	
6.1	bigger_better	0	19	Тюмень	0.535	54	/city/tyumen	/city/tyumen	
6	bigger_better	0	141	Батайск	0.532	55	/city/bataysk	/city/bataysk	
6	bigger_better	0	155	Арзамас	0.532	56	/city/arzamas	/city/arzamas	
6	bigger_better	0	115	Миасс	0.531	57	/city/miass	/city/miass	
6	bigger_better	0	36	Липецк	0.53	58	/city/lipeck	/city/lipeck	
5.9	bigger_better	0	7	Самара	0.526	59	/city/samara	/city/samara	
5.9	bigger_better	0	112	Электросталь	0.525	60	/city/elektrostal	/city/elektrostal	
5.8	bigger_better	0	123	Копейск	0.524	61	/city/kopeysk	/city/kopeysk	
5.8	bigger_better	0	69	Кострома	0.5232	62	/city/kostroma	/city/kostroma	
5.8	bigger_better	0	96	Армавир	0.523	63	/city/armavir	/city/armavir	
5.8	bigger_better	0	64	Саранск	0.522	64	/city/saransk	/city/saransk	
5.7	bigger_better	0	150	Ноябрьск	0.52	65	/city/noyabrsk	/city/noyabrsk	
5.7	bigger_better	0	70	Петрозаводск	0.5182	66	/city/petrozavodsk	/city/petrozavodsk	
5.7	bigger_better	0	156	Пушкино	0.518	67	/city/pushkino	/city/pushkino	
5.6	bigger_better	0	39	Чебоксары	0.517	68	/city/cheboksary	/city/cheboksary	
5.6	bigger_better	0	120	Майкоп	0.516	69	/city/maykop	/city/maykop	
5.6	bigger_better	0	114	Березники	0.515	70	/city/berezniki	/city/berezniki	
5.5	bigger_better	0	34	Пенза	0.513	71	/city/penza	/city/penza	
5.5	bigger_better	0	139	Камышин	0.512	72	/city/kamyshin	/city/kamyshin	
5.5	bigger_better	0	134	Нефтекамск	0.5112	73	/city/neftekamsk	/city/neftekamsk	
5.5	bigger_better	0	31	Кемерово	0.511	74	/city/kemerovo	/city/kemerovo	
5.5	bigger_better	0	94	Рыбинск	0.51	75	/city/rybinsk	/city/rybinsk	
5.4	bigger_better	0	12	Волгоград	0.509	76	/city/volgograd	/city/volgograd	
5.3	bigger_better	0	44	Магнитогорск	0.505	77	/city/magnitogorsk	/city/magnitogorsk	
5.3	bigger_better	0	43	Ставрополь	0.504	78	/city/stavropol	/city/stavropol	
5.3	bigger_better	0	91	Псков	0.504	79	/city/pskov	/city/pskov	
5.3	bigger_better	0	149	Сергиев Посад	0.503	80	/city/sergiev-posad	/city/sergiev-posad	
5.2	bigger_better	0	151	Елец	0.502	81	/city/elec	/city/elec	
5.2	bigger_better	0	49	Сочи	0.501	82	/city/sochi	/city/sochi	
5.2	bigger_better	0	129	Серпухов	0.499	83	/city/serpuhov	/city/serpuhov	
5.2	bigger_better	0	22	Ульяновск	0.4983	84	/city/ulyanovsk	/city/ulyanovsk	
5.1	bigger_better	0	8	Омск	0.4982	85	/city/omsk	/city/omsk	
5.1	bigger_better	0	16	Саратов	0.498	86	/city/saratov	/city/saratov	
5.1	bigger_better	0	11	Уфа	0.495	87	/city/ufa	/city/ufa	
5	bigger_better	0	84	Ангарск	0.493	88	/city/angarsk	/city/angarsk	
5	bigger_better	0	88	Благовещенск	0.493	89	/city/blagoveschensk	/city/blagoveschensk	
5	bigger_better	0	26	Хабаровск	0.492	90	/city/habarovsk	/city/habarovsk	
5	bigger_better	0	159	Каспийск	0.492	91	/city/kaspiysk	/city/kaspiysk	
4.9	bigger_better	0	144	Муром	0.4901	92	/city/murom	/city/murom	
4.9	bigger_better	0	9	Челябинск	0.49	93	/city/chelyabinsk	/city/chelyabinsk	
4.9	bigger_better	0	46	Иваново	0.4893	94	/city/ivanovo	/city/ivanovo	
4.9	bigger_better	0	109	Абакан	0.4892	95	/city/abakan	/city/abakan	
4.9	bigger_better	0	89	Энгельс	0.489	96	/city/engels	/city/engels	
4.9	bigger_better	0	25	Ярославль	0.4872	97	/city/yaroslavl	/city/yaroslavl	
4.9	bigger_better	0	13	Красноярск	0.4871	98	/city/krasnoyarsk	/city/krasnoyarsk	
4.9	bigger_better	0	18	Тольятти	0.487	99	/city/tolyatti	/city/tolyatti	
4.8	bigger_better	0	55	Смоленск	0.486	100	/city/smolensk	/city/smolensk	
4.8	bigger_better	0	57	Курган	0.484	101	/city/kurgan	/city/kurgan	
4.8	bigger_better	0	72	Комсомольск-на-Амуре	0.484	102	/city/komsomolsk-na-amure	/city/komsomolsk-na-amure	
4.7	bigger_better	0	3	Новосибирск	0.483	103	/city/novosibirsk	/city/novosibirsk	
4.7	bigger_better	0	106	Златоуст	0.4823	104	/city/zlatoust	/city/zlatoust	
4.7	bigger_better	0	103	Норильск	0.482	105	/city/norilsk	/city/norilsk	
4.7	bigger_better	0	133	Новочебоксарск	0.482	106	/city/novocheboksarsk	/city/novocheboksarsk	
4.7	bigger_better	0	166	Сарапул	0.482	107	/city/sarapul	/city/sarapul	
4.6	bigger_better	0	23	Иркутск	0.478	108	/city/irkutsk	/city/irkutsk	
4.6	bigger_better	0	24	Владивосток	0.477	109	/city/vladivostok	/city/vladivostok	
4.6	bigger_better	0	130	Черкесск	0.477	110	/city/cherkessk	/city/cherkessk	
4.6	bigger_better	0	77	Сыктывкар	0.4763	111	/city/syktyvkar	/city/syktyvkar	
4.6	bigger_better	0	51	Архангельск	0.4762	112	/city/arhangelsk	/city/arhangelsk	
4.6	bigger_better	0	21	Барнаул	0.476	113	/city/barnaul	/city/barnaul	
4.5	bigger_better	0	79	Дзержинск	0.475	114	/city/dzerzhinsk	/city/dzerzhinsk	
4.5	bigger_better	0	61	Владикавказ	0.473	115	/city/vladikavkaz	/city/vladikavkaz	
4.4	bigger_better	0	98	Северодвинск	0.471	116	/city/severodvinsk	/city/severodvinsk	
4.4	bigger_better	0	113	Салават	0.47	117	/city/salavat	/city/salavat	
4.4	bigger_better	0	97	Южно-Сахалинск	0.468	118	/city/yuzhno-sahalinsk	/city/yuzhno-sahalinsk	
4.3	bigger_better	0	158	Элиста	0.466	119	/city/elista	/city/elista	
4.3	bigger_better	0	65	Якутск	0.465	120	/city/yakutsk	/city/yakutsk	
4.2	bigger_better	0	126	Кисловодск	0.464	121	/city/kislovodsk	/city/kislovodsk	
4.2	bigger_better	0	63	Мурманск	0.463	122	/city/murmansk	/city/murmansk	
4.2	bigger_better	0	59	Орёл	0.462	123	/city/orel	/city/orel	
4	bigger_better	0	30	Томск	0.453	124	/city/tomsk	/city/tomsk	
3.9	bigger_better	0	137	Дербент	0.451	125	/city/derbent	/city/derbent	
3.9	bigger_better	0	68	Стерлитамак	0.449	126	/city/sterlitamak	/city/sterlitamak	
3.8	bigger_better	0	110	Находка	0.448	127	/city/nahodka	/city/nahodka	
3.7	bigger_better	0	76	Братск	0.445	128	/city/bratsk	/city/bratsk	
3.7	bigger_better	0	86	Старый Оскол	0.4432	129	/city/staryy-oskol	/city/staryy-oskol	
3.7	bigger_better	0	82	Нижнекамск	0.443	130	/city/nizhnekamsk	/city/nizhnekamsk	
3.7	bigger_better	0	80	Шахты	0.4422	131	/city/shahty	/city/shahty	
3.7	bigger_better	0	56	Волжский	0.442	132	/city/volzhskiy	/city/volzhskiy	
3.4	bigger_better	0	42	Улан-Удэ	0.433	133	/city/ulan-ude	/city/ulan-ude	
3.3	bigger_better	0	37	Тула	0.429	134	/city/tula	/city/tula	
3.3	bigger_better	0	152	Новокуйбышевск	0.4282	135	/city/novokuybyshevsk	/city/novokuybyshevsk	
3.3	bigger_better	0	142	Кызыл	0.428	136	/city/kyzyl	/city/kyzyl	
3.3	bigger_better	0	92	Бийск	0.427	137	/city/biysk	/city/biysk	
3.2	bigger_better	0	60	Череповец	0.425	138	/city/cherepovec	/city/cherepovec	
3	bigger_better	0	54	Чита	0.415	139	/city/chita	/city/chita	
2.9	bigger_better	0	117	Рубцовск	0.414	140	/city/rubcovsk	/city/rubcovsk	
2.8	bigger_better	0	67	Грозный	0.409	141	/city/groznyy	/city/groznyy	
2.7	bigger_better	0	50	Нижний Тагил	0.407	142	/city/nizhniy-tagil	/city/nizhniy-tagil	
2.6	bigger_better	0	29	Новокузнецк	0.402	143	/city/novokuzneck	/city/novokuzneck	
2.5	bigger_better	0	132	Первоуральск	0.399	144	/city/pervouralsk	/city/pervouralsk	
2.2	bigger_better	0	127	Новомосковск	0.385	145	/city/novomoskovsk	/city/novomoskovsk	
2.1	bigger_better	0	111	Уссурийск	0.383	146	/city/ussuriysk	/city/ussuriysk	
2	bigger_better	0	75	Новороссийск	0.38	147	/city/novorossiysk	/city/novorossiysk	
2	bigger_better	0	105	Новочеркасск	0.378	148	/city/novocherkassk	/city/novocherkassk	
1.9	bigger_better	0	27	Махачкала	0.376	149	/city/mahachkala	/city/mahachkala	
1.7	bigger_better	0	146	Новошахтинск	0.368	150	/city/novoshahtinsk	/city/novoshahtinsk	
1.7	bigger_better	0	161	Артём	0.3672	151	/city/artem	/city/artem	
1.7	bigger_better	0	104	Сызрань	0.367	152	/city/syzran	/city/syzran	
1.5	bigger_better	0	81	Орск	0.36	153	/city/orsk	/city/orsk	
1.5	bigger_better	0	125	Хасавюрт	0.359	154	/city/hasavyurt	/city/hasavyurt	
1.4	bigger_better	0	148	Ачинск	0.358	155	/city/achinsk	/city/achinsk	
1.4	bigger_better	0	138	Невинномысск	0.356	156	/city/nevinnomyssk	/city/nevinnomyssk	
1	bigger_better	0	93	Прокопьевск	0.341	157	/city/prokopevsk	/city/prokopevsk	
