epochs	information_source	description	name	epoch	display	type	short_name	stat
["2014.11","2014.10","2014.09","2014.08","2014.07","2014.06","2014.05","2014.04","2014.03","2014.02","2014.01","2013.12","2013.11","2013.10","2013.09","2013.08","2013.07","2013.06","2013.05","2013.04","2013.03","2013.02","2013.01"]	Росстат	Рейтинг городов по средней стоимости 1 кг соленой сельди.	Стоимость сельди	2014.11	value	city	herring	10129


rate	order	rate_grow	object_id	object_name	value	rating_place	url	object_url	units
10	bigger_worse	0	65	Якутск	196.02	1	/city/yakutsk	/city/yakutsk	<i class="rub">q</i>
9.1	bigger_worse	0	97	Южно-Сахалинск	185.37	2	/city/yuzhno-sahalinsk	/city/yuzhno-sahalinsk	<i class="rub">q</i>
8.9	bigger_worse	0	150	Ноябрьск	182.97	3	/city/noyabrsk	/city/noyabrsk	<i class="rub">q</i>
8.5	bigger_worse	2	67	Грозный	178.11	4	/city/groznyy	/city/groznyy	<i class="rub">q</i>
8.1	bigger_worse	0	140	Новый Уренгой	173.15	5	/city/novyy-urengoy	/city/novyy-urengoy	<i class="rub">q</i>
7.9	bigger_worse	-2	31	Кемерово	171.12	6	/city/kemerovo	/city/kemerovo	<i class="rub">q</i>
7.7	bigger_worse	0	1	Москва	168.53	7	/city/moskva	/city/moskva	<i class="rub">q</i>
7.7	bigger_worse	0	76	Братск	168.25	8	/city/bratsk	/city/bratsk	<i class="rub">q</i>
7.6	bigger_worse	1	103	Норильск	166.92	9	/city/norilsk	/city/norilsk	<i class="rub">q</i>
7.4	bigger_worse	-1	13	Красноярск	164.87	10	/city/krasnoyarsk	/city/krasnoyarsk	<i class="rub">q</i>
7.3	bigger_worse	0	58	Сургут	163.93	11	/city/surgut	/city/surgut	<i class="rub">q</i>
7.3	bigger_worse	0	26	Хабаровск	163.54	12	/city/habarovsk	/city/habarovsk	<i class="rub">q</i>
7.3	bigger_worse	0	100	Петропавловск-Камчатский	163.32	13	/city/petropavlovsk-kamchatskiy	/city/petropavlovsk-kamchatskiy	<i class="rub">q</i>
6.8	bigger_worse	1	129	Серпухов	158.49	14	/city/serpuhov	/city/serpuhov	<i class="rub">q</i>
6.6	bigger_worse	1	71	Нижневартовск	155.68	15	/city/nizhnevartovsk	/city/nizhnevartovsk	<i class="rub">q</i>
6.5	bigger_worse	-2	124	Одинцово	154.71	16	/city/odincovo	/city/odincovo	<i class="rub">q</i>
6.4	bigger_worse	1	24	Владивосток	153.2	17	/city/vladivostok	/city/vladivostok	<i class="rub">q</i>
6.3	bigger_worse	-1	29	Новокузнецк	152.1	18	/city/novokuzneck	/city/novokuzneck	<i class="rub">q</i>
6.1	bigger_worse	2	4	Екатеринбург	149.26	19	/city/ekaterinburg	/city/ekaterinburg	<i class="rub">q</i>
6	bigger_worse	-1	164	Раменское	148.62	20	/city/ramenskoe	/city/ramenskoe	<i class="rub">q</i>
6	bigger_worse	14	132	Первоуральск	148.26	21	/city/pervouralsk	/city/pervouralsk	<i class="rub">q</i>
5.8	bigger_worse	25	63	Мурманск	146.37	22	/city/murmansk	/city/murmansk	<i class="rub">q</i>
5.8	bigger_worse	3	80	Шахты	146.21	23	/city/shahty	/city/shahty	<i class="rub">q</i>
5.7	bigger_worse	-1	148	Ачинск	145.01	24	/city/achinsk	/city/achinsk	<i class="rub">q</i>
5.7	bigger_worse	-5	165	Бердск	144.61	25	/city/berdsk	/city/berdsk	<i class="rub">q</i>
5.7	bigger_worse	-4	138	Невинномысск	144.25	26	/city/nevinnomyssk	/city/nevinnomyssk	<i class="rub">q</i>
5.6	bigger_worse	-2	101	Люберцы	144.15	27	/city/lyubercy	/city/lyubercy	<i class="rub">q</i>
5.6	bigger_worse	1	142	Кызыл	144.08	28	/city/kyzyl	/city/kyzyl	<i class="rub">q</i>
5.6	bigger_worse	5	47	Тверь	143.69	29	/city/tver	/city/tver	<i class="rub">q</i>
5.6	bigger_worse	-6	88	Благовещенск	143.64	30	/city/blagoveschensk	/city/blagoveschensk	<i class="rub">q</i>
5.6	bigger_worse	2	49	Сочи	143.21	31	/city/sochi	/city/sochi	<i class="rub">q</i>
5.6	bigger_worse	-1	2	Санкт-Петербург	143.12	32	/city/sankt-peterburg	/city/sankt-peterburg	<i class="rub">q</i>
5.5	bigger_worse	-3	53	Калуга	142.52	33	/city/kaluga	/city/kaluga	<i class="rub">q</i>
5.5	bigger_worse	-7	93	Прокопьевск	142.5	34	/city/prokopevsk	/city/prokopevsk	<i class="rub">q</i>
5.5	bigger_worse	-7	72	Комсомольск-на-Амуре	142.33	35	/city/komsomolsk-na-amure	/city/komsomolsk-na-amure	<i class="rub">q</i>
5.5	bigger_worse	-4	87	Великий Новгород	141.84	36	/city/velikiy-novgorod	/city/velikiy-novgorod	<i class="rub">q</i>
5.4	bigger_worse	-1	19	Тюмень	141.64	37	/city/tyumen	/city/tyumen	<i class="rub">q</i>
5.2	bigger_worse	5	70	Петрозаводск	139.23	38	/city/petrozavodsk	/city/petrozavodsk	<i class="rub">q</i>
5.2	bigger_worse	0	114	Березники	138.3	39	/city/berezniki	/city/berezniki	<i class="rub">q</i>
5	bigger_worse	-3	17	Краснодар	136.89	40	/city/krasnodar	/city/krasnodar	<i class="rub">q</i>
5	bigger_worse	-3	105	Новочеркасск	136.09	41	/city/novocherkassk	/city/novocherkassk	<i class="rub">q</i>
5	bigger_worse	0	32	Рязань	135.94	42	/city/ryazan	/city/ryazan	<i class="rub">q</i>
4.9	bigger_worse	15	14	Пермь	135.47	43	/city/perm	/city/perm	<i class="rub">q</i>
4.9	bigger_worse	2	37	Тула	134.75	44	/city/tula	/city/tula	<i class="rub">q</i>
4.7	bigger_worse	16	117	Рубцовск	133.34	45	/city/rubcovsk	/city/rubcovsk	<i class="rub">q</i>
4.7	bigger_worse	-5	3	Новосибирск	133.1	46	/city/novosibirsk	/city/novosibirsk	<i class="rub">q</i>
4.7	bigger_worse	4	77	Сыктывкар	133.04	47	/city/syktyvkar	/city/syktyvkar	<i class="rub">q</i>
4.7	bigger_worse	47	62	Вологда	132.91	48	/city/vologda	/city/vologda	<i class="rub">q</i>
4.7	bigger_worse	0	54	Чита	132.89	49	/city/chita	/city/chita	<i class="rub">q</i>
4.7	bigger_worse	-10	163	Ногинск	132.81	50	/city/noginsk	/city/noginsk	<i class="rub">q</i>
4.7	bigger_worse	16	61	Владикавказ	132.57	51	/city/vladikavkaz	/city/vladikavkaz	<i class="rub">q</i>
4.7	bigger_worse	-7	10	Ростов-на-Дону	132.45	52	/city/rostov-na-donu	/city/rostov-na-donu	<i class="rub">q</i>
4.6	bigger_worse	1	92	Бийск	132.03	53	/city/biysk	/city/biysk	<i class="rub">q</i>
4.6	bigger_worse	-10	30	Томск	131.84	54	/city/tomsk	/city/tomsk	<i class="rub">q</i>
4.6	bigger_worse	0	21	Барнаул	131.31	55	/city/barnaul	/city/barnaul	<i class="rub">q</i>
4.6	bigger_worse	6	42	Улан-Удэ	131.26	56	/city/ulan-ude	/city/ulan-ude	<i class="rub">q</i>
4.5	bigger_worse	19	84	Ангарск	130.84	57	/city/angarsk	/city/angarsk	<i class="rub">q</i>
4.5	bigger_worse	-1	50	Нижний Тагил	130.56	58	/city/nizhniy-tagil	/city/nizhniy-tagil	<i class="rub">q</i>
4.4	bigger_worse	-11	90	Подольск	129.75	59	/city/podolsk	/city/podolsk	<i class="rub">q</i>
4.4	bigger_worse	8	12	Волгоград	129.55	60	/city/volgograd	/city/volgograd	<i class="rub">q</i>
4.4	bigger_worse	25	45	Брянск	129.53	61	/city/bryansk	/city/bryansk	<i class="rub">q</i>
4.4	bigger_worse	9	139	Камышин	129.03	62	/city/kamyshin	/city/kamyshin	<i class="rub">q</i>
4.4	bigger_worse	-13	107	Каменск-Уральский	129.01	63	/city/kamensk-uralskiy	/city/kamensk-uralskiy	<i class="rub">q</i>
4.4	bigger_worse	10	60	Череповец	128.84	64	/city/cherepovec	/city/cherepovec	<i class="rub">q</i>
4.3	bigger_worse	7	75	Новороссийск	127.78	65	/city/novorossiysk	/city/novorossiysk	<i class="rub">q</i>
4.3	bigger_worse	-14	96	Армавир	127.71	66	/city/armavir	/city/armavir	<i class="rub">q</i>
4.3	bigger_worse	-11	112	Электросталь	127.55	67	/city/elektrostal	/city/elektrostal	<i class="rub">q</i>
4.2	bigger_worse	-15	115	Миасс	127.06	68	/city/miass	/city/miass	<i class="rub">q</i>
4.2	bigger_worse	-6	18	Тольятти	126.79	69	/city/tolyatti	/city/tolyatti	<i class="rub">q</i>
4.1	bigger_worse	-11	109	Абакан	125.71	70	/city/abakan	/city/abakan	<i class="rub">q</i>
4.1	bigger_worse	9	98	Северодвинск	125.7	71	/city/severodvinsk	/city/severodvinsk	<i class="rub">q</i>
4.1	bigger_worse	-12	120	Майкоп	125.7	72	/city/maykop	/city/maykop	<i class="rub">q</i>
4.1	bigger_worse	-3	33	Астрахань	125.28	73	/city/astrahan	/city/astrahan	<i class="rub">q</i>
4	bigger_worse	-10	130	Черкесск	125	74	/city/cherkessk	/city/cherkessk	<i class="rub">q</i>
4	bigger_worse	2	20	Ижевск	124.74	75	/city/izhevsk	/city/izhevsk	<i class="rub">q</i>
4	bigger_worse	-11	74	Таганрог	124.26	76	/city/taganrog	/city/taganrog	<i class="rub">q</i>
4	bigger_worse	-2	108	Волгодонск	124.06	77	/city/volgodonsk	/city/volgodonsk	<i class="rub">q</i>
3.9	bigger_worse	0	154	Обнинск	123.26	78	/city/obninsk	/city/obninsk	<i class="rub">q</i>
3.9	bigger_worse	14	78	Нальчик	123.08	79	/city/nalchik	/city/nalchik	<i class="rub">q</i>
3.8	bigger_worse	-11	160	Назрань	122.7	80	/city/nazran	/city/nazran	<i class="rub">q</i>
3.8	bigger_worse	0	73	Йошкар-Ола	122.62	81	/city/yoshkar-ola	/city/yoshkar-ola	<i class="rub">q</i>
3.8	bigger_worse	-16	111	Уссурийск	122.23	82	/city/ussuriysk	/city/ussuriysk	<i class="rub">q</i>
3.8	bigger_worse	4	144	Муром	121.59	83	/city/murom	/city/murom	<i class="rub">q</i>
3.7	bigger_worse	0	55	Смоленск	120.94	84	/city/smolensk	/city/smolensk	<i class="rub">q</i>
3.7	bigger_worse	0	121	Ковров	120.72	85	/city/kovrov	/city/kovrov	<i class="rub">q</i>
3.7	bigger_worse	-13	91	Псков	120.63	86	/city/pskov	/city/pskov	<i class="rub">q</i>
3.6	bigger_worse	-5	9	Челябинск	119.74	87	/city/chelyabinsk	/city/chelyabinsk	<i class="rub">q</i>
3.6	bigger_worse	-9	110	Находка	119.44	88	/city/nahodka	/city/nahodka	<i class="rub">q</i>
3.5	bigger_worse	2	128	Красногорск	118.78	89	/city/krasnogorsk	/city/krasnogorsk	<i class="rub">q</i>
3.5	bigger_worse	11	25	Ярославль	118.72	90	/city/yaroslavl	/city/yaroslavl	<i class="rub">q</i>
3.5	bigger_worse	-2	51	Архангельск	118.42	91	/city/arhangelsk	/city/arhangelsk	<i class="rub">q</i>
3.4	bigger_worse	10	136	Димитровград	117.92	92	/city/dimitrovgrad	/city/dimitrovgrad	<i class="rub">q</i>
3.4	bigger_worse	-10	135	Орехово-Зуево	117.89	93	/city/orehovo-zuevo	/city/orehovo-zuevo	<i class="rub">q</i>
3.4	bigger_worse	3	125	Хасавюрт	117.47	94	/city/hasavyurt	/city/hasavyurt	<i class="rub">q</i>
3.4	bigger_worse	3	149	Сергиев Посад	117.25	95	/city/sergiev-posad	/city/sergiev-posad	<i class="rub">q</i>
3.3	bigger_worse	-2	34	Пенза	116.23	96	/city/penza	/city/penza	<i class="rub">q</i>
3.3	bigger_worse	2	52	Владимир	116.18	97	/city/vladimir	/city/vladimir	<i class="rub">q</i>
3.3	bigger_worse	-10	38	Киров	116.13	98	/city/kirov	/city/kirov	<i class="rub">q</i>
3.3	bigger_worse	-7	44	Магнитогорск	116.09	99	/city/magnitogorsk	/city/magnitogorsk	<i class="rub">q</i>
3.3	bigger_worse	-4	11	Уфа	115.93	100	/city/ufa	/city/ufa	<i class="rub">q</i>
3.3	bigger_worse	3	6	Казань	115.78	101	/city/kazan	/city/kazan	<i class="rub">q</i>
3.2	bigger_worse	-2	5	Нижний Новгород	114.91	102	/city/nizhniy-novgorod	/city/nizhniy-novgorod	<i class="rub">q</i>
3.2	bigger_worse	2	43	Ставрополь	114.57	103	/city/stavropol	/city/stavropol	<i class="rub">q</i>
3.1	bigger_worse	25	27	Махачкала	113.9	104	/city/mahachkala	/city/mahachkala	<i class="rub">q</i>
3.1	bigger_worse	-2	59	Орёл	113.82	105	/city/orel	/city/orel	<i class="rub">q</i>
3	bigger_worse	0	134	Нефтекамск	113.22	106	/city/neftekamsk	/city/neftekamsk	<i class="rub">q</i>
3	bigger_worse	5	7	Самара	112.76	107	/city/samara	/city/samara	<i class="rub">q</i>
2.8	bigger_worse	2	39	Чебоксары	110.83	108	/city/cheboksary	/city/cheboksary	<i class="rub">q</i>
2.8	bigger_worse	6	81	Орск	110.79	109	/city/orsk	/city/orsk	<i class="rub">q</i>
2.8	bigger_worse	-3	79	Дзержинск	110.74	110	/city/dzerzhinsk	/city/dzerzhinsk	<i class="rub">q</i>
2.8	bigger_worse	-3	23	Иркутск	109.99	111	/city/irkutsk	/city/irkutsk	<i class="rub">q</i>
2.7	bigger_worse	2	104	Сызрань	109.44	112	/city/syzran	/city/syzran	<i class="rub">q</i>
2.7	bigger_worse	-2	48	Белгород	109.17	113	/city/belgorod	/city/belgorod	<i class="rub">q</i>
2.7	bigger_worse	-1	28	Оренбург	109.11	114	/city/orenburg	/city/orenburg	<i class="rub">q</i>
2.7	bigger_worse	3	16	Саратов	109.05	115	/city/saratov	/city/saratov	<i class="rub">q</i>
2.7	bigger_worse	-26	158	Элиста	108.89	116	/city/elista	/city/elista	<i class="rub">q</i>
2.6	bigger_worse	-1	40	Калининград	108.38	117	/city/kaliningrad	/city/kaliningrad	<i class="rub">q</i>
2.6	bigger_worse	-9	22	Ульяновск	108.32	118	/city/ulyanovsk	/city/ulyanovsk	<i class="rub">q</i>
2.6	bigger_worse	1	36	Липецк	107.81	119	/city/lipeck	/city/lipeck	<i class="rub">q</i>
2.5	bigger_worse	1	8	Омск	106.75	120	/city/omsk	/city/omsk	<i class="rub">q</i>
2.5	bigger_worse	-4	137	Дербент	106.44	121	/city/derbent	/city/derbent	<i class="rub">q</i>
2.4	bigger_worse	-3	64	Саранск	105.5	122	/city/saransk	/city/saransk	<i class="rub">q</i>
2.4	bigger_worse	0	35	Набережные Челны	105.08	123	/city/naberezhnye-chelny	/city/naberezhnye-chelny	<i class="rub">q</i>
2.4	bigger_worse	0	46	Иваново	105.04	124	/city/ivanovo	/city/ivanovo	<i class="rub">q</i>
2.4	bigger_worse	0	151	Елец	105	125	/city/elec	/city/elec	<i class="rub">q</i>
2.4	bigger_worse	-4	57	Курган	104.98	126	/city/kurgan	/city/kurgan	<i class="rub">q</i>
2.3	bigger_worse	0	15	Воронеж	104.82	127	/city/voronezh	/city/voronezh	<i class="rub">q</i>
2.2	bigger_worse	0	118	Пятигорск	102.57	128	/city/pyatigorsk	/city/pyatigorsk	<i class="rub">q</i>
2.1	bigger_worse	3	69	Кострома	102.22	129	/city/kostroma	/city/kostroma	<i class="rub">q</i>
2.1	bigger_worse	-4	127	Новомосковск	101.85	130	/city/novomoskovsk	/city/novomoskovsk	<i class="rub">q</i>
2.1	bigger_worse	0	86	Старый Оскол	101.46	131	/city/staryy-oskol	/city/staryy-oskol	<i class="rub">q</i>
2.1	bigger_worse	-2	155	Арзамас	101.37	132	/city/arzamas	/city/arzamas	<i class="rub">q</i>
2	bigger_worse	0	41	Курск	100.51	133	/city/kursk	/city/kursk	<i class="rub">q</i>
1.7	bigger_worse	3	94	Рыбинск	96.65	134	/city/rybinsk	/city/rybinsk	<i class="rub">q</i>
1.4	bigger_worse	-1	95	Балаково	93.05	135	/city/balakovo	/city/balakovo	<i class="rub">q</i>
1.1	bigger_worse	0	66	Тамбов	90.14	136	/city/tambov	/city/tambov	<i class="rub">q</i>
1	bigger_worse	-2	68	Стерлитамак	88.81	137	/city/sterlitamak	/city/sterlitamak	<i class="rub">q</i>
