epochs	information_source	description	name	epoch	display	type	short_name	stat
["2013","2012","2011","2010","2009","2008","2007","2006"]	Росстат	Рейтинг городов по объему инвестиций в основной капитал за счет средств муниципального бюджета. 	Инвестиции муниципального бюджета	2013	value	city	investment_budget	10119


rate	order	rate_grow	object_id	object_name	value	rating_place	url	object_url	units
10	bigger_better	0	1	Москва	237014200000	1	/city/moskva	/city/moskva	<i class="rub">q</i>
2.7	bigger_better	0	2	Санкт-Петербург	45623700000	2	/city/sankt-peterburg	/city/sankt-peterburg	<i class="rub">q</i>
1.9	bigger_better	19	65	Якутск	22878600000	3	/city/yakutsk	/city/yakutsk	<i class="rub">q</i>
1.3	bigger_better	0	4	Екатеринбург	7096839000	4	/city/ekaterinburg	/city/ekaterinburg	<i class="rub">q</i>
1.2	bigger_better	0	26	Хабаровск	5545225600	5	/city/habarovsk	/city/habarovsk	<i class="rub">q</i>
1.2	bigger_better	0	3	Новосибирск	5288045400	6	/city/novosibirsk	/city/novosibirsk	<i class="rub">q</i>
1.2	bigger_better	0	13	Красноярск	4399033800	7	/city/krasnoyarsk	/city/krasnoyarsk	<i class="rub">q</i>
1.1	bigger_better	0	40	Калининград	3729075000	8	/city/kaliningrad	/city/kaliningrad	<i class="rub">q</i>
1.1	bigger_better	41	58	Сургут	3341378000	9	/city/surgut	/city/surgut	<i class="rub">q</i>
1.1	bigger_better	0	23	Иркутск	2818899600	10	/city/irkutsk	/city/irkutsk	<i class="rub">q</i>
1.1	bigger_better	4	10	Ростов-на-Дону	2654724000	11	/city/rostov-na-donu	/city/rostov-na-donu	<i class="rub">q</i>
1.1	bigger_better	-3	17	Краснодар	2170846700	12	/city/krasnodar	/city/krasnodar	<i class="rub">q</i>
1.1	bigger_better	76	50	Нижний Тагил	2121661000	13	/city/nizhniy-tagil	/city/nizhniy-tagil	<i class="rub">q</i>
1.1	bigger_better	64	144	Муром	2101197000	14	/city/murom	/city/murom	<i class="rub">q</i>
1.1	bigger_better	4	55	Смоленск	1823899900	15	/city/smolensk	/city/smolensk	<i class="rub">q</i>
1.1	bigger_better	-2	5	Нижний Новгород	1737180000	16	/city/nizhniy-novgorod	/city/nizhniy-novgorod	<i class="rub">q</i>
1.1	bigger_better	-6	24	Владивосток	1549645670	17	/city/vladivostok	/city/vladivostok	<i class="rub">q</i>
1.1	bigger_better	8	37	Тула	1529365400	18	/city/tula	/city/tula	<i class="rub">q</i>
1.1	bigger_better	-1	14	Пермь	1481621000	19	/city/perm	/city/perm	<i class="rub">q</i>
1.1	bigger_better	32	131	Нефтеюганск	1388064000	20	/city/nefteyugansk	/city/nefteyugansk	<i class="rub">q</i>
1	bigger_better	0	20	Ижевск	1237486000	21	/city/izhevsk	/city/izhevsk	<i class="rub">q</i>
1	bigger_better	-2	31	Кемерово	1228001000	22	/city/kemerovo	/city/kemerovo	<i class="rub">q</i>
1	bigger_better	18	21	Барнаул	1194650600	23	/city/barnaul	/city/barnaul	<i class="rub">q</i>
1	bigger_better	-7	28	Оренбург	1081627000	24	/city/orenburg	/city/orenburg	<i class="rub">q</i>
1	bigger_better	-12	7	Самара	1041274000	25	/city/samara	/city/samara	<i class="rub">q</i>
1	bigger_better	51	49	Сочи	916406000	26	/city/sochi	/city/sochi	<i class="rub">q</i>
1	bigger_better	4	62	Вологда	871137700	27	/city/vologda	/city/vologda	<i class="rub">q</i>
1	bigger_better	-1	19	Тюмень	818532000	28	/city/tyumen	/city/tyumen	<i class="rub">q</i>
1	bigger_better	98	34	Пенза	803020000	29	/city/penza	/city/penza	<i class="rub">q</i>
1	bigger_better	32	30	Томск	773053600	30	/city/tomsk	/city/tomsk	<i class="rub">q</i>
1	bigger_better	-28	9	Челябинск	766493100	31	/city/chelyabinsk	/city/chelyabinsk	<i class="rub">q</i>
1	bigger_better	28	94	Рыбинск	763804700	32	/city/rybinsk	/city/rybinsk	<i class="rub">q</i>
1	bigger_better	39	97	Южно-Сахалинск	754428000	33	/city/yuzhno-sahalinsk	/city/yuzhno-sahalinsk	<i class="rub">q</i>
1	bigger_better	12	63	Мурманск	740202600	34	/city/murmansk	/city/murmansk	<i class="rub">q</i>
1	bigger_better	18	88	Благовещенск	707013000	35	/city/blagoveschensk	/city/blagoveschensk	<i class="rub">q</i>
1	bigger_better	-11	36	Липецк	694739000	36	/city/lipeck	/city/lipeck	<i class="rub">q</i>
1	bigger_better	17	111	Уссурийск	679969800	37	/city/ussuriysk	/city/ussuriysk	<i class="rub">q</i>
1	bigger_better	56	6	Казань	662887000	38	/city/kazan	/city/kazan	<i class="rub">q</i>
1	bigger_better	-7	42	Улан-Удэ	661966780	39	/city/ulan-ude	/city/ulan-ude	<i class="rub">q</i>
1	bigger_better	4	150	Ноябрьск	605401000	40	/city/noyabrsk	/city/noyabrsk	<i class="rub">q</i>
1	bigger_better	6	46	Иваново	576999700	41	/city/ivanovo	/city/ivanovo	<i class="rub">q</i>
1	bigger_better	3	8	Омск	545848000	42	/city/omsk	/city/omsk	<i class="rub">q</i>
1	bigger_better	-10	86	Старый Оскол	527316000	43	/city/staryy-oskol	/city/staryy-oskol	<i class="rub">q</i>
1	bigger_better	-15	25	Ярославль	522477200	44	/city/yaroslavl	/city/yaroslavl	<i class="rub">q</i>
1	bigger_better	11	18	Тольятти	517423100	45	/city/tolyatti	/city/tolyatti	<i class="rub">q</i>
1	bigger_better	66	158	Элиста	514828400	46	/city/elista	/city/elista	<i class="rub">q</i>
1	bigger_better	34	132	Первоуральск	503580000	47	/city/pervouralsk	/city/pervouralsk	<i class="rub">q</i>
1	bigger_better	10	15	Воронеж	502027000	48	/city/voronezh	/city/voronezh	<i class="rub">q</i>
1	bigger_better	2	54	Чита	493784000	49	/city/chita	/city/chita	<i class="rub">q</i>
1	bigger_better	-34	29	Новокузнецк	491499000	50	/city/novokuzneck	/city/novokuzneck	<i class="rub">q</i>
1	bigger_better	19	109	Абакан	458011400	51	/city/abakan	/city/abakan	<i class="rub">q</i>
1	bigger_better	-24	16	Саратов	457060000	52	/city/saratov	/city/saratov	<i class="rub">q</i>
1	bigger_better	-5	77	Сыктывкар	453193600	53	/city/syktyvkar	/city/syktyvkar	<i class="rub">q</i>
1	bigger_better	25	66	Тамбов	442311000	54	/city/tambov	/city/tambov	<i class="rub">q</i>
1	bigger_better	-13	11	Уфа	437588000	55	/city/ufa	/city/ufa	<i class="rub">q</i>
1	bigger_better	-18	100	Петропавловск-Камчатский	437056500	56	/city/petropavlovsk-kamchatskiy	/city/petropavlovsk-kamchatskiy	<i class="rub">q</i>
1	bigger_better	-22	32	Рязань	428618600	57	/city/ryazan	/city/ryazan	<i class="rub">q</i>
1	bigger_better	-34	75	Новороссийск	421109000	58	/city/novorossiysk	/city/novorossiysk	<i class="rub">q</i>
1	bigger_better	-22	48	Белгород	412033700	59	/city/belgorod	/city/belgorod	<i class="rub">q</i>
1	bigger_better	8	71	Нижневартовск	405932000	60	/city/nizhnevartovsk	/city/nizhnevartovsk	<i class="rub">q</i>
1	bigger_better	-38	51	Архангельск	399826000	61	/city/arhangelsk	/city/arhangelsk	<i class="rub">q</i>
1	bigger_better	-32	161	Артём	382225000	62	/city/artem	/city/artem	<i class="rub">q</i>
1	bigger_better	-27	43	Ставрополь	368821000	63	/city/stavropol	/city/stavropol	<i class="rub">q</i>
1	bigger_better	-21	52	Владимир	366043000	64	/city/vladimir	/city/vladimir	<i class="rub">q</i>
1	bigger_better	11	41	Курск	351262000	65	/city/kursk	/city/kursk	<i class="rub">q</i>
1	bigger_better	-7	33	Астрахань	344563000	66	/city/astrahan	/city/astrahan	<i class="rub">q</i>
1	bigger_better	-1	12	Волгоград	342260600	67	/city/volgograd	/city/volgograd	<i class="rub">q</i>
1	bigger_better	46	98	Северодвинск	336027200	68	/city/severodvinsk	/city/severodvinsk	<i class="rub">q</i>
1	bigger_better	-6	140	Новый Уренгой	333574000	69	/city/novyy-urengoy	/city/novyy-urengoy	<i class="rub">q</i>
1	bigger_better	20	121	Ковров	331986900	70	/city/kovrov	/city/kovrov	<i class="rub">q</i>
1	bigger_better	0	72	Комсомольск-на-Амуре	316362320	71	/city/komsomolsk-na-amure	/city/komsomolsk-na-amure	<i class="rub">q</i>
1	bigger_better	31	166	Сарапул	312038000	72	/city/sarapul	/city/sarapul	<i class="rub">q</i>
1	bigger_better	1	120	Майкоп	311864500	73	/city/maykop	/city/maykop	<i class="rub">q</i>
1	bigger_better	-1	38	Киров	306747000	74	/city/kirov	/city/kirov	<i class="rub">q</i>
1	bigger_better	-36	53	Калуга	295600000	75	/city/kaluga	/city/kaluga	<i class="rub">q</i>
1	bigger_better	9	59	Орёл	280321000	76	/city/orel	/city/orel	<i class="rub">q</i>
1	bigger_better	-28	44	Магнитогорск	275951000	77	/city/magnitogorsk	/city/magnitogorsk	<i class="rub">q</i>
1	bigger_better	2	118	Пятигорск	270402000	78	/city/pyatigorsk	/city/pyatigorsk	<i class="rub">q</i>
1	bigger_better	12	154	Обнинск	267764000	79	/city/obninsk	/city/obninsk	<i class="rub">q</i>
1	bigger_better	-68	47	Тверь	262638000	80	/city/tver	/city/tver	<i class="rub">q</i>
1	bigger_better	17	68	Стерлитамак	253740000	81	/city/sterlitamak	/city/sterlitamak	<i class="rub">q</i>
1	bigger_better	2	60	Череповец	238376000	82	/city/cherepovec	/city/cherepovec	<i class="rub">q</i>
1	bigger_better	5	57	Курган	237026470	83	/city/kurgan	/city/kurgan	<i class="rub">q</i>
1	bigger_better	-29	107	Каменск-Уральский	228931000	84	/city/kamensk-uralskiy	/city/kamensk-uralskiy	<i class="rub">q</i>
1	bigger_better	-21	69	Кострома	225667000	85	/city/kostroma	/city/kostroma	<i class="rub">q</i>
1	bigger_better	7	123	Копейск	225018500	86	/city/kopeysk	/city/kopeysk	<i class="rub">q</i>
1	bigger_better	0	139	Камышин	221104400	87	/city/kamyshin	/city/kamyshin	<i class="rub">q</i>
1	bigger_better	-27	74	Таганрог	219056000	88	/city/taganrog	/city/taganrog	<i class="rub">q</i>
1	bigger_better	6	79	Дзержинск	207560000	89	/city/dzerzhinsk	/city/dzerzhinsk	<i class="rub">q</i>
1	bigger_better	2	22	Ульяновск	203601000	90	/city/ulyanovsk	/city/ulyanovsk	<i class="rub">q</i>
1	bigger_better	-26	39	Чебоксары	202094400	91	/city/cheboksary	/city/cheboksary	<i class="rub">q</i>
1	bigger_better	-6	93	Прокопьевск	194798000	92	/city/prokopevsk	/city/prokopevsk	<i class="rub">q</i>
1	bigger_better	6	61	Владикавказ	166029000	93	/city/vladikavkaz	/city/vladikavkaz	<i class="rub">q</i>
1	bigger_better	-27	145	Октябрьский	153818000	94	/city/oktyabrskiy	/city/oktyabrskiy	<i class="rub">q</i>
1	bigger_better	-20	142	Кызыл	148000000	95	/city/kyzyl	/city/kyzyl	<i class="rub">q</i>
1	bigger_better	4	115	Миасс	143978300	96	/city/miass	/city/miass	<i class="rub">q</i>
1	bigger_better	-63	103	Норильск	138739800	97	/city/norilsk	/city/norilsk	<i class="rub">q</i>
1	bigger_better	-58	64	Саранск	138365000	98	/city/saransk	/city/saransk	<i class="rub">q</i>
1	bigger_better	8	105	Новочеркасск	130350000	99	/city/novocherkassk	/city/novocherkassk	<i class="rub">q</i>
1	bigger_better	24	148	Ачинск	130082000	100	/city/achinsk	/city/achinsk	<i class="rub">q</i>
1	bigger_better	-4	45	Брянск	127813500	101	/city/bryansk	/city/bryansk	<i class="rub">q</i>
1	bigger_better	13	95	Балаково	122868000	102	/city/balakovo	/city/balakovo	<i class="rub">q</i>
1	bigger_better	1	114	Березники	122706000	103	/city/berezniki	/city/berezniki	<i class="rub">q</i>
1	bigger_better	-35	84	Ангарск	119795700	104	/city/angarsk	/city/angarsk	<i class="rub">q</i>
1	bigger_better	-9	162	Ессентуки	115027160	105	/city/essentuki	/city/essentuki	<i class="rub">q</i>
1	bigger_better	7	133	Новочебоксарск	108432000	106	/city/novocheboksarsk	/city/novocheboksarsk	<i class="rub">q</i>
1	bigger_better	-24	76	Братск	103714000	107	/city/bratsk	/city/bratsk	<i class="rub">q</i>
1	bigger_better	8	35	Набережные Челны	101757000	108	/city/naberezhnye-chelny	/city/naberezhnye-chelny	<i class="rub">q</i>
1	bigger_better	1	104	Сызрань	97623000	109	/city/syzran	/city/syzran	<i class="rub">q</i>
1	bigger_better	-8	96	Армавир	89304000	110	/city/armavir	/city/armavir	<i class="rub">q</i>
1	bigger_better	-10	56	Волжский	88468300	111	/city/volzhskiy	/city/volzhskiy	<i class="rub">q</i>
1	bigger_better	19	106	Златоуст	82121000	112	/city/zlatoust	/city/zlatoust	<i class="rub">q</i>
1	bigger_better	12	87	Великий Новгород	75692000	113	/city/velikiy-novgorod	/city/velikiy-novgorod	<i class="rub">q</i>
1	bigger_better	8	73	Йошкар-Ола	74479000	114	/city/yoshkar-ola	/city/yoshkar-ola	<i class="rub">q</i>
1	bigger_better	6	141	Батайск	74268000	115	/city/bataysk	/city/bataysk	<i class="rub">q</i>
1	bigger_better	-59	126	Кисловодск	72879000	116	/city/kislovodsk	/city/kislovodsk	<i class="rub">q</i>
1	bigger_better	3	127	Новомосковск	72147000	117	/city/novomoskovsk	/city/novomoskovsk	<i class="rub">q</i>
1	bigger_better	-9	117	Рубцовск	67022000	118	/city/rubcovsk	/city/rubcovsk	<i class="rub">q</i>
1	bigger_better	7	92	Бийск	66143000	119	/city/biysk	/city/biysk	<i class="rub">q</i>
1	bigger_better	-38	108	Волгодонск	64494000	120	/city/volgodonsk	/city/volgodonsk	<i class="rub">q</i>
1	bigger_better	-4	155	Арзамас	63835000	121	/city/arzamas	/city/arzamas	<i class="rub">q</i>
1	bigger_better	-16	110	Находка	62512220	122	/city/nahodka	/city/nahodka	<i class="rub">q</i>
1	bigger_better	7	165	Бердск	43173300	123	/city/berdsk	/city/berdsk	<i class="rub">q</i>
1	bigger_better	5	82	Нижнекамск	43106000	124	/city/nizhnekamsk	/city/nizhnekamsk	<i class="rub">q</i>
1	bigger_better	9	136	Димитровград	42791300	125	/city/dimitrovgrad	/city/dimitrovgrad	<i class="rub">q</i>
1	bigger_better	-7	151	Елец	40057000	126	/city/elec	/city/elec	<i class="rub">q</i>
1	bigger_better	-22	81	Орск	37812000	127	/city/orsk	/city/orsk	<i class="rub">q</i>
1	bigger_better	-5	152	Новокуйбышевск	34864000	128	/city/novokuybyshevsk	/city/novokuybyshevsk	<i class="rub">q</i>
1	bigger_better	-21	138	Невинномысск	33477000	129	/city/nevinnomyssk	/city/nevinnomyssk	<i class="rub">q</i>
1	bigger_better	3	116	Альметьевск	24804000	130	/city/almetevsk	/city/almetevsk	<i class="rub">q</i>
1	bigger_better	-13	89	Энгельс	21940100	131	/city/engels	/city/engels	<i class="rub">q</i>
1	bigger_better	3	146	Новошахтинск	12611000	132	/city/novoshahtinsk	/city/novoshahtinsk	<i class="rub">q</i>
1	bigger_better	-22	113	Салават	10393000	133	/city/salavat	/city/salavat	<i class="rub">q</i>
1	bigger_better	-6	80	Шахты	9979000	134	/city/shahty	/city/shahty	<i class="rub">q</i>
1	bigger_better	-3	134	Нефтекамск	8343500	135	/city/neftekamsk	/city/neftekamsk	<i class="rub">q</i>
