epochs	information_source	description	name	epoch	display	type	short_name	stat
["2013","2012","2011","2010","2009","2008","2007","2006"]	Росстат	Рейтинг городов по средней заработной плате в сфере транспорта и связи.	Зарплата в транспортной сфере	2013	value	city	monthly_salary_8	10211


rate	order	rate_grow	object_id	object_name	value	rating_place	url	object_url	units
10	bigger_better	0	58	Сургут	72258.1	1	/city/surgut	/city/surgut	рублей в месяц
9.3	bigger_better	0	150	Ноябрьск	67711.4	2	/city/noyabrsk	/city/noyabrsk	рублей в месяц
8.5	bigger_better	0	140	Новый Уренгой	62294.7	3	/city/novyy-urengoy	/city/novyy-urengoy	рублей в месяц
8.3	bigger_better	1	103	Норильск	60860.3	4	/city/norilsk	/city/norilsk	рублей в месяц
7.7	bigger_better	2	1	Москва	56957.7	5	/city/moskva	/city/moskva	рублей в месяц
7.4	bigger_better	0	71	Нижневартовск	55135.4	6	/city/nizhnevartovsk	/city/nizhnevartovsk	рублей в месяц
7.3	bigger_better	1	100	Петропавловск-Камчатский	54717.7	7	/city/petropavlovsk-kamchatskiy	/city/petropavlovsk-kamchatskiy	рублей в месяц
6.9	bigger_better	-4	97	Южно-Сахалинск	52053.8	8	/city/yuzhno-sahalinsk	/city/yuzhno-sahalinsk	рублей в месяц
6.9	bigger_better	2	161	Артём	51751	9	/city/artem	/city/artem	рублей в месяц
6.2	bigger_better	2	110	Находка	47526	10	/city/nahodka	/city/nahodka	рублей в месяц
6.2	bigger_better	-1	63	Мурманск	47298.4	11	/city/murmansk	/city/murmansk	рублей в месяц
6	bigger_better	1	131	Нефтеюганск	46087.3	12	/city/nefteyugansk	/city/nefteyugansk	рублей в месяц
6	bigger_better	-4	76	Братск	46014	13	/city/bratsk	/city/bratsk	рублей в месяц
5.9	bigger_better	0	26	Хабаровск	45290.2	14	/city/habarovsk	/city/habarovsk	рублей в месяц
5.8	bigger_better	0	72	Комсомольск-на-Амуре	44751.8	15	/city/komsomolsk-na-amure	/city/komsomolsk-na-amure	рублей в месяц
5.7	bigger_better	2	54	Чита	43876.5	16	/city/chita	/city/chita	рублей в месяц
5.5	bigger_better	14	49	Сочи	42525.1	17	/city/sochi	/city/sochi	рублей в месяц
5.4	bigger_better	-1	23	Иркутск	42036.8	18	/city/irkutsk	/city/irkutsk	рублей в месяц
5.4	bigger_better	-3	30	Томск	41937.9	19	/city/tomsk	/city/tomsk	рублей в месяц
5.3	bigger_better	2	2	Санкт-Петербург	41683.8	20	/city/sankt-peterburg	/city/sankt-peterburg	рублей в месяц
5.3	bigger_better	2	24	Владивосток	41300	21	/city/vladivostok	/city/vladivostok	рублей в месяц
5.2	bigger_better	-1	75	Новороссийск	40526.2	22	/city/novorossiysk	/city/novorossiysk	рублей в месяц
4.9	bigger_better	1	13	Красноярск	39029.9	23	/city/krasnoyarsk	/city/krasnoyarsk	рублей в месяц
4.9	bigger_better	-4	19	Тюмень	38585.2	24	/city/tyumen	/city/tyumen	рублей в месяц
4.9	bigger_better	0	152	Новокуйбышевск	38493	25	/city/novokuybyshevsk	/city/novokuybyshevsk	рублей в месяц
4.8	bigger_better	0	111	Уссурийск	38043	26	/city/ussuriysk	/city/ussuriysk	рублей в месяц
4.6	bigger_better	0	51	Архангельск	36647.2	27	/city/arhangelsk	/city/arhangelsk	рублей в месяц
4.6	bigger_better	1	109	Абакан	36521	28	/city/abakan	/city/abakan	рублей в месяц
4.5	bigger_better	-1	77	Сыктывкар	36025	29	/city/syktyvkar	/city/syktyvkar	рублей в месяц
4.5	bigger_better	0	3	Новосибирск	35826.5	30	/city/novosibirsk	/city/novosibirsk	рублей в месяц
4.3	bigger_better	-12	4	Екатеринбург	34737	31	/city/ekaterinburg	/city/ekaterinburg	рублей в месяц
4.2	bigger_better	0	17	Краснодар	34329	32	/city/krasnodar	/city/krasnodar	рублей в месяц
4	bigger_better	3	62	Вологда	32915.6	33	/city/vologda	/city/vologda	рублей в месяц
4	bigger_better	-1	148	Ачинск	32554.2	34	/city/achinsk	/city/achinsk	рублей в месяц
3.9	bigger_better	-1	70	Петрозаводск	32451.7	35	/city/petrozavodsk	/city/petrozavodsk	рублей в месяц
3.9	bigger_better	4	5	Нижний Новгород	32428.1	36	/city/nizhniy-novgorod	/city/nizhniy-novgorod	рублей в месяц
3.9	bigger_better	4	7	Самара	32346.1	37	/city/samara	/city/samara	рублей в месяц
3.9	bigger_better	5	33	Астрахань	32282.5	38	/city/astrahan	/city/astrahan	рублей в месяц
3.9	bigger_better	-1	11	Уфа	32264.1	39	/city/ufa	/city/ufa	рублей в месяц
3.9	bigger_better	-1	45	Брянск	31956.1	40	/city/bryansk	/city/bryansk	рублей в месяц
3.9	bigger_better	-4	116	Альметьевск	31938.7	41	/city/almetevsk	/city/almetevsk	рублей в месяц
3.8	bigger_better	5	10	Ростов-на-Дону	31427.9	42	/city/rostov-na-donu	/city/rostov-na-donu	рублей в месяц
3.7	bigger_better	-1	25	Ярославль	31052.1	43	/city/yaroslavl	/city/yaroslavl	рублей в месяц
3.6	bigger_better	1	107	Каменск-Уральский	30438.6	44	/city/kamensk-uralskiy	/city/kamensk-uralskiy	рублей в месяц
3.6	bigger_better	-1	141	Батайск	30336.2	45	/city/bataysk	/city/bataysk	рублей в месяц
3.6	bigger_better	0	14	Пермь	30302.1	46	/city/perm	/city/perm	рублей в месяц
3.6	bigger_better	5	15	Воронеж	29953	47	/city/voronezh	/city/voronezh	рублей в месяц
3.6	bigger_better	3	29	Новокузнецк	29927.5	48	/city/novokuzneck	/city/novokuzneck	рублей в месяц
3.5	bigger_better	4	127	Новомосковск	29856.1	49	/city/novomoskovsk	/city/novomoskovsk	рублей в месяц
3.5	bigger_better	13	6	Казань	29726.6	50	/city/kazan	/city/kazan	рублей в месяц
3.5	bigger_better	3	88	Благовещенск	29510.5	51	/city/blagoveschensk	/city/blagoveschensk	рублей в месяц
3.5	bigger_better	-4	40	Калининград	29427.1	52	/city/kaliningrad	/city/kaliningrad	рублей в месяц
3.4	bigger_better	13	87	Великий Новгород	29021	53	/city/velikiy-novgorod	/city/velikiy-novgorod	рублей в месяц
3.3	bigger_better	2	132	Первоуральск	28530.6	54	/city/pervouralsk	/city/pervouralsk	рублей в месяц
3.3	bigger_better	2	8	Омск	28442.4	55	/city/omsk	/city/omsk	рублей в месяц
3.3	bigger_better	3	50	Нижний Тагил	28358.2	56	/city/nizhniy-tagil	/city/nizhniy-tagil	рублей в месяц
3.3	bigger_better	1	31	Кемерово	28275.1	57	/city/kemerovo	/city/kemerovo	рублей в месяц
3.3	bigger_better	4	53	Калуга	27989.2	58	/city/kaluga	/city/kaluga	рублей в месяц
3.3	bigger_better	11	114	Березники	27967.1	59	/city/berezniki	/city/berezniki	рублей в месяц
3.2	bigger_better	1	44	Магнитогорск	27874.7	60	/city/magnitogorsk	/city/magnitogorsk	рублей в месяц
3.2	bigger_better	3	38	Киров	27871.4	61	/city/kirov	/city/kirov	рублей в месяц
3.2	bigger_better	-13	22	Ульяновск	27862	62	/city/ulyanovsk	/city/ulyanovsk	рублей в месяц
3.2	bigger_better	2	47	Тверь	27508.5	63	/city/tver	/city/tver	рублей в месяц
3.2	bigger_better	13	144	Муром	27324.4	64	/city/murom	/city/murom	рублей в месяц
3.1	bigger_better	8	37	Тула	27200.8	65	/city/tula	/city/tula	рублей в месяц
3.1	bigger_better	56	146	Новошахтинск	27197.9	66	/city/novoshahtinsk	/city/novoshahtinsk	рублей в месяц
3.1	bigger_better	-12	126	Кисловодск	27109.5	67	/city/kislovodsk	/city/kislovodsk	рублей в месяц
3.1	bigger_better	-33	16	Саратов	26950.7	68	/city/saratov	/city/saratov	рублей в месяц
3.1	bigger_better	3	113	Салават	26917.1	69	/city/salavat	/city/salavat	рублей в месяц
3.1	bigger_better	-10	57	Курган	26739.2	70	/city/kurgan	/city/kurgan	рублей в месяц
3.1	bigger_better	4	48	Белгород	26705.3	71	/city/belgorod	/city/belgorod	рублей в месяц
3.1	bigger_better	-3	55	Смоленск	26637.3	72	/city/smolensk	/city/smolensk	рублей в месяц
3	bigger_better	-2	60	Череповец	26367.8	73	/city/cherepovec	/city/cherepovec	рублей в месяц
3	bigger_better	2	154	Обнинск	26360.9	74	/city/obninsk	/city/obninsk	рублей в месяц
3	bigger_better	5	151	Елец	26026.9	75	/city/elec	/city/elec	рублей в месяц
2.9	bigger_better	5	12	Волгоград	25911.3	76	/city/volgograd	/city/volgograd	рублей в месяц
2.9	bigger_better	-3	145	Октябрьский	25792.8	77	/city/oktyabrskiy	/city/oktyabrskiy	рублей в месяц
2.9	bigger_better	4	43	Ставрополь	25436	78	/city/stavropol	/city/stavropol	рублей в месяц
2.9	bigger_better	5	82	Нижнекамск	25359.3	79	/city/nizhnekamsk	/city/nizhnekamsk	рублей в месяц
2.8	bigger_better	-1	20	Ижевск	25277.1	80	/city/izhevsk	/city/izhevsk	рублей в месяц
2.8	bigger_better	5	59	Орёл	25239.8	81	/city/orel	/city/orel	рублей в месяц
2.8	bigger_better	-32	89	Энгельс	25224.7	82	/city/engels	/city/engels	рублей в месяц
2.8	bigger_better	2	106	Златоуст	25034.1	83	/city/zlatoust	/city/zlatoust	рублей в месяц
2.8	bigger_better	-17	28	Оренбург	24750.4	84	/city/orenburg	/city/orenburg	рублей в месяц
2.7	bigger_better	-7	52	Владимир	24525.4	85	/city/vladimir	/city/vladimir	рублей в месяц
2.7	bigger_better	-3	91	Псков	24376.1	86	/city/pskov	/city/pskov	рублей в месяц
2.7	bigger_better	4	142	Кызыл	24273.2	87	/city/kyzyl	/city/kyzyl	рублей в месяц
2.7	bigger_better	-1	34	Пенза	24166.3	88	/city/penza	/city/penza	рублей в месяц
2.7	bigger_better	0	68	Стерлитамак	24094.1	89	/city/sterlitamak	/city/sterlitamak	рублей в месяц
2.7	bigger_better	-2	21	Барнаул	24022.5	90	/city/barnaul	/city/barnaul	рублей в месяц
2.6	bigger_better	5	86	Старый Оскол	23746.8	91	/city/staryy-oskol	/city/staryy-oskol	рублей в месяц
2.6	bigger_better	3	138	Невинномысск	23604.6	92	/city/nevinnomyssk	/city/nevinnomyssk	рублей в месяц
2.6	bigger_better	-1	46	Иваново	23482.5	93	/city/ivanovo	/city/ivanovo	рублей в месяц
2.6	bigger_better	4	35	Набережные Челны	23459.3	94	/city/naberezhnye-chelny	/city/naberezhnye-chelny	рублей в месяц
2.6	bigger_better	-2	66	Тамбов	23445.7	95	/city/tambov	/city/tambov	рублей в месяц
2.6	bigger_better	5	98	Северодвинск	23428.8	96	/city/severodvinsk	/city/severodvinsk	рублей в месяц
2.5	bigger_better	11	165	Бердск	22941.7	97	/city/berdsk	/city/berdsk	рублей в месяц
2.5	bigger_better	4	36	Липецк	22727.5	98	/city/lipeck	/city/lipeck	рублей в месяц
2.4	bigger_better	-31	104	Сызрань	22634.4	99	/city/syzran	/city/syzran	рублей в месяц
2.4	bigger_better	5	74	Таганрог	22243.9	100	/city/taganrog	/city/taganrog	рублей в месяц
2.4	bigger_better	-1	94	Рыбинск	22199.9	101	/city/rybinsk	/city/rybinsk	рублей в месяц
2.4	bigger_better	9	81	Орск	22190.3	102	/city/orsk	/city/orsk	рублей в месяц
2.3	bigger_better	0	134	Нефтекамск	21986.9	103	/city/neftekamsk	/city/neftekamsk	рублей в месяц
2.3	bigger_better	0	41	Курск	21973.5	104	/city/kursk	/city/kursk	рублей в месяц
2.3	bigger_better	-6	80	Шахты	21738.3	105	/city/shahty	/city/shahty	рублей в месяц
2.2	bigger_better	-9	93	Прокопьевск	21206.8	106	/city/prokopevsk	/city/prokopevsk	рублей в месяц
2.2	bigger_better	0	117	Рубцовск	21171.5	107	/city/rubcovsk	/city/rubcovsk	рублей в месяц
2.2	bigger_better	7	105	Новочеркасск	21043.9	108	/city/novocherkassk	/city/novocherkassk	рублей в месяц
2.2	bigger_better	-19	18	Тольятти	20853.4	109	/city/tolyatti	/city/tolyatti	рублей в месяц
2.2	bigger_better	-1	79	Дзержинск	20777.6	110	/city/dzerzhinsk	/city/dzerzhinsk	рублей в месяц
2.2	bigger_better	-1	73	Йошкар-Ола	20769	111	/city/yoshkar-ola	/city/yoshkar-ola	рублей в месяц
2.1	bigger_better	0	39	Чебоксары	20368.9	112	/city/cheboksary	/city/cheboksary	рублей в месяц
2.1	bigger_better	-19	69	Кострома	20173.5	113	/city/kostroma	/city/kostroma	рублей в месяц
2.1	bigger_better	5	120	Майкоп	20085.7	114	/city/maykop	/city/maykop	рублей в месяц
2	bigger_better	-2	115	Миасс	19856	115	/city/miass	/city/miass	рублей в месяц
1.9	bigger_better	1	78	Нальчик	19185	116	/city/nalchik	/city/nalchik	рублей в месяц
1.8	bigger_better	1	61	Владикавказ	18574.4	117	/city/vladikavkaz	/city/vladikavkaz	рублей в месяц
1.8	bigger_better	7	64	Саранск	18548.4	118	/city/saransk	/city/saransk	рублей в месяц
1.8	bigger_better	8	158	Элиста	18353.2	119	/city/elista	/city/elista	рублей в месяц
1.8	bigger_better	-14	95	Балаково	18170.2	120	/city/balakovo	/city/balakovo	рублей в месяц
1.7	bigger_better	3	136	Димитровград	17991.7	121	/city/dimitrovgrad	/city/dimitrovgrad	рублей в месяц
1.7	bigger_better	-6	162	Ессентуки	17805.1	122	/city/essentuki	/city/essentuki	рублей в месяц
1.7	bigger_better	-9	121	Ковров	17753.2	123	/city/kovrov	/city/kovrov	рублей в месяц
1.7	bigger_better	-1	155	Арзамас	17704.6	124	/city/arzamas	/city/arzamas	рублей в месяц
1.7	bigger_better	-4	92	Бийск	17548.6	125	/city/biysk	/city/biysk	рублей в месяц
1.7	bigger_better	-6	123	Копейск	17455.6	126	/city/kopeysk	/city/kopeysk	рублей в месяц
1.6	bigger_better	-1	166	Сарапул	17163.1	127	/city/sarapul	/city/sarapul	рублей в месяц
1.5	bigger_better	1	9	Челябинск	16295.6	128	/city/chelyabinsk	/city/chelyabinsk	рублей в месяц
1.4	bigger_better	-1	56	Волжский	15961.5	129	/city/volzhskiy	/city/volzhskiy	рублей в месяц
1.4	bigger_better	0	130	Черкесск	15955.8	130	/city/cherkessk	/city/cherkessk	рублей в месяц
1.4	bigger_better	1	108	Волгодонск	15707.9	131	/city/volgodonsk	/city/volgodonsk	рублей в месяц
1.3	bigger_better	1	118	Пятигорск	15021.5	132	/city/pyatigorsk	/city/pyatigorsk	рублей в месяц
1.3	bigger_better	-2	96	Армавир	14903.9	133	/city/armavir	/city/armavir	рублей в месяц
1	bigger_better	1	133	Новочебоксарск	13491.8	134	/city/novocheboksarsk	/city/novocheboksarsk	рублей в месяц
1	bigger_better	-1	139	Камышин	13168.5	135	/city/kamyshin	/city/kamyshin	рублей в месяц
