epochs	information_source	description	name	epoch	display	type	short_name	stat
["2013","2012","2011","2010","2009","2008","2007","2006"]	Росстат	Рейтинг городов по средней заработной плате в сфере гостиничного и ресторанного бизнеса.	Зарплата в гостинично-ресторанном бизнесе	2013	value	city	monthly_salary_7	10210


rate	order	rate_grow	object_id	object_name	value	rating_place	url	object_url	units
10	bigger_better	1	58	Сургут	35699	1	/city/surgut	/city/surgut	рублей в месяц
10	bigger_better	3	103	Норильск	35692.2	2	/city/norilsk	/city/norilsk	рублей в месяц
9.6	bigger_better	1	140	Новый Уренгой	34466.2	3	/city/novyy-urengoy	/city/novyy-urengoy	рублей в месяц
9.5	bigger_better	-1	97	Южно-Сахалинск	34081.7	4	/city/yuzhno-sahalinsk	/city/yuzhno-sahalinsk	рублей в месяц
9.1	bigger_better	1	49	Сочи	33014.2	5	/city/sochi	/city/sochi	рублей в месяц
8.2	bigger_better	1	1	Москва	30045.6	6	/city/moskva	/city/moskva	рублей в месяц
7.9	bigger_better	103	161	Артём	29219	7	/city/artem	/city/artem	рублей в месяц
7.9	bigger_better	1	100	Петропавловск-Камчатский	29096.8	8	/city/petropavlovsk-kamchatskiy	/city/petropavlovsk-kamchatskiy	рублей в месяц
7.4	bigger_better	-8	126	Кисловодск	27632.7	9	/city/kislovodsk	/city/kislovodsk	рублей в месяц
7.2	bigger_better	8	40	Калининград	27022.2	10	/city/kaliningrad	/city/kaliningrad	рублей в месяц
7.1	bigger_better	1	150	Ноябрьск	26643.4	11	/city/noyabrsk	/city/noyabrsk	рублей в месяц
6.8	bigger_better	-2	71	Нижневартовск	25726.4	12	/city/nizhnevartovsk	/city/nizhnevartovsk	рублей в месяц
6.4	bigger_better	1	53	Калуга	24391.4	13	/city/kaluga	/city/kaluga	рублей в месяц
6.1	bigger_better	14	79	Дзержинск	23469	14	/city/dzerzhinsk	/city/dzerzhinsk	рублей в месяц
6	bigger_better	1	25	Ярославль	23425.8	15	/city/yaroslavl	/city/yaroslavl	рублей в месяц
6	bigger_better	6	154	Обнинск	23352.2	16	/city/obninsk	/city/obninsk	рублей в месяц
5.9	bigger_better	31	6	Казань	22935.3	17	/city/kazan	/city/kazan	рублей в месяц
5.8	bigger_better	-3	9	Челябинск	22662.7	18	/city/chelyabinsk	/city/chelyabinsk	рублей в месяц
5.5	bigger_better	14	70	Петрозаводск	21862.6	19	/city/petrozavodsk	/city/petrozavodsk	рублей в месяц
5.4	bigger_better	0	131	Нефтеюганск	21523.4	20	/city/nefteyugansk	/city/nefteyugansk	рублей в месяц
5.4	bigger_better	-2	19	Тюмень	21330.8	21	/city/tyumen	/city/tyumen	рублей в месяц
5.4	bigger_better	-1	110	Находка	21305	22	/city/nahodka	/city/nahodka	рублей в месяц
5.4	bigger_better	0	30	Томск	21262.8	23	/city/tomsk	/city/tomsk	рублей в месяц
5.3	bigger_better	15	7	Самара	21077.5	24	/city/samara	/city/samara	рублей в месяц
5.3	bigger_better	29	116	Альметьевск	21053.4	25	/city/almetevsk	/city/almetevsk	рублей в месяц
5.3	bigger_better	3	5	Нижний Новгород	20986.9	26	/city/nizhniy-novgorod	/city/nizhniy-novgorod	рублей в месяц
5.2	bigger_better	20	10	Ростов-на-Дону	20835.9	27	/city/rostov-na-donu	/city/rostov-na-donu	рублей в месяц
5.2	bigger_better	-3	2	Санкт-Петербург	20704.1	28	/city/sankt-peterburg	/city/sankt-peterburg	рублей в месяц
5.1	bigger_better	-3	87	Великий Новгород	20477.3	29	/city/velikiy-novgorod	/city/velikiy-novgorod	рублей в месяц
5.1	bigger_better	-6	98	Северодвинск	20419.7	30	/city/severodvinsk	/city/severodvinsk	рублей в месяц
5.1	bigger_better	-18	4	Екатеринбург	20413.1	31	/city/ekaterinburg	/city/ekaterinburg	рублей в месяц
5	bigger_better	-1	63	Мурманск	20246.4	32	/city/murmansk	/city/murmansk	рублей в месяц
5	bigger_better	3	51	Архангельск	20072.1	33	/city/arhangelsk	/city/arhangelsk	рублей в месяц
5	bigger_better	15	17	Краснодар	20057.2	34	/city/krasnodar	/city/krasnodar	рублей в месяц
4.8	bigger_better	10	14	Пермь	19630.1	35	/city/perm	/city/perm	рублей в месяц
4.8	bigger_better	4	75	Новороссийск	19518	36	/city/novorossiysk	/city/novorossiysk	рублей в месяц
4.8	bigger_better	-7	15	Воронеж	19437.2	37	/city/voronezh	/city/voronezh	рублей в месяц
4.8	bigger_better	-1	13	Красноярск	19406.2	38	/city/krasnoyarsk	/city/krasnoyarsk	рублей в месяц
4.7	bigger_better	-1	77	Сыктывкар	19393	39	/city/syktyvkar	/city/syktyvkar	рублей в месяц
4.7	bigger_better	10	121	Ковров	19280.3	40	/city/kovrov	/city/kovrov	рублей в месяц
4.6	bigger_better	78	80	Шахты	19031.9	41	/city/shahty	/city/shahty	рублей в месяц
4.6	bigger_better	2	72	Комсомольск-на-Амуре	19020.1	42	/city/komsomolsk-na-amure	/city/komsomolsk-na-amure	рублей в месяц
4.6	bigger_better	-16	88	Благовещенск	18980.5	43	/city/blagoveschensk	/city/blagoveschensk	рублей в месяц
4.6	bigger_better	-27	76	Братск	18883.5	44	/city/bratsk	/city/bratsk	рублей в месяц
4.5	bigger_better	-10	60	Череповец	18659.9	45	/city/cherepovec	/city/cherepovec	рублей в месяц
4.5	bigger_better	5	109	Абакан	18564.5	46	/city/abakan	/city/abakan	рублей в месяц
4.4	bigger_better	17	32	Рязань	18233.5	47	/city/ryazan	/city/ryazan	рублей в месяц
4.4	bigger_better	-40	26	Хабаровск	18209.6	48	/city/habarovsk	/city/habarovsk	рублей в месяц
4.3	bigger_better	-15	34	Пенза	18092	49	/city/penza	/city/penza	рублей в месяц
4.3	bigger_better	16	23	Иркутск	18074.9	50	/city/irkutsk	/city/irkutsk	рублей в месяц
4.3	bigger_better	10	11	Уфа	18024.7	51	/city/ufa	/city/ufa	рублей в месяц
4.3	bigger_better	31	35	Набережные Челны	17936.4	52	/city/naberezhnye-chelny	/city/naberezhnye-chelny	рублей в месяц
4.3	bigger_better	6	115	Миасс	17898.8	53	/city/miass	/city/miass	рублей в месяц
4.3	bigger_better	31	37	Тула	17858.6	54	/city/tula	/city/tula	рублей в месяц
4.2	bigger_better	-3	20	Ижевск	17793.6	55	/city/izhevsk	/city/izhevsk	рублей в месяц
4.2	bigger_better	2	62	Вологда	17749.2	56	/city/vologda	/city/vologda	рублей в месяц
4.2	bigger_better	-14	54	Чита	17703	57	/city/chita	/city/chita	рублей в месяц
4.2	bigger_better	-2	3	Новосибирск	17530.4	58	/city/novosibirsk	/city/novosibirsk	рублей в месяц
4.1	bigger_better	1	33	Астрахань	17267	59	/city/astrahan	/city/astrahan	рублей в месяц
4	bigger_better	-14	165	Бердск	17113.9	60	/city/berdsk	/city/berdsk	рублей в месяц
3.9	bigger_better	1	113	Салават	16823.9	61	/city/salavat	/city/salavat	рублей в месяц
3.9	bigger_better	1	52	Владимир	16772.4	62	/city/vladimir	/city/vladimir	рублей в месяц
3.9	bigger_better	19	82	Нижнекамск	16741.9	63	/city/nizhnekamsk	/city/nizhnekamsk	рублей в месяц
3.9	bigger_better	15	118	Пятигорск	16600.8	64	/city/pyatigorsk	/city/pyatigorsk	рублей в месяц
3.8	bigger_better	-8	28	Оренбург	16523.9	65	/city/orenburg	/city/orenburg	рублей в месяц
3.8	bigger_better	7	55	Смоленск	16515.9	66	/city/smolensk	/city/smolensk	рублей в месяц
3.8	bigger_better	1	107	Каменск-Уральский	16475	67	/city/kamensk-uralskiy	/city/kamensk-uralskiy	рублей в месяц
3.8	bigger_better	7	12	Волгоград	16408.1	68	/city/volgograd	/city/volgograd	рублей в месяц
3.8	bigger_better	1	138	Невинномысск	16302.4	69	/city/nevinnomyssk	/city/nevinnomyssk	рублей в месяц
3.7	bigger_better	-38	16	Саратов	16250	70	/city/saratov	/city/saratov	рублей в месяц
3.7	bigger_better	17	74	Таганрог	16237.5	71	/city/taganrog	/city/taganrog	рублей в месяц
3.7	bigger_better	-3	59	Орёл	16189.5	72	/city/orel	/city/orel	рублей в месяц
3.7	bigger_better	-32	18	Тольятти	16163.6	73	/city/tolyatti	/city/tolyatti	рублей в месяц
3.7	bigger_better	-2	114	Березники	16148.4	74	/city/berezniki	/city/berezniki	рублей в месяц
3.7	bigger_better	-64	24	Владивосток	16079	75	/city/vladivostok	/city/vladivostok	рублей в месяц
3.7	bigger_better	-34	89	Энгельс	15981.3	76	/city/engels	/city/engels	рублей в месяц
3.6	bigger_better	-10	36	Липецк	15941.4	77	/city/lipeck	/city/lipeck	рублей в месяц
3.6	bigger_better	-25	91	Псков	15869.9	78	/city/pskov	/city/pskov	рублей в месяц
3.6	bigger_better	-14	46	Иваново	15772.2	79	/city/ivanovo	/city/ivanovo	рублей в месяц
3.6	bigger_better	24	133	Новочебоксарск	15761.8	80	/city/novocheboksarsk	/city/novocheboksarsk	рублей в месяц
3.6	bigger_better	-7	31	Кемерово	15740.4	81	/city/kemerovo	/city/kemerovo	рублей в месяц
3.5	bigger_better	-27	50	Нижний Тагил	15556.1	82	/city/nizhniy-tagil	/city/nizhniy-tagil	рублей в месяц
3.5	bigger_better	-12	22	Ульяновск	15434	83	/city/ulyanovsk	/city/ulyanovsk	рублей в месяц
3.5	bigger_better	5	155	Арзамас	15361.8	84	/city/arzamas	/city/arzamas	рублей в месяц
3.4	bigger_better	-5	8	Омск	15280.8	85	/city/omsk	/city/omsk	рублей в месяц
3.4	bigger_better	1	38	Киров	15161.7	86	/city/kirov	/city/kirov	рублей в месяц
3.4	bigger_better	4	48	Белгород	15089.7	87	/city/belgorod	/city/belgorod	рублей в месяц
3.3	bigger_better	6	68	Стерлитамак	14970.3	88	/city/sterlitamak	/city/sterlitamak	рублей в месяц
3.3	bigger_better	4	136	Димитровград	14750.1	89	/city/dimitrovgrad	/city/dimitrovgrad	рублей в месяц
3.2	bigger_better	5	152	Новокуйбышевск	14700.1	90	/city/novokuybyshevsk	/city/novokuybyshevsk	рублей в месяц
3.2	bigger_better	-13	86	Старый Оскол	14675.8	91	/city/staryy-oskol	/city/staryy-oskol	рублей в месяц
3.2	bigger_better	5	39	Чебоксары	14607.5	92	/city/cheboksary	/city/cheboksary	рублей в месяц
3.2	bigger_better	-17	56	Волжский	14594.6	93	/city/volzhskiy	/city/volzhskiy	рублей в месяц
3.2	bigger_better	2	47	Тверь	14579.6	94	/city/tver	/city/tver	рублей в месяц
3.2	bigger_better	13	105	Новочеркасск	14526.4	95	/city/novocherkassk	/city/novocherkassk	рублей в месяц
3.2	bigger_better	-4	21	Барнаул	14428.7	96	/city/barnaul	/city/barnaul	рублей в месяц
3.1	bigger_better	14	45	Брянск	14355	97	/city/bryansk	/city/bryansk	рублей в месяц
3.1	bigger_better	4	44	Магнитогорск	14264.3	98	/city/magnitogorsk	/city/magnitogorsk	рублей в месяц
3	bigger_better	-18	111	Уссурийск	14085	99	/city/ussuriysk	/city/ussuriysk	рублей в месяц
3	bigger_better	-14	94	Рыбинск	14019.5	100	/city/rybinsk	/city/rybinsk	рублей в месяц
3	bigger_better	2	69	Кострома	14007.9	101	/city/kostroma	/city/kostroma	рублей в месяц
3	bigger_better	-4	108	Волгодонск	13836.8	102	/city/volgodonsk	/city/volgodonsk	рублей в месяц
2.9	bigger_better	13	151	Елец	13773	103	/city/elec	/city/elec	рублей в месяц
2.9	bigger_better	-14	73	Йошкар-Ола	13654.3	104	/city/yoshkar-ola	/city/yoshkar-ola	рублей в месяц
2.9	bigger_better	-21	142	Кызыл	13531.6	105	/city/kyzyl	/city/kyzyl	рублей в месяц
2.9	bigger_better	1	127	Новомосковск	13519.9	106	/city/novomoskovsk	/city/novomoskovsk	рублей в месяц
2.8	bigger_better	5	41	Курск	13408.1	107	/city/kursk	/city/kursk	рублей в месяц
2.8	bigger_better	-3	64	Саранск	13297.8	108	/city/saransk	/city/saransk	рублей в месяц
2.8	bigger_better	-9	134	Нефтекамск	13292.8	109	/city/neftekamsk	/city/neftekamsk	рублей в месяц
2.8	bigger_better	-33	95	Балаково	13278	110	/city/balakovo	/city/balakovo	рублей в месяц
2.7	bigger_better	-10	29	Новокузнецк	13031.4	111	/city/novokuzneck	/city/novokuzneck	рублей в месяц
2.7	bigger_better	-6	123	Копейск	12995.2	112	/city/kopeysk	/city/kopeysk	рублей в месяц
2.6	bigger_better	5	92	Бийск	12838.3	113	/city/biysk	/city/biysk	рублей в месяц
2.5	bigger_better	-5	132	Первоуральск	12512.5	114	/city/pervouralsk	/city/pervouralsk	рублей в месяц
2.5	bigger_better	-2	66	Тамбов	12331.1	115	/city/tambov	/city/tambov	рублей в месяц
2.4	bigger_better	1	57	Курган	12201.4	116	/city/kurgan	/city/kurgan	рублей в месяц
2.4	bigger_better	10	148	Ачинск	12015.3	117	/city/achinsk	/city/achinsk	рублей в месяц
2.3	bigger_better	6	144	Муром	11773	118	/city/murom	/city/murom	рублей в месяц
2.3	bigger_better	-5	166	Сарапул	11739.9	119	/city/sarapul	/city/sarapul	рублей в месяц
2	bigger_better	-5	81	Орск	10979	120	/city/orsk	/city/orsk	рублей в месяц
2	bigger_better	7	117	Рубцовск	10870.5	121	/city/rubcovsk	/city/rubcovsk	рублей в месяц
1.9	bigger_better	-2	139	Камышин	10584.6	122	/city/kamyshin	/city/kamyshin	рублей в месяц
1.9	bigger_better	2	93	Прокопьевск	10443.7	123	/city/prokopevsk	/city/prokopevsk	рублей в месяц
1.9	bigger_better	2	106	Златоуст	10431.9	124	/city/zlatoust	/city/zlatoust	рублей в месяц
1.9	bigger_better	-2	145	Октябрьский	10412.3	125	/city/oktyabrskiy	/city/oktyabrskiy	рублей в месяц
1.7	bigger_better	-5	158	Элиста	10033	126	/city/elista	/city/elista	рублей в месяц
1.7	bigger_better	-28	104	Сызрань	9812.6	127	/city/syzran	/city/syzran	рублей в месяц
1.6	bigger_better	1	61	Владикавказ	9483.2	128	/city/vladikavkaz	/city/vladikavkaz	рублей в месяц
1.4	bigger_better	2	120	Майкоп	8990.5	129	/city/maykop	/city/maykop	рублей в месяц
1.4	bigger_better	0	162	Ессентуки	8975	130	/city/essentuki	/city/essentuki	рублей в месяц
1.2	bigger_better	1	78	Нальчик	8213.2	131	/city/nalchik	/city/nalchik	рублей в месяц
1	bigger_better	0	130	Черкесск	7885.9	132	/city/cherkessk	/city/cherkessk	рублей в месяц
1	bigger_better	-10	43	Ставрополь	7746.5	133	/city/stavropol	/city/stavropol	рублей в месяц
