epochs	information_source	description	name	epoch	display	type	short_name	stat
["2014","2013","2012","2011","2010","2009","2008","2007","2006","2005","2004","2003","2002","2001","2000","1999","1998","1997","1996","1995","1994","1993","1992","1991","1990"]	Росстат	Рейтинг городов по проценту женского населения от общей численности горожан.	Процент женщин	2014	value	city	number_women	10073


rate	order	rate_grow	object_id	object_name	value	rating_place	url	object_url	units
10	bigger_better	0	87	Великий Новгород	56.63882966	1	/city/velikiy-novgorod	/city/velikiy-novgorod	%
9.4	bigger_better	0	38	Киров	56.0775386	2	/city/kirov	/city/kirov	%
9.1	bigger_better	1	47	Тверь	55.68336082	3	/city/tver	/city/tver	%
9	bigger_better	1	52	Владимир	55.60989126	4	/city/vladimir	/city/vladimir	%
9	bigger_better	-2	144	Муром	55.59412957	5	/city/murom	/city/murom	%
8.9	bigger_better	2	92	Бийск	55.48939173	6	/city/biysk	/city/biysk	%
8.8	bigger_better	0	148	Ачинск	55.46958353	7	/city/achinsk	/city/achinsk	%
8.8	bigger_better	-2	53	Калуга	55.46947704	8	/city/kaluga	/city/kaluga	%
8.8	bigger_better	5	51	Архангельск	55.40517399	9	/city/arhangelsk	/city/arhangelsk	%
8.7	bigger_better	-1	21	Барнаул	55.36460176	10	/city/barnaul	/city/barnaul	%
8.7	bigger_better	2	23	Иркутск	55.3624711	11	/city/irkutsk	/city/irkutsk	%
8.7	bigger_better	0	88	Благовещенск	55.33608692	12	/city/blagoveschensk	/city/blagoveschensk	%
8.7	bigger_better	-1	39	Чебоксары	55.31537682	13	/city/cheboksary	/city/cheboksary	%
8.7	bigger_better	-1	55	Смоленск	55.30651648	14	/city/smolensk	/city/smolensk	%
8.7	bigger_better	-4	45	Брянск	55.30504941	15	/city/bryansk	/city/bryansk	%
8.7	bigger_better	0	9	Челябинск	55.29727252	16	/city/chelyabinsk	/city/chelyabinsk	%
8.7	bigger_better	44	120	Майкоп	55.28904693	17	/city/maykop	/city/maykop	%
8.6	bigger_better	1	107	Каменск-Уральский	55.26961856	18	/city/kamensk-uralskiy	/city/kamensk-uralskiy	%
8.6	bigger_better	-1	132	Первоуральск	55.2547124	19	/city/pervouralsk	/city/pervouralsk	%
8.6	bigger_better	-3	81	Орск	55.22096306	20	/city/orsk	/city/orsk	%
8.6	bigger_better	-1	4	Екатеринбург	55.19058361	21	/city/ekaterinburg	/city/ekaterinburg	%
8.5	bigger_better	-1	73	Йошкар-Ола	55.17146018	22	/city/yoshkar-ola	/city/yoshkar-ola	%
8.4	bigger_better	0	115	Миасс	55.0489312	23	/city/miass	/city/miass	%
8.4	bigger_better	0	34	Пенза	55.02302769	24	/city/penza	/city/penza	%
8.4	bigger_better	-3	15	Воронеж	54.99354432	25	/city/voronezh	/city/voronezh	%
8.3	bigger_better	1	106	Златоуст	54.88942195	26	/city/zlatoust	/city/zlatoust	%
8.3	bigger_better	1	32	Рязань	54.87657941	27	/city/ryazan	/city/ryazan	%
8.2	bigger_better	0	66	Тамбов	54.84679197	28	/city/tambov	/city/tambov	%
8.2	bigger_better	1	12	Волгоград	54.84069019	29	/city/volgograd	/city/volgograd	%
8.2	bigger_better	1	76	Братск	54.82884958	30	/city/bratsk	/city/bratsk	%
8.2	bigger_better	-5	77	Сыктывкар	54.82539806	31	/city/syktyvkar	/city/syktyvkar	%
8.2	bigger_better	0	48	Белгород	54.78356187	32	/city/belgorod	/city/belgorod	%
8.1	bigger_better	0	165	Бердск	54.69861033	33	/city/berdsk	/city/berdsk	%
8	bigger_better	-6	2	Санкт-Петербург	54.64666202	34	/city/sankt-peterburg	/city/sankt-peterburg	%
8	bigger_better	0	13	Красноярск	54.61590609	35	/city/krasnoyarsk	/city/krasnoyarsk	%
8	bigger_better	-2	50	Нижний Тагил	54.59359606	36	/city/nizhniy-tagil	/city/nizhniy-tagil	%
7.9	bigger_better	0	28	Оренбург	54.56337515	37	/city/orenburg	/city/orenburg	%
7.9	bigger_better	-2	8	Омск	54.52031229	38	/city/omsk	/city/omsk	%
7.8	bigger_better	-1	86	Старый Оскол	54.37111907	39	/city/staryy-oskol	/city/staryy-oskol	%
7.7	bigger_better	-1	154	Обнинск	54.32775184	40	/city/obninsk	/city/obninsk	%
7.6	bigger_better	-1	139	Камышин	54.19744503	41	/city/kamyshin	/city/kamyshin	%
7.4	bigger_better	-1	108	Волгодонск	54.01942684	42	/city/volgodonsk	/city/volgodonsk	%
7.4	bigger_better	0	3	Новосибирск	53.99021907	43	/city/novosibirsk	/city/novosibirsk	%
7.3	bigger_better	-1	133	Новочебоксарск	53.93977031	44	/city/novocheboksarsk	/city/novocheboksarsk	%
7.3	bigger_better	-1	1	Москва	53.88159073	45	/city/moskva	/city/moskva	%
7.1	bigger_better	-1	56	Волжский	53.72765351	46	/city/volzhskiy	/city/volzhskiy	%
6.8	bigger_better	-1	98	Северодвинск	53.3916405	47	/city/severodvinsk	/city/severodvinsk	%
6.6	bigger_better	15	19	Тюмень	53.17542851	48	/city/tyumen	/city/tyumen	%
6.5	bigger_better	-2	65	Якутск	53.14682224	49	/city/yakutsk	/city/yakutsk	%
6.3	bigger_better	1	110	Находка	52.86815561	50	/city/nahodka	/city/nahodka	%
6.2	bigger_better	-3	24	Владивосток	52.75245174	51	/city/vladivostok	/city/vladivostok	%
6.1	bigger_better	-2	141	Батайск	52.6689664	52	/city/bataysk	/city/bataysk	%
6	bigger_better	-1	97	Южно-Сахалинск	52.58646632	53	/city/yuzhno-sahalinsk	/city/yuzhno-sahalinsk	%
5.9	bigger_better	-1	123	Копейск	52.50214973	54	/city/kopeysk	/city/kopeysk	%
5.6	bigger_better	-1	58	Сургут	52.20650411	55	/city/surgut	/city/surgut	%
5.6	bigger_better	-1	161	Артём	52.17909282	56	/city/artem	/city/artem	%
5.4	bigger_better	-8	117	Рубцовск	51.9938952	57	/city/rubcovsk	/city/rubcovsk	%
5.2	bigger_better	-2	71	Нижневартовск	51.82598104	58	/city/nizhnevartovsk	/city/nizhnevartovsk	%
4.8	bigger_better	-2	111	Уссурийск	51.3346801	59	/city/ussuriysk	/city/ussuriysk	%
4.6	bigger_better	-2	150	Ноябрьск	51.16289892	60	/city/noyabrsk	/city/noyabrsk	%
4.4	bigger_better	-2	131	Нефтеюганск	50.94000795	61	/city/nefteyugansk	/city/nefteyugansk	%
3.8	bigger_better	-2	100	Петропавловск-Камчатский	50.36970954	62	/city/petropavlovsk-kamchatskiy	/city/petropavlovsk-kamchatskiy	%
3.1	bigger_better	-2	103	Норильск	49.70055153	63	/city/norilsk	/city/norilsk	%
1	bigger_better	-2	140	Новый Уренгой	47.53310929	64	/city/novyy-urengoy	/city/novyy-urengoy	%
