epochs	information_source	description	name	epoch	display	type	short_name	stat
["2014.11","2014.10","2014.09","2014.08","2014.07","2014.06","2014.05","2014.04","2014.03","2014.02","2014.01","2013.12","2013.11","2013.10","2013.09","2013.08","2013.07","2013.06","2013.05","2013.04","2013.03","2013.02","2013.01"]	Росстат	Рейтинг городов по средней стоимости 1 кг бескостной свинины.	Стоимость свинины	2014.11	value	city	pork	10139


rate	order	rate_grow	object_id	object_name	value	rating_place	url	object_url	units
10	bigger_worse	0	24	Владивосток	493.87	1	/city/vladivostok	/city/vladivostok	<i class="rub">q</i>
8.9	bigger_worse	1	26	Хабаровск	466.73	2	/city/habarovsk	/city/habarovsk	<i class="rub">q</i>
8.5	bigger_worse	-1	100	Петропавловск-Камчатский	457.91	3	/city/petropavlovsk-kamchatskiy	/city/petropavlovsk-kamchatskiy	<i class="rub">q</i>
8	bigger_worse	5	72	Комсомольск-на-Амуре	446.36	4	/city/komsomolsk-na-amure	/city/komsomolsk-na-amure	<i class="rub">q</i>
8	bigger_worse	-1	97	Южно-Сахалинск	445.45	5	/city/yuzhno-sahalinsk	/city/yuzhno-sahalinsk	<i class="rub">q</i>
7.8	bigger_worse	-1	111	Уссурийск	441.31	6	/city/ussuriysk	/city/ussuriysk	<i class="rub">q</i>
7.3	bigger_worse	-1	150	Ноябрьск	429.4	7	/city/noyabrsk	/city/noyabrsk	<i class="rub">q</i>
7.3	bigger_worse	0	110	Находка	428.24	8	/city/nahodka	/city/nahodka	<i class="rub">q</i>
7.2	bigger_worse	-2	88	Благовещенск	426.71	9	/city/blagoveschensk	/city/blagoveschensk	<i class="rub">q</i>
7.2	bigger_worse	3	77	Сыктывкар	425.15	10	/city/syktyvkar	/city/syktyvkar	<i class="rub">q</i>
6.6	bigger_worse	0	60	Череповец	411.39	11	/city/cherepovec	/city/cherepovec	<i class="rub">q</i>
6.5	bigger_worse	0	101	Люберцы	410.32	12	/city/lyubercy	/city/lyubercy	<i class="rub">q</i>
6.3	bigger_worse	3	1	Москва	404.28	13	/city/moskva	/city/moskva	<i class="rub">q</i>
6.1	bigger_worse	3	140	Новый Уренгой	399.85	14	/city/novyy-urengoy	/city/novyy-urengoy	<i class="rub">q</i>
6	bigger_worse	-1	129	Серпухов	398.35	15	/city/serpuhov	/city/serpuhov	<i class="rub">q</i>
6	bigger_worse	-6	13	Красноярск	397.48	16	/city/krasnoyarsk	/city/krasnoyarsk	<i class="rub">q</i>
6	bigger_worse	-2	62	Вологда	396.7	17	/city/vologda	/city/vologda	<i class="rub">q</i>
5.9	bigger_worse	3	63	Мурманск	393.84	18	/city/murmansk	/city/murmansk	<i class="rub">q</i>
5.8	bigger_worse	3	165	Бердск	392.78	19	/city/berdsk	/city/berdsk	<i class="rub">q</i>
5.8	bigger_worse	0	132	Первоуральск	392.56	20	/city/pervouralsk	/city/pervouralsk	<i class="rub">q</i>
5.6	bigger_worse	-3	148	Ачинск	387.54	21	/city/achinsk	/city/achinsk	<i class="rub">q</i>
5.6	bigger_worse	10	114	Березники	387.03	22	/city/berezniki	/city/berezniki	<i class="rub">q</i>
5.5	bigger_worse	0	4	Екатеринбург	385.74	23	/city/ekaterinburg	/city/ekaterinburg	<i class="rub">q</i>
5.5	bigger_worse	1	154	Обнинск	385.62	24	/city/obninsk	/city/obninsk	<i class="rub">q</i>
5.5	bigger_worse	-6	57	Курган	384.64	25	/city/kurgan	/city/kurgan	<i class="rub">q</i>
5.4	bigger_worse	1	49	Сочи	383.08	26	/city/sochi	/city/sochi	<i class="rub">q</i>
5.4	bigger_worse	-1	109	Абакан	382.84	27	/city/abakan	/city/abakan	<i class="rub">q</i>
5.4	bigger_worse	24	65	Якутск	382.76	28	/city/yakutsk	/city/yakutsk	<i class="rub">q</i>
5.4	bigger_worse	2	98	Северодвинск	381.83	29	/city/severodvinsk	/city/severodvinsk	<i class="rub">q</i>
5.3	bigger_worse	0	23	Иркутск	381.02	30	/city/irkutsk	/city/irkutsk	<i class="rub">q</i>
5.2	bigger_worse	2	31	Кемерово	377.88	31	/city/kemerovo	/city/kemerovo	<i class="rub">q</i>
5	bigger_worse	7	54	Чита	371.96	32	/city/chita	/city/chita	<i class="rub">q</i>
4.9	bigger_worse	-5	3	Новосибирск	371.71	33	/city/novosibirsk	/city/novosibirsk	<i class="rub">q</i>
4.7	bigger_worse	9	76	Братск	366.91	34	/city/bratsk	/city/bratsk	<i class="rub">q</i>
4.6	bigger_worse	14	71	Нижневартовск	364.04	35	/city/nizhnevartovsk	/city/nizhnevartovsk	<i class="rub">q</i>
4.6	bigger_worse	2	121	Ковров	363.37	36	/city/kovrov	/city/kovrov	<i class="rub">q</i>
4.6	bigger_worse	4	25	Ярославль	362.94	37	/city/yaroslavl	/city/yaroslavl	<i class="rub">q</i>
4.6	bigger_worse	10	80	Шахты	362.72	38	/city/shahty	/city/shahty	<i class="rub">q</i>
4.6	bigger_worse	-15	55	Смоленск	362.7	39	/city/smolensk	/city/smolensk	<i class="rub">q</i>
4.6	bigger_worse	10	32	Рязань	362.45	40	/city/ryazan	/city/ryazan	<i class="rub">q</i>
4.5	bigger_worse	14	93	Прокопьевск	361.5	41	/city/prokopevsk	/city/prokopevsk	<i class="rub">q</i>
4.5	bigger_worse	-13	50	Нижний Тагил	361.27	42	/city/nizhniy-tagil	/city/nizhniy-tagil	<i class="rub">q</i>
4.5	bigger_worse	16	92	Бийск	359.85	43	/city/biysk	/city/biysk	<i class="rub">q</i>
4.4	bigger_worse	0	117	Рубцовск	359.04	44	/city/rubcovsk	/city/rubcovsk	<i class="rub">q</i>
4.4	bigger_worse	8	14	Пермь	358.95	45	/city/perm	/city/perm	<i class="rub">q</i>
4.4	bigger_worse	15	16	Саратов	357.7	46	/city/saratov	/city/saratov	<i class="rub">q</i>
4.3	bigger_worse	7	44	Магнитогорск	356.8	47	/city/magnitogorsk	/city/magnitogorsk	<i class="rub">q</i>
4.3	bigger_worse	-12	59	Орёл	356.44	48	/city/orel	/city/orel	<i class="rub">q</i>
4.3	bigger_worse	-9	70	Петрозаводск	355.87	49	/city/petrozavodsk	/city/petrozavodsk	<i class="rub">q</i>
4.2	bigger_worse	-13	69	Кострома	354.58	50	/city/kostroma	/city/kostroma	<i class="rub">q</i>
4.2	bigger_worse	-4	12	Волгоград	354.13	51	/city/volgograd	/city/volgograd	<i class="rub">q</i>
4.2	bigger_worse	-18	52	Владимир	353.91	52	/city/vladimir	/city/vladimir	<i class="rub">q</i>
4.2	bigger_worse	3	158	Элиста	353.36	53	/city/elista	/city/elista	<i class="rub">q</i>
4.2	bigger_worse	24	142	Кызыл	353.3	54	/city/kyzyl	/city/kyzyl	<i class="rub">q</i>
4.1	bigger_worse	-9	7	Самара	352.29	55	/city/samara	/city/samara	<i class="rub">q</i>
4.1	bigger_worse	2	79	Дзержинск	351.01	56	/city/dzerzhinsk	/city/dzerzhinsk	<i class="rub">q</i>
4	bigger_worse	3	27	Махачкала	350	57	/city/mahachkala	/city/mahachkala	<i class="rub">q</i>
4	bigger_worse	-7	18	Тольятти	349.08	58	/city/tolyatti	/city/tolyatti	<i class="rub">q</i>
4	bigger_worse	3	135	Орехово-Зуево	348.47	59	/city/orehovo-zuevo	/city/orehovo-zuevo	<i class="rub">q</i>
4	bigger_worse	5	29	Новокузнецк	348.42	60	/city/novokuzneck	/city/novokuzneck	<i class="rub">q</i>
4	bigger_worse	-16	144	Муром	348.11	61	/city/murom	/city/murom	<i class="rub">q</i>
3.8	bigger_worse	1	9	Челябинск	344.47	62	/city/chelyabinsk	/city/chelyabinsk	<i class="rub">q</i>
3.7	bigger_worse	8	51	Архангельск	342.71	63	/city/arhangelsk	/city/arhangelsk	<i class="rub">q</i>
3.7	bigger_worse	3	105	Новочеркасск	342.3	64	/city/novocherkassk	/city/novocherkassk	<i class="rub">q</i>
3.7	bigger_worse	-8	20	Ижевск	341.79	65	/city/izhevsk	/city/izhevsk	<i class="rub">q</i>
3.7	bigger_worse	8	107	Каменск-Уральский	341.52	66	/city/kamensk-uralskiy	/city/kamensk-uralskiy	<i class="rub">q</i>
3.6	bigger_worse	-32	46	Иваново	340.03	67	/city/ivanovo	/city/ivanovo	<i class="rub">q</i>
3.6	bigger_worse	-2	139	Камышин	339.9	68	/city/kamyshin	/city/kamyshin	<i class="rub">q</i>
3.6	bigger_worse	14	163	Ногинск	339.44	69	/city/noginsk	/city/noginsk	<i class="rub">q</i>
3.6	bigger_worse	0	64	Саранск	339.36	70	/city/saransk	/city/saransk	<i class="rub">q</i>
3.6	bigger_worse	4	38	Киров	339.28	71	/city/kirov	/city/kirov	<i class="rub">q</i>
3.5	bigger_worse	-30	53	Калуга	337.4	72	/city/kaluga	/city/kaluga	<i class="rub">q</i>
3.5	bigger_worse	6	112	Электросталь	337.32	73	/city/elektrostal	/city/elektrostal	<i class="rub">q</i>
3.4	bigger_worse	14	73	Йошкар-Ола	334.92	74	/city/yoshkar-ola	/city/yoshkar-ola	<i class="rub">q</i>
3.4	bigger_worse	30	84	Ангарск	334.71	75	/city/angarsk	/city/angarsk	<i class="rub">q</i>
3.4	bigger_worse	-3	127	Новомосковск	333.76	76	/city/novomoskovsk	/city/novomoskovsk	<i class="rub">q</i>
3.3	bigger_worse	-9	5	Нижний Новгород	332.39	77	/city/nizhniy-novgorod	/city/nizhniy-novgorod	<i class="rub">q</i>
3.3	bigger_worse	14	149	Сергиев Посад	331.84	78	/city/sergiev-posad	/city/sergiev-posad	<i class="rub">q</i>
3.3	bigger_worse	-10	108	Волгодонск	331.55	79	/city/volgodonsk	/city/volgodonsk	<i class="rub">q</i>
3.3	bigger_worse	6	118	Пятигорск	331.5	80	/city/pyatigorsk	/city/pyatigorsk	<i class="rub">q</i>
3.3	bigger_worse	-1	128	Красногорск	331.31	81	/city/krasnogorsk	/city/krasnogorsk	<i class="rub">q</i>
3.3	bigger_worse	16	134	Нефтекамск	331.27	82	/city/neftekamsk	/city/neftekamsk	<i class="rub">q</i>
3.2	bigger_worse	-2	42	Улан-Удэ	330.65	83	/city/ulan-ude	/city/ulan-ude	<i class="rub">q</i>
3.2	bigger_worse	-2	47	Тверь	330.54	84	/city/tver	/city/tver	<i class="rub">q</i>
3.2	bigger_worse	-13	10	Ростов-на-Дону	330.23	85	/city/rostov-na-donu	/city/rostov-na-donu	<i class="rub">q</i>
3.1	bigger_worse	-1	21	Барнаул	327.53	86	/city/barnaul	/city/barnaul	<i class="rub">q</i>
3.1	bigger_worse	-11	87	Великий Новгород	327.33	87	/city/velikiy-novgorod	/city/velikiy-novgorod	<i class="rub">q</i>
3.1	bigger_worse	15	6	Казань	327.15	88	/city/kazan	/city/kazan	<i class="rub">q</i>
2.9	bigger_worse	10	8	Омск	323.02	89	/city/omsk	/city/omsk	<i class="rub">q</i>
2.9	bigger_worse	12	40	Калининград	322.81	90	/city/kaliningrad	/city/kaliningrad	<i class="rub">q</i>
2.9	bigger_worse	-14	2	Санкт-Петербург	322.76	91	/city/sankt-peterburg	/city/sankt-peterburg	<i class="rub">q</i>
2.9	bigger_worse	17	115	Миасс	321.76	92	/city/miass	/city/miass	<i class="rub">q</i>
2.8	bigger_worse	-9	36	Липецк	319.72	93	/city/lipeck	/city/lipeck	<i class="rub">q</i>
2.7	bigger_worse	-30	30	Томск	318.37	94	/city/tomsk	/city/tomsk	<i class="rub">q</i>
2.7	bigger_worse	-1	61	Владикавказ	316.47	95	/city/vladikavkaz	/city/vladikavkaz	<i class="rub">q</i>
2.7	bigger_worse	8	151	Елец	316.39	96	/city/elec	/city/elec	<i class="rub">q</i>
2.6	bigger_worse	3	103	Норильск	316.01	97	/city/norilsk	/city/norilsk	<i class="rub">q</i>
2.6	bigger_worse	-7	130	Черкесск	315.51	98	/city/cherkessk	/city/cherkessk	<i class="rub">q</i>
2.6	bigger_worse	11	136	Димитровград	314.84	99	/city/dimitrovgrad	/city/dimitrovgrad	<i class="rub">q</i>
2.6	bigger_worse	15	22	Ульяновск	314.73	100	/city/ulyanovsk	/city/ulyanovsk	<i class="rub">q</i>
2.5	bigger_worse	16	15	Воронеж	313.75	101	/city/voronezh	/city/voronezh	<i class="rub">q</i>
2.5	bigger_worse	19	19	Тюмень	313.68	102	/city/tyumen	/city/tyumen	<i class="rub">q</i>
2.5	bigger_worse	5	28	Оренбург	313.65	103	/city/orenburg	/city/orenburg	<i class="rub">q</i>
2.5	bigger_worse	2	91	Псков	313.42	104	/city/pskov	/city/pskov	<i class="rub">q</i>
2.5	bigger_worse	-15	164	Раменское	312.65	105	/city/ramenskoe	/city/ramenskoe	<i class="rub">q</i>
2.5	bigger_worse	1	155	Арзамас	312.54	106	/city/arzamas	/city/arzamas	<i class="rub">q</i>
2.5	bigger_worse	-18	34	Пенза	312.26	107	/city/penza	/city/penza	<i class="rub">q</i>
2.4	bigger_worse	-13	74	Таганрог	311.44	108	/city/taganrog	/city/taganrog	<i class="rub">q</i>
2.4	bigger_worse	7	66	Тамбов	309.99	109	/city/tambov	/city/tambov	<i class="rub">q</i>
2.2	bigger_worse	3	41	Курск	306.58	110	/city/kursk	/city/kursk	<i class="rub">q</i>
2.2	bigger_worse	13	75	Новороссийск	305.74	111	/city/novorossiysk	/city/novorossiysk	<i class="rub">q</i>
2.2	bigger_worse	-19	39	Чебоксары	305.51	112	/city/cheboksary	/city/cheboksary	<i class="rub">q</i>
2.2	bigger_worse	5	48	Белгород	304.94	113	/city/belgorod	/city/belgorod	<i class="rub">q</i>
2.1	bigger_worse	5	81	Орск	303.56	114	/city/orsk	/city/orsk	<i class="rub">q</i>
2.1	bigger_worse	-4	11	Уфа	303.54	115	/city/ufa	/city/ufa	<i class="rub">q</i>
2.1	bigger_worse	-20	33	Астрахань	303.29	116	/city/astrahan	/city/astrahan	<i class="rub">q</i>
2.1	bigger_worse	-5	86	Старый Оскол	302.98	117	/city/staryy-oskol	/city/staryy-oskol	<i class="rub">q</i>
2.1	bigger_worse	-4	45	Брянск	302.42	118	/city/bryansk	/city/bryansk	<i class="rub">q</i>
2.1	bigger_worse	10	68	Стерлитамак	302.41	119	/city/sterlitamak	/city/sterlitamak	<i class="rub">q</i>
2	bigger_worse	2	95	Балаково	301.74	120	/city/balakovo	/city/balakovo	<i class="rub">q</i>
2	bigger_worse	-34	17	Краснодар	300.63	121	/city/krasnodar	/city/krasnodar	<i class="rub">q</i>
2	bigger_worse	-2	78	Нальчик	300	122	/city/nalchik	/city/nalchik	<i class="rub">q</i>
1.9	bigger_worse	9	120	Майкоп	297.69	123	/city/maykop	/city/maykop	<i class="rub">q</i>
1.8	bigger_worse	-23	43	Ставрополь	295	124	/city/stavropol	/city/stavropol	<i class="rub">q</i>
1.7	bigger_worse	3	138	Невинномысск	293.75	125	/city/nevinnomyssk	/city/nevinnomyssk	<i class="rub">q</i>
1.7	bigger_worse	-1	94	Рыбинск	292.67	126	/city/rybinsk	/city/rybinsk	<i class="rub">q</i>
1.7	bigger_worse	-1	90	Подольск	292.42	127	/city/podolsk	/city/podolsk	<i class="rub">q</i>
1.6	bigger_worse	2	124	Одинцово	292.03	128	/city/odincovo	/city/odincovo	<i class="rub">q</i>
1.5	bigger_worse	-32	96	Армавир	289.19	129	/city/armavir	/city/armavir	<i class="rub">q</i>
1.5	bigger_worse	-3	104	Сызрань	288.75	130	/city/syzran	/city/syzran	<i class="rub">q</i>
1.3	bigger_worse	-8	37	Тула	283.41	131	/city/tula	/city/tula	<i class="rub">q</i>
1.2	bigger_worse	-1	58	Сургут	281.63	132	/city/surgut	/city/surgut	<i class="rub">q</i>
1	bigger_worse	0	35	Набережные Челны	276.52	133	/city/naberezhnye-chelny	/city/naberezhnye-chelny	<i class="rub">q</i>
