epochs	information_source	description	name	epoch	display	type	short_name	stat
["2013","2012","2011","2010","2009"]	Росстат	Рейтинг городов по годовой прибыли предприятий в сфере производства и распределения ресурсов.	Прибыль в сфере производства и распределения ресурсов	2013	value	city	profit_resources	10175


rate	order	rate_grow	object_id	object_name	value	rating_place	url	object_url	units
10	bigger_better	0	1	Москва	30618601000	1	/city/moskva	/city/moskva	руб в год
8	bigger_better	0	58	Сургут	22446082000	2	/city/surgut	/city/surgut	руб в год
6.7	bigger_better	0	2	Санкт-Петербург	17303571000	3	/city/sankt-peterburg	/city/sankt-peterburg	руб в год
6.3	bigger_better	0	6	Казань	15528394000	4	/city/kazan	/city/kazan	руб в год
4.2	bigger_better	0	9	Челябинск	7103891000	5	/city/chelyabinsk	/city/chelyabinsk	руб в год
4.1	bigger_better	0	11	Уфа	6689093000	6	/city/ufa	/city/ufa	руб в год
3.9	bigger_better	4	7	Самара	5688145000	7	/city/samara	/city/samara	руб в год
3.8	bigger_better	0	13	Красноярск	5238156000	8	/city/krasnoyarsk	/city/krasnoyarsk	руб в год
3.6	bigger_better	5	3	Новосибирск	4461389000	9	/city/novosibirsk	/city/novosibirsk	руб в год
3.4	bigger_better	-2	5	Нижний Новгород	3685004000	10	/city/nizhniy-novgorod	/city/nizhniy-novgorod	руб в год
3.2	bigger_better	-1	28	Оренбург	2815116000	11	/city/orenburg	/city/orenburg	руб в год
3.1	bigger_better	4	19	Тюмень	2281077000	12	/city/tyumen	/city/tyumen	руб в год
3	bigger_better	10	14	Пермь	2140837000	13	/city/perm	/city/perm	руб в год
2.9	bigger_better	1	31	Кемерово	1760179000	14	/city/kemerovo	/city/kemerovo	руб в год
2.9	bigger_better	15	77	Сыктывкар	1755261000	15	/city/syktyvkar	/city/syktyvkar	руб в год
2.9	bigger_better	95	17	Краснодар	1751882000	16	/city/krasnodar	/city/krasnodar	руб в год
2.9	bigger_better	0	71	Нижневартовск	1738813000	17	/city/nizhnevartovsk	/city/nizhnevartovsk	руб в год
2.9	bigger_better	-7	15	Воронеж	1714098000	18	/city/voronezh	/city/voronezh	руб в год
2.8	bigger_better	0	8	Омск	1292921000	19	/city/omsk	/city/omsk	руб в год
2.8	bigger_better	-7	65	Якутск	1216392000	20	/city/yakutsk	/city/yakutsk	руб в год
2.8	bigger_better	93	88	Благовещенск	1184142000	21	/city/blagoveschensk	/city/blagoveschensk	руб в год
2.8	bigger_better	93	10	Ростов-на-Дону	1068567000	22	/city/rostov-na-donu	/city/rostov-na-donu	руб в год
2.7	bigger_better	-5	53	Калуга	918981000	23	/city/kaluga	/city/kaluga	руб в год
2.7	bigger_better	-3	52	Владимир	907082000	24	/city/vladimir	/city/vladimir	руб в год
2.7	bigger_better	6	70	Петрозаводск	806625000	25	/city/petrozavodsk	/city/petrozavodsk	руб в год
2.7	bigger_better	7	140	Новый Уренгой	797287000	26	/city/novyy-urengoy	/city/novyy-urengoy	руб в год
2.7	bigger_better	2	36	Липецк	789078000	27	/city/lipeck	/city/lipeck	руб в год
2.7	bigger_better	8	18	Тольятти	766502000	28	/city/tolyatti	/city/tolyatti	руб в год
2.7	bigger_better	-2	48	Белгород	722044000	29	/city/belgorod	/city/belgorod	руб в год
2.7	bigger_better	15	33	Астрахань	656060000	30	/city/astrahan	/city/astrahan	руб в год
2.7	bigger_better	-7	113	Салават	612374000	31	/city/salavat	/city/salavat	руб в год
2.7	bigger_better	-6	32	Рязань	609115000	32	/city/ryazan	/city/ryazan	руб в год
2.7	bigger_better	1	92	Бийск	607321000	33	/city/biysk	/city/biysk	руб в год
2.7	bigger_better	0	57	Курган	577685000	34	/city/kurgan	/city/kurgan	руб в год
2.7	bigger_better	-12	22	Ульяновск	575342000	35	/city/ulyanovsk	/city/ulyanovsk	руб в год
2.6	bigger_better	11	69	Кострома	569450000	36	/city/kostroma	/city/kostroma	руб в год
2.6	bigger_better	3	4	Екатеринбург	547787000	37	/city/ekaterinburg	/city/ekaterinburg	руб в год
2.6	bigger_better	-9	37	Тула	507070000	38	/city/tula	/city/tula	руб в год
2.6	bigger_better	59	38	Киров	505914000	39	/city/kirov	/city/kirov	руб в год
2.6	bigger_better	-19	25	Ярославль	454253000	40	/city/yaroslavl	/city/yaroslavl	руб в год
2.6	bigger_better	17	30	Томск	435646000	41	/city/tomsk	/city/tomsk	руб в год
2.6	bigger_better	-32	16	Саратов	418727000	42	/city/saratov	/city/saratov	руб в год
2.6	bigger_better	6	73	Йошкар-Ола	390715000	43	/city/yoshkar-ola	/city/yoshkar-ola	руб в год
2.6	bigger_better	-1	39	Чебоксары	379607000	44	/city/cheboksary	/city/cheboksary	руб в год
2.6	bigger_better	-19	46	Иваново	361480000	45	/city/ivanovo	/city/ivanovo	руб в год
2.6	bigger_better	-8	104	Сызрань	293624000	46	/city/syzran	/city/syzran	руб в год
2.6	bigger_better	45	79	Дзержинск	249233000	47	/city/dzerzhinsk	/city/dzerzhinsk	руб в год
2.6	bigger_better	33	139	Камышин	249149000	48	/city/kamyshin	/city/kamyshin	руб в год
2.6	bigger_better	-8	116	Альметьевск	240367000	49	/city/almetevsk	/city/almetevsk	руб в год
2.6	bigger_better	0	43	Ставрополь	225108000	50	/city/stavropol	/city/stavropol	руб в год
2.6	bigger_better	-8	130	Черкесск	218366000	51	/city/cherkessk	/city/cherkessk	руб в год
2.6	bigger_better	-3	131	Нефтеюганск	217948000	52	/city/nefteyugansk	/city/nefteyugansk	руб в год
2.6	bigger_better	37	150	Ноябрьск	216521000	53	/city/noyabrsk	/city/noyabrsk	руб в год
2.6	bigger_better	38	59	Орёл	178792000	54	/city/orel	/city/orel	руб в год
2.6	bigger_better	16	127	Новомосковск	174419000	55	/city/novomoskovsk	/city/novomoskovsk	руб в год
2.5	bigger_better	-3	115	Миасс	145740000	56	/city/miass	/city/miass	руб в год
2.5	bigger_better	50	35	Набережные Челны	125234000	57	/city/naberezhnye-chelny	/city/naberezhnye-chelny	руб в год
2.5	bigger_better	-2	42	Улан-Удэ	119894000	58	/city/ulan-ude	/city/ulan-ude	руб в год
2.5	bigger_better	-19	56	Волжский	119645000	59	/city/volzhskiy	/city/volzhskiy	руб в год
2.5	bigger_better	-3	154	Обнинск	119451000	60	/city/obninsk	/city/obninsk	руб в год
2.5	bigger_better	-9	64	Саранск	119450000	61	/city/saransk	/city/saransk	руб в год
2.5	bigger_better	27	106	Златоуст	117971000	62	/city/zlatoust	/city/zlatoust	руб в год
2.5	bigger_better	38	41	Курск	104987000	63	/city/kursk	/city/kursk	руб в год
2.5	bigger_better	-10	76	Братск	94429000	64	/city/bratsk	/city/bratsk	руб в год
2.5	bigger_better	0	138	Невинномысск	85701000	65	/city/nevinnomyssk	/city/nevinnomyssk	руб в год
2.5	bigger_better	-2	111	Уссурийск	77628000	66	/city/ussuriysk	/city/ussuriysk	руб в год
2.5	bigger_better	-6	60	Череповец	61714000	67	/city/cherepovec	/city/cherepovec	руб в год
2.5	bigger_better	-16	109	Абакан	59081000	68	/city/abakan	/city/abakan	руб в год
2.5	bigger_better	11	97	Южно-Сахалинск	55214000	69	/city/yuzhno-sahalinsk	/city/yuzhno-sahalinsk	руб в год
2.5	bigger_better	45	20	Ижевск	50419000	70	/city/izhevsk	/city/izhevsk	руб в год
2.5	bigger_better	-25	98	Северодвинск	46270000	71	/city/severodvinsk	/city/severodvinsk	руб в год
2.5	bigger_better	15	110	Находка	32802000	72	/city/nahodka	/city/nahodka	руб в год
2.5	bigger_better	15	158	Элиста	32034000	73	/city/elista	/city/elista	руб в год
2.5	bigger_better	5	68	Стерлитамак	26547000	74	/city/sterlitamak	/city/sterlitamak	руб в год
2.5	bigger_better	-7	91	Псков	25373000	75	/city/pskov	/city/pskov	руб в год
2.5	bigger_better	-7	152	Новокуйбышевск	20128000	76	/city/novokuybyshevsk	/city/novokuybyshevsk	руб в год
2.5	bigger_better	-15	72	Комсомольск-на-Амуре	19552000	77	/city/komsomolsk-na-amure	/city/komsomolsk-na-amure	руб в год
2.5	bigger_better	0	162	Ессентуки	17215000	78	/city/essentuki	/city/essentuki	руб в год
2.5	bigger_better	-1	134	Нефтекамск	13284000	79	/city/neftekamsk	/city/neftekamsk	руб в год
2.5	bigger_better	-23	82	Нижнекамск	10739000	80	/city/nizhnekamsk	/city/nizhnekamsk	руб в год
2.5	bigger_better	-13	155	Арзамас	6429000	81	/city/arzamas	/city/arzamas	руб в год
2.5	bigger_better	-6	81	Орск	5256000	82	/city/orsk	/city/orsk	руб в год
2.5	bigger_better	3	86	Старый Оскол	2815000	83	/city/staryy-oskol	/city/staryy-oskol	руб в год
2.5	bigger_better	0	151	Елец	2082000	84	/city/elec	/city/elec	руб в год
2.5	bigger_better	9	78	Нальчик	1929000	85	/city/nalchik	/city/nalchik	руб в год
2.5	bigger_better	13	165	Бердск	-816000	86	/city/berdsk	/city/berdsk	руб в год
2.5	bigger_better	-22	84	Ангарск	-886000	87	/city/angarsk	/city/angarsk	руб в год
2.5	bigger_better	18	100	Петропавловск-Камчатский	-9038000	88	/city/petropavlovsk-kamchatskiy	/city/petropavlovsk-kamchatskiy	руб в год
2.5	bigger_better	-17	145	Октябрьский	-10685000	89	/city/oktyabrskiy	/city/oktyabrskiy	руб в год
2.5	bigger_better	-10	121	Ковров	-11014000	90	/city/kovrov	/city/kovrov	руб в год
2.5	bigger_better	0	133	Новочебоксарск	-13873000	91	/city/novocheboksarsk	/city/novocheboksarsk	руб в год
2.5	bigger_better	-18	95	Балаково	-20393000	92	/city/balakovo	/city/balakovo	руб в год
2.5	bigger_better	-31	120	Майкоп	-23669000	93	/city/maykop	/city/maykop	руб в год
2.5	bigger_better	-53	44	Магнитогорск	-29818000	94	/city/magnitogorsk	/city/magnitogorsk	руб в год
2.5	bigger_better	0	126	Кисловодск	-34667000	95	/city/kislovodsk	/city/kislovodsk	руб в год
2.5	bigger_better	-11	136	Димитровград	-34895000	96	/city/dimitrovgrad	/city/dimitrovgrad	руб в год
2.5	bigger_better	-11	144	Муром	-35113000	97	/city/murom	/city/murom	руб в год
2.5	bigger_better	-10	166	Сарапул	-36026000	98	/city/sarapul	/city/sarapul	руб в год
2.5	bigger_better	-19	75	Новороссийск	-40130000	99	/city/novorossiysk	/city/novorossiysk	руб в год
2.5	bigger_better	-7	89	Энгельс	-46276000	100	/city/engels	/city/engels	руб в год
2.5	bigger_better	-23	94	Рыбинск	-77430000	101	/city/rybinsk	/city/rybinsk	руб в год
2.5	bigger_better	0	105	Новочеркасск	-82125000	102	/city/novocherkassk	/city/novocherkassk	руб в год
2.5	bigger_better	7	51	Архангельск	-128917000	103	/city/arhangelsk	/city/arhangelsk	руб в год
2.5	bigger_better	-14	62	Вологда	-225164000	104	/city/vologda	/city/vologda	руб в год
2.4	bigger_better	0	117	Рубцовск	-290272000	105	/city/rubcovsk	/city/rubcovsk	руб в год
2.4	bigger_better	-7	93	Прокопьевск	-297255000	106	/city/prokopevsk	/city/prokopevsk	руб в год
2.4	bigger_better	-4	142	Кызыл	-302532000	107	/city/kyzyl	/city/kyzyl	руб в год
2.4	bigger_better	-8	24	Владивосток	-314647000	108	/city/vladivostok	/city/vladivostok	руб в год
2.4	bigger_better	15	61	Владикавказ	-333115000	109	/city/vladikavkaz	/city/vladikavkaz	руб в год
2.4	bigger_better	-71	29	Новокузнецк	-374799000	110	/city/novokuzneck	/city/novokuzneck	руб в год
2.4	bigger_better	-2	66	Тамбов	-416093000	111	/city/tambov	/city/tambov	руб в год
2.4	bigger_better	-1	108	Волгодонск	-468035000	112	/city/volgodonsk	/city/volgodonsk	руб в год
2.4	bigger_better	4	40	Калининград	-578643000	113	/city/kaliningrad	/city/kaliningrad	руб в год
2.3	bigger_better	2	26	Хабаровск	-685998000	114	/city/habarovsk	/city/habarovsk	руб в год
2.3	bigger_better	-38	87	Великий Новгород	-749277000	115	/city/velikiy-novgorod	/city/velikiy-novgorod	руб в год
2.3	bigger_better	7	54	Чита	-899125000	116	/city/chita	/city/chita	руб в год
2.3	bigger_better	-66	55	Смоленск	-980332000	117	/city/smolensk	/city/smolensk	руб в год
2.2	bigger_better	-49	21	Барнаул	-1114767000	118	/city/barnaul	/city/barnaul	руб в год
2.2	bigger_better	-5	45	Брянск	-1241196000	119	/city/bryansk	/city/bryansk	руб в год
2.2	bigger_better	0	23	Иркутск	-1343944000	120	/city/irkutsk	/city/irkutsk	руб в год
2.2	bigger_better	-6	47	Тверь	-1457752000	121	/city/tver	/city/tver	руб в год
2.1	bigger_better	-9	63	Мурманск	-1495904000	122	/city/murmansk	/city/murmansk	руб в год
2.1	bigger_better	-16	12	Волгоград	-1726503000	123	/city/volgograd	/city/volgograd	руб в год
2	bigger_better	-54	34	Пенза	-2001669000	124	/city/penza	/city/penza	руб в год
1.5	bigger_better	0	118	Пятигорск	-4068246000	125	/city/pyatigorsk	/city/pyatigorsk	руб в год
1	bigger_better	0	67	Грозный	-6174065000	126	/city/groznyy	/city/groznyy	руб в год
