epochs	information_source	description	name	epoch	display	type	short_name	stat
["2013","2012","2011","2010","2009"]	Росстат	Рейтинг городов по годовой прибыли предприятий в сфере рыболовства.	Прибыль в сфере рыболовства	2013	value	city	profit_fishing	10172


rate	order	rate_grow	object_id	object_name	value	rating_place	url	object_url	units
10	bigger_better	0	100	Петропавловск-Камчатский	8791918000	1	/city/petropavlovsk-kamchatskiy	/city/petropavlovsk-kamchatskiy	руб в год
6.9	bigger_better	0	63	Мурманск	5731121000	2	/city/murmansk	/city/murmansk	руб в год
3.4	bigger_better	0	24	Владивосток	2359253000	3	/city/vladivostok	/city/vladivostok	руб в год
2.4	bigger_better	1	97	Южно-Сахалинск	1360340000	4	/city/yuzhno-sahalinsk	/city/yuzhno-sahalinsk	руб в год
2.1	bigger_better	-1	40	Калининград	1111335000	5	/city/kaliningrad	/city/kaliningrad	руб в год
2	bigger_better	0	51	Архангельск	950040000	6	/city/arhangelsk	/city/arhangelsk	руб в год
1.4	bigger_better	2	110	Находка	394705000	7	/city/nahodka	/city/nahodka	руб в год
1.1	bigger_better	0	26	Хабаровск	114159000	8	/city/habarovsk	/city/habarovsk	руб в год
1	bigger_better	0	36	Липецк	9500000	9	/city/lipeck	/city/lipeck	руб в год
1	bigger_better	0	37	Тула	2124000	10	/city/tula	/city/tula	руб в год
1	bigger_better	-2	6	Казань	-7669000	11	/city/kazan	/city/kazan	руб в год
