epochs	information_source	description	name	epoch	display	type	short_name	stat
["2012"]	Министерство финансов 	Рейтинг городов по проценту развитости сферы производства и распределения ресурсов от всей совокупности экономических отраслей города. 	Сфера производства и распределения ресурсов	2012	value	city	resources	10061


rate	order	rate_grow	object_id	object_name	value	rating_place	url	object_url	units
10	bigger_better	0	109	Абакан	10.2	1	/city/abakan	/city/abakan	%
9.2	bigger_better	0	55	Смоленск	9.4	2	/city/smolensk	/city/smolensk	%
8.9	bigger_better	0	16	Саратов	9.1	3	/city/saratov	/city/saratov	%
8.9	bigger_better	0	89	Энгельс	9.1	4	/city/engels	/city/engels	%
8.9	bigger_better	0	95	Балаково	9.1	5	/city/balakovo	/city/balakovo	%
8.3	bigger_better	0	41	Курск	8.5	6	/city/kursk	/city/kursk	%
8.1	bigger_better	0	47	Тверь	8.3	7	/city/tver	/city/tver	%
8.1	bigger_better	0	69	Кострома	8.3	8	/city/kostroma	/city/kostroma	%
8.1	bigger_better	0	145	Октябрьский	8.3	9	/city/oktyabrskiy	/city/oktyabrskiy	%
7.6	bigger_better	0	46	Иваново	7.8	10	/city/ivanovo	/city/ivanovo	%
7	bigger_better	0	100	Петропавловск-Камчатский	7.2	11	/city/petropavlovsk-kamchatskiy	/city/petropavlovsk-kamchatskiy	%
6.3	bigger_better	0	23	Иркутск	6.5	12	/city/irkutsk	/city/irkutsk	%
6.3	bigger_better	0	76	Братск	6.5	13	/city/bratsk	/city/bratsk	%
6.3	bigger_better	0	84	Ангарск	6.5	14	/city/angarsk	/city/angarsk	%
5.8	bigger_better	0	63	Мурманск	6	15	/city/murmansk	/city/murmansk	%
5.5	bigger_better	0	57	Курган	5.7	16	/city/kurgan	/city/kurgan	%
5.4	bigger_better	0	43	Ставрополь	5.6	17	/city/stavropol	/city/stavropol	%
5.4	bigger_better	0	118	Пятигорск	5.6	18	/city/pyatigorsk	/city/pyatigorsk	%
5.4	bigger_better	0	126	Кисловодск	5.6	19	/city/kislovodsk	/city/kislovodsk	%
5.4	bigger_better	0	138	Невинномысск	5.6	20	/city/nevinnomyssk	/city/nevinnomyssk	%
5.4	bigger_better	0	162	Ессентуки	5.6	21	/city/essentuki	/city/essentuki	%
5.1	bigger_better	0	82	Нижнекамск	5.3	22	/city/nizhnekamsk	/city/nizhnekamsk	%
5.1	bigger_better	0	83	Балашиха	5.3	23	/city/balashiha	/city/balashiha	%
5.1	bigger_better	0	85	Химки	5.3	24	/city/himki	/city/himki	%
5.1	bigger_better	0	90	Подольск	5.3	25	/city/podolsk	/city/podolsk	%
5.1	bigger_better	0	99	Королёв	5.3	26	/city/korolev	/city/korolev	%
5.1	bigger_better	0	101	Люберцы	5.3	27	/city/lyubercy	/city/lyubercy	%
5.1	bigger_better	0	102	Мытищи	5.3	28	/city/mytischi	/city/mytischi	%
5.1	bigger_better	0	112	Электросталь	5.3	29	/city/elektrostal	/city/elektrostal	%
5.1	bigger_better	0	119	Коломна	5.3	30	/city/kolomna	/city/kolomna	%
5.1	bigger_better	0	122	Железнодорожный	5.3	31	/city/zheleznodorozhnyy	/city/zheleznodorozhnyy	%
5.1	bigger_better	0	124	Одинцово	5.3	32	/city/odincovo	/city/odincovo	%
5.1	bigger_better	0	128	Красногорск	5.3	33	/city/krasnogorsk	/city/krasnogorsk	%
5.1	bigger_better	0	129	Серпухов	5.3	34	/city/serpuhov	/city/serpuhov	%
5.1	bigger_better	0	130	Черкесск	5.3	35	/city/cherkessk	/city/cherkessk	%
5.1	bigger_better	0	135	Орехово-Зуево	5.3	36	/city/orehovo-zuevo	/city/orehovo-zuevo	%
5.1	bigger_better	0	143	Щёлково	5.3	37	/city/schelkovo	/city/schelkovo	%
5.1	bigger_better	0	149	Сергиев Посад	5.3	38	/city/sergiev-posad	/city/sergiev-posad	%
5.1	bigger_better	0	153	Жуковский	5.3	39	/city/zhukovskiy	/city/zhukovskiy	%
5.1	bigger_better	0	156	Пушкино	5.3	40	/city/pushkino	/city/pushkino	%
5.1	bigger_better	0	157	Домодедово	5.3	41	/city/domodedovo	/city/domodedovo	%
5.1	bigger_better	0	163	Ногинск	5.3	42	/city/noginsk	/city/noginsk	%
5.1	bigger_better	0	164	Раменское	5.3	43	/city/ramenskoe	/city/ramenskoe	%
5	bigger_better	0	39	Чебоксары	5.2	44	/city/cheboksary	/city/cheboksary	%
5	bigger_better	0	133	Новочебоксарск	5.2	45	/city/novocheboksarsk	/city/novocheboksarsk	%
4.9	bigger_better	0	88	Благовещенск	5.1	46	/city/blagoveschensk	/city/blagoveschensk	%
4.8	bigger_better	0	10	Ростов-на-Дону	5	47	/city/rostov-na-donu	/city/rostov-na-donu	%
4.8	bigger_better	0	32	Рязань	5	48	/city/ryazan	/city/ryazan	%
4.8	bigger_better	0	74	Таганрог	5	49	/city/taganrog	/city/taganrog	%
4.8	bigger_better	0	80	Шахты	5	50	/city/shahty	/city/shahty	%
4.8	bigger_better	0	105	Новочеркасск	5	51	/city/novocherkassk	/city/novocherkassk	%
4.8	bigger_better	0	108	Волгодонск	5	52	/city/volgodonsk	/city/volgodonsk	%
4.8	bigger_better	0	141	Батайск	5	53	/city/bataysk	/city/bataysk	%
4.8	bigger_better	0	146	Новошахтинск	5	54	/city/novoshahtinsk	/city/novoshahtinsk	%
4.7	bigger_better	0	64	Саранск	4.9	55	/city/saransk	/city/saransk	%
4.5	bigger_better	0	26	Хабаровск	4.7	56	/city/habarovsk	/city/habarovsk	%
4.5	bigger_better	0	72	Комсомольск-на-Амуре	4.7	57	/city/komsomolsk-na-amure	/city/komsomolsk-na-amure	%
4.5	bigger_better	0	91	Псков	4.7	58	/city/pskov	/city/pskov	%
4.3	bigger_better	0	25	Ярославль	4.5	59	/city/yaroslavl	/city/yaroslavl	%
4.3	bigger_better	0	28	Оренбург	4.5	60	/city/orenburg	/city/orenburg	%
4.3	bigger_better	0	81	Орск	4.5	61	/city/orsk	/city/orsk	%
4.3	bigger_better	0	94	Рыбинск	4.5	62	/city/rybinsk	/city/rybinsk	%
4.2	bigger_better	0	7	Самара	4.4	63	/city/samara	/city/samara	%
4.2	bigger_better	0	18	Тольятти	4.4	64	/city/tolyatti	/city/tolyatti	%
4.2	bigger_better	0	22	Ульяновск	4.4	65	/city/ulyanovsk	/city/ulyanovsk	%
4.2	bigger_better	0	38	Киров	4.4	66	/city/kirov	/city/kirov	%
4.2	bigger_better	0	42	Улан-Удэ	4.4	67	/city/ulan-ude	/city/ulan-ude	%
4.2	bigger_better	0	104	Сызрань	4.4	68	/city/syzran	/city/syzran	%
4.2	bigger_better	0	136	Димитровград	4.4	69	/city/dimitrovgrad	/city/dimitrovgrad	%
4.2	bigger_better	0	152	Новокуйбышевск	4.4	70	/city/novokuybyshevsk	/city/novokuybyshevsk	%
4.1	bigger_better	0	59	Орёл	4.3	71	/city/orel	/city/orel	%
4	bigger_better	0	70	Петрозаводск	4.2	72	/city/petrozavodsk	/city/petrozavodsk	%
4	bigger_better	0	73	Йошкар-Ола	4.2	73	/city/yoshkar-ola	/city/yoshkar-ola	%
3.9	bigger_better	0	29	Новокузнецк	4.1	74	/city/novokuzneck	/city/novokuzneck	%
3.9	bigger_better	0	31	Кемерово	4.1	75	/city/kemerovo	/city/kemerovo	%
3.9	bigger_better	0	93	Прокопьевск	4.1	76	/city/prokopevsk	/city/prokopevsk	%
3.8	bigger_better	0	4	Екатеринбург	4	77	/city/ekaterinburg	/city/ekaterinburg	%
3.8	bigger_better	0	21	Барнаул	4	78	/city/barnaul	/city/barnaul	%
3.8	bigger_better	0	50	Нижний Тагил	4	79	/city/nizhniy-tagil	/city/nizhniy-tagil	%
3.8	bigger_better	0	78	Нальчик	4	80	/city/nalchik	/city/nalchik	%
3.8	bigger_better	0	92	Бийск	4	81	/city/biysk	/city/biysk	%
3.8	bigger_better	0	107	Каменск-Уральский	4	82	/city/kamensk-uralskiy	/city/kamensk-uralskiy	%
3.8	bigger_better	0	117	Рубцовск	4	83	/city/rubcovsk	/city/rubcovsk	%
3.8	bigger_better	0	132	Первоуральск	4	84	/city/pervouralsk	/city/pervouralsk	%
3.7	bigger_better	0	52	Владимир	3.9	85	/city/vladimir	/city/vladimir	%
3.7	bigger_better	0	121	Ковров	3.9	86	/city/kovrov	/city/kovrov	%
3.7	bigger_better	0	144	Муром	3.9	87	/city/murom	/city/murom	%
3.6	bigger_better	0	5	Нижний Новгород	3.8	88	/city/nizhniy-novgorod	/city/nizhniy-novgorod	%
3.6	bigger_better	0	15	Воронеж	3.8	89	/city/voronezh	/city/voronezh	%
3.6	bigger_better	0	65	Якутск	3.8	90	/city/yakutsk	/city/yakutsk	%
3.6	bigger_better	0	79	Дзержинск	3.8	91	/city/dzerzhinsk	/city/dzerzhinsk	%
3.6	bigger_better	0	155	Арзамас	3.8	92	/city/arzamas	/city/arzamas	%
3.5	bigger_better	0	24	Владивосток	3.7	93	/city/vladivostok	/city/vladivostok	%
3.5	bigger_better	0	60	Череповец	3.7	94	/city/cherepovec	/city/cherepovec	%
3.5	bigger_better	0	62	Вологда	3.7	95	/city/vologda	/city/vologda	%
3.5	bigger_better	0	110	Находка	3.7	96	/city/nahodka	/city/nahodka	%
3.5	bigger_better	0	111	Уссурийск	3.7	97	/city/ussuriysk	/city/ussuriysk	%
3.5	bigger_better	0	161	Артём	3.7	98	/city/artem	/city/artem	%
3.4	bigger_better	0	2	Санкт-Петербург	3.6	99	/city/sankt-peterburg	/city/sankt-peterburg	%
3.4	bigger_better	0	36	Липецк	3.6	100	/city/lipeck	/city/lipeck	%
3.4	bigger_better	0	77	Сыктывкар	3.6	101	/city/syktyvkar	/city/syktyvkar	%
3.4	bigger_better	0	151	Елец	3.6	102	/city/elec	/city/elec	%
3.3	bigger_better	0	1	Москва	3.5	103	/city/moskva	/city/moskva	%
3.3	bigger_better	0	3	Новосибирск	3.5	104	/city/novosibirsk	/city/novosibirsk	%
3.3	bigger_better	0	13	Красноярск	3.5	105	/city/krasnoyarsk	/city/krasnoyarsk	%
3.3	bigger_better	0	48	Белгород	3.5	106	/city/belgorod	/city/belgorod	%
3.3	bigger_better	0	86	Старый Оскол	3.5	107	/city/staryy-oskol	/city/staryy-oskol	%
3.3	bigger_better	0	103	Норильск	3.5	108	/city/norilsk	/city/norilsk	%
3.3	bigger_better	0	165	Бердск	3.5	109	/city/berdsk	/city/berdsk	%
3.2	bigger_better	0	37	Тула	3.4	110	/city/tula	/city/tula	%
3.2	bigger_better	0	127	Новомосковск	3.4	111	/city/novomoskovsk	/city/novomoskovsk	%
3.1	bigger_better	0	9	Челябинск	3.3	112	/city/chelyabinsk	/city/chelyabinsk	%
3.1	bigger_better	0	40	Калининград	3.3	113	/city/kaliningrad	/city/kaliningrad	%
3.1	bigger_better	0	44	Магнитогорск	3.3	114	/city/magnitogorsk	/city/magnitogorsk	%
3.1	bigger_better	0	106	Златоуст	3.3	115	/city/zlatoust	/city/zlatoust	%
3.1	bigger_better	0	115	Миасс	3.3	116	/city/miass	/city/miass	%
3.1	bigger_better	0	123	Копейск	3.3	117	/city/kopeysk	/city/kopeysk	%
3	bigger_better	0	14	Пермь	3.2	118	/city/perm	/city/perm	%
3	bigger_better	0	87	Великий Новгород	3.2	119	/city/velikiy-novgorod	/city/velikiy-novgorod	%
3	bigger_better	0	114	Березники	3.2	120	/city/berezniki	/city/berezniki	%
2.9	bigger_better	0	34	Пенза	3.1	121	/city/penza	/city/penza	%
2.7	bigger_better	0	8	Омск	2.9	122	/city/omsk	/city/omsk	%
2.7	bigger_better	0	30	Томск	2.9	123	/city/tomsk	/city/tomsk	%
2.7	bigger_better	0	45	Брянск	2.9	124	/city/bryansk	/city/bryansk	%
2.7	bigger_better	0	148	Ачинск	2.9	125	/city/achinsk	/city/achinsk	%
2.6	bigger_better	0	142	Кызыл	2.8	126	/city/kyzyl	/city/kyzyl	%
2.5	bigger_better	0	11	Уфа	2.7	127	/city/ufa	/city/ufa	%
2.5	bigger_better	0	19	Тюмень	2.7	128	/city/tyumen	/city/tyumen	%
2.5	bigger_better	0	51	Архангельск	2.7	129	/city/arhangelsk	/city/arhangelsk	%
2.5	bigger_better	0	58	Сургут	2.7	130	/city/surgut	/city/surgut	%
2.5	bigger_better	0	66	Тамбов	2.7	131	/city/tambov	/city/tambov	%
2.5	bigger_better	0	68	Стерлитамак	2.7	132	/city/sterlitamak	/city/sterlitamak	%
2.5	bigger_better	0	71	Нижневартовск	2.7	133	/city/nizhnevartovsk	/city/nizhnevartovsk	%
2.5	bigger_better	0	98	Северодвинск	2.7	134	/city/severodvinsk	/city/severodvinsk	%
2.5	bigger_better	0	113	Салават	2.7	135	/city/salavat	/city/salavat	%
2.5	bigger_better	0	131	Нефтеюганск	2.7	136	/city/nefteyugansk	/city/nefteyugansk	%
2.5	bigger_better	0	134	Нефтекамск	2.7	137	/city/neftekamsk	/city/neftekamsk	%
2.5	bigger_better	0	140	Новый Уренгой	2.7	138	/city/novyy-urengoy	/city/novyy-urengoy	%
2.5	bigger_better	0	150	Ноябрьск	2.7	139	/city/noyabrsk	/city/noyabrsk	%
2.4	bigger_better	0	54	Чита	2.6	140	/city/chita	/city/chita	%
2.3	bigger_better	0	6	Казань	2.5	141	/city/kazan	/city/kazan	%
2.3	bigger_better	0	35	Набережные Челны	2.5	142	/city/naberezhnye-chelny	/city/naberezhnye-chelny	%
2.3	bigger_better	0	116	Альметьевск	2.5	143	/city/almetevsk	/city/almetevsk	%
2.2	bigger_better	0	12	Волгоград	2.4	144	/city/volgograd	/city/volgograd	%
2.2	bigger_better	0	56	Волжский	2.4	145	/city/volzhskiy	/city/volzhskiy	%
2.2	bigger_better	0	139	Камышин	2.4	146	/city/kamyshin	/city/kamyshin	%
2.1	bigger_better	0	17	Краснодар	2.3	147	/city/krasnodar	/city/krasnodar	%
2.1	bigger_better	0	49	Сочи	2.3	148	/city/sochi	/city/sochi	%
2.1	bigger_better	0	61	Владикавказ	2.3	149	/city/vladikavkaz	/city/vladikavkaz	%
2.1	bigger_better	0	75	Новороссийск	2.3	150	/city/novorossiysk	/city/novorossiysk	%
2.1	bigger_better	0	96	Армавир	2.3	151	/city/armavir	/city/armavir	%
1.9	bigger_better	0	20	Ижевск	2.1	152	/city/izhevsk	/city/izhevsk	%
1.9	bigger_better	0	33	Астрахань	2.1	153	/city/astrahan	/city/astrahan	%
1.9	bigger_better	0	166	Сарапул	2.1	154	/city/sarapul	/city/sarapul	%
1.7	bigger_better	0	53	Калуга	1.9	155	/city/kaluga	/city/kaluga	%
1.7	bigger_better	0	154	Обнинск	1.9	156	/city/obninsk	/city/obninsk	%
1.5	bigger_better	0	158	Элиста	1.7	157	/city/elista	/city/elista	%
1.4	bigger_better	0	67	Грозный	1.6	158	/city/groznyy	/city/groznyy	%
1.4	bigger_better	0	160	Назрань	1.6	159	/city/nazran	/city/nazran	%
1.2	bigger_better	0	27	Махачкала	1.4	160	/city/mahachkala	/city/mahachkala	%
1.2	bigger_better	0	125	Хасавюрт	1.4	161	/city/hasavyurt	/city/hasavyurt	%
1.2	bigger_better	0	137	Дербент	1.4	162	/city/derbent	/city/derbent	%
1.2	bigger_better	0	159	Каспийск	1.4	163	/city/kaspiysk	/city/kaspiysk	%
1.1	bigger_better	0	120	Майкоп	1.3	164	/city/maykop	/city/maykop	%
1	bigger_better	0	97	Южно-Сахалинск	1.2	165	/city/yuzhno-sahalinsk	/city/yuzhno-sahalinsk	%
