epochs	information_source	description	name	epoch	display	type	short_name	stat
["2013","2012","2011","2010","2009","2008"]	Росстат	Рейтинг городов по годовому объему расходов городского бюджета на сферу дорожного хозяйства.	Расходы на дорожное хозяйство	2013	value	city	road_sector	10156


rate	order	rate_grow	object_id	object_name	value	rating_place	url	object_url	units
10	bigger_better	0	1	Москва	117533296166.36	1	/city/moskva	/city/moskva	<i class="rub">q</i>
5.3	bigger_better	0	2	Санкт-Петербург	56703659044.3	2	/city/sankt-peterburg	/city/sankt-peterburg	<i class="rub">q</i>
1.5	bigger_better	3	3	Новосибирск	6920251000	3	/city/novosibirsk	/city/novosibirsk	<i class="rub">q</i>
1.4	bigger_better	0	9	Челябинск	5733368000	4	/city/chelyabinsk	/city/chelyabinsk	<i class="rub">q</i>
1.4	bigger_better	9	49	Сочи	5080504000	5	/city/sochi	/city/sochi	<i class="rub">q</i>
1.4	bigger_better	2	19	Тюмень	4822291000	6	/city/tyumen	/city/tyumen	<i class="rub">q</i>
1.3	bigger_better	3	13	Красноярск	3449568000	7	/city/krasnoyarsk	/city/krasnoyarsk	<i class="rub">q</i>
1.2	bigger_better	-5	5	Нижний Новгород	3232502800	8	/city/nizhniy-novgorod	/city/nizhniy-novgorod	<i class="rub">q</i>
1.2	bigger_better	2	14	Пермь	2651415200	9	/city/perm	/city/perm	<i class="rub">q</i>
1.2	bigger_better	3	10	Ростов-на-Дону	2644824000	10	/city/rostov-na-donu	/city/rostov-na-donu	<i class="rub">q</i>
1.2	bigger_better	4	7	Самара	2547911200	11	/city/samara	/city/samara	<i class="rub">q</i>
1.2	bigger_better	-7	6	Казань	2429740000	12	/city/kazan	/city/kazan	<i class="rub">q</i>
1.2	bigger_better	-6	34	Пенза	2294037000	13	/city/penza	/city/penza	<i class="rub">q</i>
1.2	bigger_better	6	4	Екатеринбург	2155969000	14	/city/ekaterinburg	/city/ekaterinburg	<i class="rub">q</i>
1.2	bigger_better	2	40	Калининград	2107679000	15	/city/kaliningrad	/city/kaliningrad	<i class="rub">q</i>
1.1	bigger_better	13	26	Хабаровск	1673374000	16	/city/habarovsk	/city/habarovsk	<i class="rub">q</i>
1.1	bigger_better	1	23	Иркутск	1657952000	17	/city/irkutsk	/city/irkutsk	<i class="rub">q</i>
1.1	bigger_better	-2	16	Саратов	1640754000	18	/city/saratov	/city/saratov	<i class="rub">q</i>
1.1	bigger_better	4	100	Петропавловск-Камчатский	1633205000	19	/city/petropavlovsk-kamchatskiy	/city/petropavlovsk-kamchatskiy	<i class="rub">q</i>
1.1	bigger_better	5	12	Волгоград	1571036000	20	/city/volgograd	/city/volgograd	<i class="rub">q</i>
1.1	bigger_better	3	8	Омск	1486979000	21	/city/omsk	/city/omsk	<i class="rub">q</i>
1.1	bigger_better	34	50	Нижний Тагил	1464953000	22	/city/nizhniy-tagil	/city/nizhniy-tagil	<i class="rub">q</i>
1.1	bigger_better	10	58	Сургут	1459344000	23	/city/surgut	/city/surgut	<i class="rub">q</i>
1.1	bigger_better	0	55	Смоленск	1368401900	24	/city/smolensk	/city/smolensk	<i class="rub">q</i>
1.1	bigger_better	-12	24	Владивосток	1349872600	25	/city/vladivostok	/city/vladivostok	<i class="rub">q</i>
1.1	bigger_better	12	46	Иваново	1344348000	26	/city/ivanovo	/city/ivanovo	<i class="rub">q</i>
1.1	bigger_better	2	66	Тамбов	1329938000	27	/city/tambov	/city/tambov	<i class="rub">q</i>
1.1	bigger_better	16	18	Тольятти	1327215000	28	/city/tolyatti	/city/tolyatti	<i class="rub">q</i>
1.1	bigger_better	16	25	Ярославль	1325533000	29	/city/yaroslavl	/city/yaroslavl	<i class="rub">q</i>
1.1	bigger_better	11	47	Тверь	1319395000	30	/city/tver	/city/tver	<i class="rub">q</i>
1.1	bigger_better	-3	31	Кемерово	1236185800	31	/city/kemerovo	/city/kemerovo	<i class="rub">q</i>
1.1	bigger_better	-1	53	Калуга	1233551000	32	/city/kaluga	/city/kaluga	<i class="rub">q</i>
1.1	bigger_better	16	20	Ижевск	1228193000	33	/city/izhevsk	/city/izhevsk	<i class="rub">q</i>
1.1	bigger_better	8	62	Вологда	1221443500	34	/city/vologda	/city/vologda	<i class="rub">q</i>
1.1	bigger_better	-13	15	Воронеж	1097119000	35	/city/voronezh	/city/voronezh	<i class="rub">q</i>
1.1	bigger_better	14	59	Орёл	1070606700	36	/city/orel	/city/orel	<i class="rub">q</i>
1.1	bigger_better	-1	38	Киров	1068510900	37	/city/kirov	/city/kirov	<i class="rub">q</i>
1.1	bigger_better	-18	17	Краснодар	1064906000	38	/city/krasnodar	/city/krasnodar	<i class="rub">q</i>
1.1	bigger_better	-6	29	Новокузнецк	1040820400	39	/city/novokuzneck	/city/novokuzneck	<i class="rub">q</i>
1.1	bigger_better	3	51	Архангельск	986959000	40	/city/arhangelsk	/city/arhangelsk	<i class="rub">q</i>
1.1	bigger_better	5	97	Южно-Сахалинск	954926000	41	/city/yuzhno-sahalinsk	/city/yuzhno-sahalinsk	<i class="rub">q</i>
1.1	bigger_better	-3	103	Норильск	951280000	42	/city/norilsk	/city/norilsk	<i class="rub">q</i>
1.1	bigger_better	-3	71	Нижневартовск	869395000	43	/city/nizhnevartovsk	/city/nizhnevartovsk	<i class="rub">q</i>
1.1	bigger_better	10	21	Барнаул	864798000	44	/city/barnaul	/city/barnaul	<i class="rub">q</i>
1.1	bigger_better	-13	37	Тула	852503000	45	/city/tula	/city/tula	<i class="rub">q</i>
1.1	bigger_better	2	70	Петрозаводск	845930000	46	/city/petrozavodsk	/city/petrozavodsk	<i class="rub">q</i>
1.1	bigger_better	-10	54	Чита	810693900	47	/city/chita	/city/chita	<i class="rub">q</i>
1.1	bigger_better	-25	65	Якутск	808458800	48	/city/yakutsk	/city/yakutsk	<i class="rub">q</i>
1.1	bigger_better	11	45	Брянск	689816000	49	/city/bryansk	/city/bryansk	<i class="rub">q</i>
1.1	bigger_better	-40	30	Томск	670067000	50	/city/tomsk	/city/tomsk	<i class="rub">q</i>
1.1	bigger_better	7	67	Грозный	661260300	51	/city/groznyy	/city/groznyy	<i class="rub">q</i>
1.1	bigger_better	19	22	Ульяновск	659415000	52	/city/ulyanovsk	/city/ulyanovsk	<i class="rub">q</i>
1	bigger_better	31	118	Пятигорск	635919500	53	/city/pyatigorsk	/city/pyatigorsk	<i class="rub">q</i>
1	bigger_better	55	48	Белгород	620847000	54	/city/belgorod	/city/belgorod	<i class="rub">q</i>
1	bigger_better	14	36	Липецк	607990000	55	/city/lipeck	/city/lipeck	<i class="rub">q</i>
1	bigger_better	-5	28	Оренбург	590234000	56	/city/orenburg	/city/orenburg	<i class="rub">q</i>
1	bigger_better	21	104	Сызрань	588782000	57	/city/syzran	/city/syzran	<i class="rub">q</i>
1	bigger_better	24	39	Чебоксары	564854000	58	/city/cheboksary	/city/cheboksary	<i class="rub">q</i>
1	bigger_better	0	32	Рязань	542112000	59	/city/ryazan	/city/ryazan	<i class="rub">q</i>
1	bigger_better	-4	57	Курган	533173400	60	/city/kurgan	/city/kurgan	<i class="rub">q</i>
1	bigger_better	8	88	Благовещенск	526466000	61	/city/blagoveschensk	/city/blagoveschensk	<i class="rub">q</i>
1	bigger_better	-9	43	Ставрополь	515724800	62	/city/stavropol	/city/stavropol	<i class="rub">q</i>
1	bigger_better	-35	60	Череповец	505757900	63	/city/cherepovec	/city/cherepovec	<i class="rub">q</i>
1	bigger_better	-10	41	Курск	496244000	64	/city/kursk	/city/kursk	<i class="rub">q</i>
1	bigger_better	22	126	Кисловодск	494127400	65	/city/kislovodsk	/city/kislovodsk	<i class="rub">q</i>
1	bigger_better	-3	94	Рыбинск	483469000	66	/city/rybinsk	/city/rybinsk	<i class="rub">q</i>
1	bigger_better	14	114	Березники	449601300	67	/city/berezniki	/city/berezniki	<i class="rub">q</i>
1	bigger_better	5	79	Дзержинск	434027000	68	/city/dzerzhinsk	/city/dzerzhinsk	<i class="rub">q</i>
1	bigger_better	-33	64	Саранск	424091000	69	/city/saransk	/city/saransk	<i class="rub">q</i>
1	bigger_better	-4	44	Магнитогорск	416567000	70	/city/magnitogorsk	/city/magnitogorsk	<i class="rub">q</i>
1	bigger_better	15	80	Шахты	407726000	71	/city/shahty	/city/shahty	<i class="rub">q</i>
1	bigger_better	-10	77	Сыктывкар	388879000	72	/city/syktyvkar	/city/syktyvkar	<i class="rub">q</i>
1	bigger_better	-2	87	Великий Новгород	388105600	73	/city/velikiy-novgorod	/city/velikiy-novgorod	<i class="rub">q</i>
1	bigger_better	-10	130	Черкесск	365683600	74	/city/cherkessk	/city/cherkessk	<i class="rub">q</i>
1	bigger_better	-27	98	Северодвинск	364693000	75	/city/severodvinsk	/city/severodvinsk	<i class="rub">q</i>
1	bigger_better	24	157	Домодедово	355603500	76	/city/domodedovo	/city/domodedovo	<i class="rub">q</i>
1	bigger_better	41	105	Новочеркасск	345235000	77	/city/novocherkassk	/city/novocherkassk	<i class="rub">q</i>
1	bigger_better	12	52	Владимир	340094000	78	/city/vladimir	/city/vladimir	<i class="rub">q</i>
1	bigger_better	48	152	Новокуйбышевск	326922100	79	/city/novokuybyshevsk	/city/novokuybyshevsk	<i class="rub">q</i>
1	bigger_better	-5	131	Нефтеюганск	323636000	80	/city/nefteyugansk	/city/nefteyugansk	<i class="rub">q</i>
1	bigger_better	-3	111	Уссурийск	321319600	81	/city/ussuriysk	/city/ussuriysk	<i class="rub">q</i>
1	bigger_better	-14	75	Новороссийск	320171000	82	/city/novorossiysk	/city/novorossiysk	<i class="rub">q</i>
1	bigger_better	23	63	Мурманск	313387000	83	/city/murmansk	/city/murmansk	<i class="rub">q</i>
1	bigger_better	-17	110	Находка	311510900	84	/city/nahodka	/city/nahodka	<i class="rub">q</i>
1	bigger_better	4	89	Энгельс	306616000	85	/city/engels	/city/engels	<i class="rub">q</i>
1	bigger_better	23	149	Сергиев Посад	297185729.5	86	/city/sergiev-posad	/city/sergiev-posad	<i class="rub">q</i>
1	bigger_better	-11	78	Нальчик	282687000	87	/city/nalchik	/city/nalchik	<i class="rub">q</i>
1	bigger_better	0	115	Миасс	278775000	88	/city/miass	/city/miass	<i class="rub">q</i>
1	bigger_better	34	120	Майкоп	275982000	89	/city/maykop	/city/maykop	<i class="rub">q</i>
1	bigger_better	2	83	Балашиха	267073320.04	90	/city/balashiha	/city/balashiha	<i class="rub">q</i>
1	bigger_better	-26	61	Владикавказ	264883000	91	/city/vladikavkaz	/city/vladikavkaz	<i class="rub">q</i>
1	bigger_better	-32	42	Улан-Удэ	241997600	92	/city/ulan-ude	/city/ulan-ude	<i class="rub">q</i>
1	bigger_better	-2	84	Ангарск	232924600	93	/city/angarsk	/city/angarsk	<i class="rub">q</i>
1	bigger_better	14	127	Новомосковск	231868200	94	/city/novomoskovsk	/city/novomoskovsk	<i class="rub">q</i>
1	bigger_better	-13	72	Комсомольск-на-Амуре	231685000	95	/city/komsomolsk-na-amure	/city/komsomolsk-na-amure	<i class="rub">q</i>
1	bigger_better	-39	107	Каменск-Уральский	223998000	96	/city/kamensk-uralskiy	/city/kamensk-uralskiy	<i class="rub">q</i>
1	bigger_better	37	86	Старый Оскол	213103000	97	/city/staryy-oskol	/city/staryy-oskol	<i class="rub">q</i>
1	bigger_better	-24	33	Астрахань	212290000	98	/city/astrahan	/city/astrahan	<i class="rub">q</i>
1	bigger_better	-4	68	Стерлитамак	206955100	99	/city/sterlitamak	/city/sterlitamak	<i class="rub">q</i>
1	bigger_better	-23	92	Бийск	204997000	100	/city/biysk	/city/biysk	<i class="rub">q</i>
1	bigger_better	-3	95	Балаково	201853000	101	/city/balakovo	/city/balakovo	<i class="rub">q</i>
1	bigger_better	-6	151	Елец	199261600	102	/city/elec	/city/elec	<i class="rub">q</i>
1	bigger_better	8	139	Камышин	186864000	103	/city/kamyshin	/city/kamyshin	<i class="rub">q</i>
1	bigger_better	12	112	Электросталь	181255800	104	/city/elektrostal	/city/elektrostal	<i class="rub">q</i>
1	bigger_better	-4	93	Прокопьевск	179160800	105	/city/prokopevsk	/city/prokopevsk	<i class="rub">q</i>
1	bigger_better	-9	81	Орск	171964000	106	/city/orsk	/city/orsk	<i class="rub">q</i>
1	bigger_better	-27	106	Златоуст	170962000	107	/city/zlatoust	/city/zlatoust	<i class="rub">q</i>
1	bigger_better	25	117	Рубцовск	170850000	108	/city/rubcovsk	/city/rubcovsk	<i class="rub">q</i>
1	bigger_better	-7	155	Арзамас	165745000	109	/city/arzamas	/city/arzamas	<i class="rub">q</i>
1	bigger_better	-16	76	Братск	163367000	110	/city/bratsk	/city/bratsk	<i class="rub">q</i>
1	bigger_better	10	144	Муром	163059000	111	/city/murom	/city/murom	<i class="rub">q</i>
1	bigger_better	5	136	Димитровград	162081000	112	/city/dimitrovgrad	/city/dimitrovgrad	<i class="rub">q</i>
1	bigger_better	17	140	Новый Уренгой	157388000	113	/city/novyy-urengoy	/city/novyy-urengoy	<i class="rub">q</i>
1	bigger_better	6	141	Батайск	155747000	114	/city/bataysk	/city/bataysk	<i class="rub">q</i>
1	bigger_better	10	121	Ковров	151423500	115	/city/kovrov	/city/kovrov	<i class="rub">q</i>
1	bigger_better	-17	134	Нефтекамск	150986808.88	116	/city/neftekamsk	/city/neftekamsk	<i class="rub">q</i>
1	bigger_better	-14	108	Волгодонск	146387000	117	/city/volgodonsk	/city/volgodonsk	<i class="rub">q</i>
1	bigger_better	-34	74	Таганрог	146230000	118	/city/taganrog	/city/taganrog	<i class="rub">q</i>
1	bigger_better	-26	96	Армавир	140862000	119	/city/armavir	/city/armavir	<i class="rub">q</i>
1	bigger_better	-13	138	Невинномысск	138187800	120	/city/nevinnomyssk	/city/nevinnomyssk	<i class="rub">q</i>
1	bigger_better	7	73	Йошкар-Ола	136977100	121	/city/yoshkar-ola	/city/yoshkar-ola	<i class="rub">q</i>
1	bigger_better	-17	123	Копейск	120999000	122	/city/kopeysk	/city/kopeysk	<i class="rub">q</i>
1	bigger_better	-19	56	Волжский	119438000	123	/city/volzhskiy	/city/volzhskiy	<i class="rub">q</i>
1	bigger_better	-10	145	Октябрьский	118659900	124	/city/oktyabrskiy	/city/oktyabrskiy	<i class="rub">q</i>
1	bigger_better	14	158	Элиста	117510800	125	/city/elista	/city/elista	<i class="rub">q</i>
1	bigger_better	-13	91	Псков	113203200	126	/city/pskov	/city/pskov	<i class="rub">q</i>
1	bigger_better	-12	132	Первоуральск	93527000	127	/city/pervouralsk	/city/pervouralsk	<i class="rub">q</i>
1	bigger_better	-16	161	Артём	91967100	128	/city/artem	/city/artem	<i class="rub">q</i>
1	bigger_better	-5	156	Пушкино	88901550	129	/city/pushkino	/city/pushkino	<i class="rub">q</i>
1	bigger_better	-8	146	Новошахтинск	85230000	130	/city/novoshahtinsk	/city/novoshahtinsk	<i class="rub">q</i>
1	bigger_better	-2	166	Сарапул	79596500	131	/city/sarapul	/city/sarapul	<i class="rub">q</i>
1	bigger_better	-13	133	Новочебоксарск	76527000	132	/city/novocheboksarsk	/city/novocheboksarsk	<i class="rub">q</i>
1	bigger_better	-7	148	Ачинск	64755000	133	/city/achinsk	/city/achinsk	<i class="rub">q</i>
1	bigger_better	-3	143	Щёлково	63656300	134	/city/schelkovo	/city/schelkovo	<i class="rub">q</i>
1	bigger_better	1	154	Обнинск	57414000	135	/city/obninsk	/city/obninsk	<i class="rub">q</i>
1	bigger_better	-1	162	Ессентуки	51881800	136	/city/essentuki	/city/essentuki	<i class="rub">q</i>
1	bigger_better	0	165	Бердск	50054000	137	/city/berdsk	/city/berdsk	<i class="rub">q</i>
1	bigger_better	-6	142	Кызыл	44079300	138	/city/kyzyl	/city/kyzyl	<i class="rub">q</i>
1	bigger_better	0	109	Абакан	24646000	139	/city/abakan	/city/abakan	<i class="rub">q</i>
1	bigger_better	-1	150	Ноябрьск	22909000	140	/city/noyabrsk	/city/noyabrsk	<i class="rub">q</i>
1	bigger_better	0	164	Раменское	1544000	141	/city/ramenskoe	/city/ramenskoe	<i class="rub">q</i>
