epochs	information_source	description	name	epoch	display	type	short_name	stat
["2014.11","2014.10","2014.09","2014.08","2014.07","2014.06","2014.05","2014.04","2014.03","2014.02","2014.01","2013.12","2013.11","2013.10","2013.09","2013.08","2013.07","2013.06","2013.05","2013.04","2013.03","2013.02","2013.01"]	Росстат	Рейтинг городов по средней стоимости 1 кг соли.	Стоимость соли	2014.11	value	city	salt	10268


rate	order	rate_grow	object_id	object_name	value	rating_place	url	object_url	units
10	bigger_worse	0	103	Норильск	28.01	1	/city/norilsk	/city/norilsk	<i class="rub">q</i>
8.2	bigger_worse	1	65	Якутск	23.97	2	/city/yakutsk	/city/yakutsk	<i class="rub">q</i>
7.7	bigger_worse	1	97	Южно-Сахалинск	22.71	3	/city/yuzhno-sahalinsk	/city/yuzhno-sahalinsk	<i class="rub">q</i>
7.6	bigger_worse	-2	100	Петропавловск-Камчатский	22.61	4	/city/petropavlovsk-kamchatskiy	/city/petropavlovsk-kamchatskiy	<i class="rub">q</i>
6.3	bigger_worse	0	24	Владивосток	19.74	5	/city/vladivostok	/city/vladivostok	<i class="rub">q</i>
5.9	bigger_worse	0	140	Новый Уренгой	18.74	6	/city/novyy-urengoy	/city/novyy-urengoy	<i class="rub">q</i>
5.7	bigger_worse	1	26	Хабаровск	18.21	7	/city/habarovsk	/city/habarovsk	<i class="rub">q</i>
5.5	bigger_worse	-1	110	Находка	17.73	8	/city/nahodka	/city/nahodka	<i class="rub">q</i>
5.3	bigger_worse	2	98	Северодвинск	17.35	9	/city/severodvinsk	/city/severodvinsk	<i class="rub">q</i>
5.3	bigger_worse	0	150	Ноябрьск	17.31	10	/city/noyabrsk	/city/noyabrsk	<i class="rub">q</i>
5	bigger_worse	2	72	Комсомольск-на-Амуре	16.67	11	/city/komsomolsk-na-amure	/city/komsomolsk-na-amure	<i class="rub">q</i>
4.9	bigger_worse	-3	111	Уссурийск	16.49	12	/city/ussuriysk	/city/ussuriysk	<i class="rub">q</i>
4.9	bigger_worse	-1	54	Чита	16.41	13	/city/chita	/city/chita	<i class="rub">q</i>
4.7	bigger_worse	0	1	Москва	15.98	14	/city/moskva	/city/moskva	<i class="rub">q</i>
4.3	bigger_worse	0	62	Вологда	14.99	15	/city/vologda	/city/vologda	<i class="rub">q</i>
4.2	bigger_worse	3	88	Благовещенск	14.8	16	/city/blagoveschensk	/city/blagoveschensk	<i class="rub">q</i>
4.1	bigger_worse	-1	63	Мурманск	14.76	17	/city/murmansk	/city/murmansk	<i class="rub">q</i>
4.1	bigger_worse	0	76	Братск	14.74	18	/city/bratsk	/city/bratsk	<i class="rub">q</i>
4.1	bigger_worse	-2	58	Сургут	14.7	19	/city/surgut	/city/surgut	<i class="rub">q</i>
4	bigger_worse	0	67	Грозный	14.52	20	/city/groznyy	/city/groznyy	<i class="rub">q</i>
4	bigger_worse	0	142	Кызыл	14.39	21	/city/kyzyl	/city/kyzyl	<i class="rub">q</i>
3.8	bigger_worse	1	124	Одинцово	13.86	22	/city/odincovo	/city/odincovo	<i class="rub">q</i>
3.7	bigger_worse	1	13	Красноярск	13.85	23	/city/krasnoyarsk	/city/krasnoyarsk	<i class="rub">q</i>
3.7	bigger_worse	-2	71	Нижневартовск	13.85	24	/city/nizhnevartovsk	/city/nizhnevartovsk	<i class="rub">q</i>
3.6	bigger_worse	0	70	Петрозаводск	13.58	25	/city/petrozavodsk	/city/petrozavodsk	<i class="rub">q</i>
3.6	bigger_worse	0	84	Ангарск	13.5	26	/city/angarsk	/city/angarsk	<i class="rub">q</i>
3.6	bigger_worse	0	49	Сочи	13.43	27	/city/sochi	/city/sochi	<i class="rub">q</i>
3.5	bigger_worse	3	40	Калининград	13.26	28	/city/kaliningrad	/city/kaliningrad	<i class="rub">q</i>
3.5	bigger_worse	0	148	Ачинск	13.19	29	/city/achinsk	/city/achinsk	<i class="rub">q</i>
3.4	bigger_worse	-2	23	Иркутск	13.02	30	/city/irkutsk	/city/irkutsk	<i class="rub">q</i>
3.3	bigger_worse	3	60	Череповец	12.92	31	/city/cherepovec	/city/cherepovec	<i class="rub">q</i>
3.2	bigger_worse	0	51	Архангельск	12.71	32	/city/arhangelsk	/city/arhangelsk	<i class="rub">q</i>
3.2	bigger_worse	-3	42	Улан-Удэ	12.68	33	/city/ulan-ude	/city/ulan-ude	<i class="rub">q</i>
3.1	bigger_worse	8	118	Пятигорск	12.48	34	/city/pyatigorsk	/city/pyatigorsk	<i class="rub">q</i>
3.1	bigger_worse	-2	101	Люберцы	12.3	35	/city/lyubercy	/city/lyubercy	<i class="rub">q</i>
3	bigger_worse	1	30	Томск	12.26	36	/city/tomsk	/city/tomsk	<i class="rub">q</i>
3	bigger_worse	3	160	Назрань	12.2	37	/city/nazran	/city/nazran	<i class="rub">q</i>
3	bigger_worse	-3	130	Черкесск	12.17	38	/city/cherkessk	/city/cherkessk	<i class="rub">q</i>
3	bigger_worse	0	125	Хасавюрт	12.16	39	/city/hasavyurt	/city/hasavyurt	<i class="rub">q</i>
3	bigger_worse	-4	61	Владикавказ	12.11	40	/city/vladikavkaz	/city/vladikavkaz	<i class="rub">q</i>
3	bigger_worse	0	144	Муром	12.08	41	/city/murom	/city/murom	<i class="rub">q</i>
3	bigger_worse	-4	158	Элиста	12.07	42	/city/elista	/city/elista	<i class="rub">q</i>
2.9	bigger_worse	0	109	Абакан	11.94	43	/city/abakan	/city/abakan	<i class="rub">q</i>
2.9	bigger_worse	0	121	Ковров	11.85	44	/city/kovrov	/city/kovrov	<i class="rub">q</i>
2.8	bigger_worse	0	138	Невинномысск	11.75	45	/city/nevinnomyssk	/city/nevinnomyssk	<i class="rub">q</i>
2.8	bigger_worse	2	2	Санкт-Петербург	11.71	46	/city/sankt-peterburg	/city/sankt-peterburg	<i class="rub">q</i>
2.8	bigger_worse	2	112	Электросталь	11.7	47	/city/elektrostal	/city/elektrostal	<i class="rub">q</i>
2.8	bigger_worse	-2	78	Нальчик	11.64	48	/city/nalchik	/city/nalchik	<i class="rub">q</i>
2.7	bigger_worse	-2	91	Псков	11.57	49	/city/pskov	/city/pskov	<i class="rub">q</i>
2.7	bigger_worse	1	10	Ростов-на-Дону	11.51	50	/city/rostov-na-donu	/city/rostov-na-donu	<i class="rub">q</i>
2.7	bigger_worse	1	55	Смоленск	11.42	51	/city/smolensk	/city/smolensk	<i class="rub">q</i>
2.6	bigger_worse	-2	77	Сыктывкар	11.3	52	/city/syktyvkar	/city/syktyvkar	<i class="rub">q</i>
2.6	bigger_worse	0	108	Волгодонск	11.27	53	/city/volgodonsk	/city/volgodonsk	<i class="rub">q</i>
2.6	bigger_worse	0	17	Краснодар	11.23	54	/city/krasnodar	/city/krasnodar	<i class="rub">q</i>
2.5	bigger_worse	0	149	Сергиев Посад	11.13	55	/city/sergiev-posad	/city/sergiev-posad	<i class="rub">q</i>
2.5	bigger_worse	0	129	Серпухов	11.06	56	/city/serpuhov	/city/serpuhov	<i class="rub">q</i>
2.5	bigger_worse	0	74	Таганрог	11.02	57	/city/taganrog	/city/taganrog	<i class="rub">q</i>
2.5	bigger_worse	1	37	Тула	11	58	/city/tula	/city/tula	<i class="rub">q</i>
2.5	bigger_worse	-1	137	Дербент	10.97	59	/city/derbent	/city/derbent	<i class="rub">q</i>
2.5	bigger_worse	7	164	Раменское	10.93	60	/city/ramenskoe	/city/ramenskoe	<i class="rub">q</i>
2.4	bigger_worse	0	52	Владимир	10.79	61	/city/vladimir	/city/vladimir	<i class="rub">q</i>
2.4	bigger_worse	-2	43	Ставрополь	10.74	62	/city/stavropol	/city/stavropol	<i class="rub">q</i>
2.4	bigger_worse	2	127	Новомосковск	10.72	63	/city/novomoskovsk	/city/novomoskovsk	<i class="rub">q</i>
2.4	bigger_worse	7	20	Ижевск	10.71	64	/city/izhevsk	/city/izhevsk	<i class="rub">q</i>
2.4	bigger_worse	-3	163	Ногинск	10.7	65	/city/noginsk	/city/noginsk	<i class="rub">q</i>
2.3	bigger_worse	4	94	Рыбинск	10.67	66	/city/rybinsk	/city/rybinsk	<i class="rub">q</i>
2.3	bigger_worse	-1	165	Бердск	10.66	67	/city/berdsk	/city/berdsk	<i class="rub">q</i>
2.3	bigger_worse	-5	19	Тюмень	10.6	68	/city/tyumen	/city/tyumen	<i class="rub">q</i>
2.3	bigger_worse	13	90	Подольск	10.57	69	/city/podolsk	/city/podolsk	<i class="rub">q</i>
2.3	bigger_worse	-1	27	Махачкала	10.5	70	/city/mahachkala	/city/mahachkala	<i class="rub">q</i>
2.3	bigger_worse	2	80	Шахты	10.47	71	/city/shahty	/city/shahty	<i class="rub">q</i>
2.2	bigger_worse	-4	14	Пермь	10.46	72	/city/perm	/city/perm	<i class="rub">q</i>
2.2	bigger_worse	-1	105	Новочеркасск	10.43	73	/city/novocherkassk	/city/novocherkassk	<i class="rub">q</i>
2.2	bigger_worse	-10	120	Майкоп	10.4	74	/city/maykop	/city/maykop	<i class="rub">q</i>
2.2	bigger_worse	0	47	Тверь	10.24	75	/city/tver	/city/tver	<i class="rub">q</i>
2.1	bigger_worse	-2	32	Рязань	10.22	76	/city/ryazan	/city/ryazan	<i class="rub">q</i>
2.1	bigger_worse	-1	39	Чебоксары	10.17	77	/city/cheboksary	/city/cheboksary	<i class="rub">q</i>
2.1	bigger_worse	5	114	Березники	10.12	78	/city/berezniki	/city/berezniki	<i class="rub">q</i>
2.1	bigger_worse	2	155	Арзамас	10.11	79	/city/arzamas	/city/arzamas	<i class="rub">q</i>
2.1	bigger_worse	-2	79	Дзержинск	10.1	80	/city/dzerzhinsk	/city/dzerzhinsk	<i class="rub">q</i>
2.1	bigger_worse	-2	35	Набережные Челны	10.06	81	/city/naberezhnye-chelny	/city/naberezhnye-chelny	<i class="rub">q</i>
2.1	bigger_worse	4	107	Каменск-Уральский	10.02	82	/city/kamensk-uralskiy	/city/kamensk-uralskiy	<i class="rub">q</i>
2	bigger_worse	1	86	Старый Оскол	10	83	/city/staryy-oskol	/city/staryy-oskol	<i class="rub">q</i>
2	bigger_worse	-7	96	Армавир	9.89	84	/city/armavir	/city/armavir	<i class="rub">q</i>
2	bigger_worse	3	22	Ульяновск	9.81	85	/city/ulyanovsk	/city/ulyanovsk	<i class="rub">q</i>
2	bigger_worse	20	73	Йошкар-Ола	9.8	86	/city/yoshkar-ola	/city/yoshkar-ola	<i class="rub">q</i>
1.9	bigger_worse	2	3	Новосибирск	9.78	87	/city/novosibirsk	/city/novosibirsk	<i class="rub">q</i>
1.9	bigger_worse	2	5	Нижний Новгород	9.76	88	/city/nizhniy-novgorod	/city/nizhniy-novgorod	<i class="rub">q</i>
1.9	bigger_worse	13	4	Екатеринбург	9.73	89	/city/ekaterinburg	/city/ekaterinburg	<i class="rub">q</i>
1.9	bigger_worse	11	29	Новокузнецк	9.73	90	/city/novokuzneck	/city/novokuzneck	<i class="rub">q</i>
1.9	bigger_worse	-6	46	Иваново	9.71	91	/city/ivanovo	/city/ivanovo	<i class="rub">q</i>
1.9	bigger_worse	7	81	Орск	9.71	92	/city/orsk	/city/orsk	<i class="rub">q</i>
1.9	bigger_worse	5	87	Великий Новгород	9.71	93	/city/velikiy-novgorod	/city/velikiy-novgorod	<i class="rub">q</i>
1.9	bigger_worse	-3	64	Саранск	9.7	94	/city/saransk	/city/saransk	<i class="rub">q</i>
1.9	bigger_worse	-1	68	Стерлитамак	9.64	95	/city/sterlitamak	/city/sterlitamak	<i class="rub">q</i>
1.9	bigger_worse	7	38	Киров	9.6	96	/city/kirov	/city/kirov	<i class="rub">q</i>
1.9	bigger_worse	-10	128	Красногорск	9.6	97	/city/krasnogorsk	/city/krasnogorsk	<i class="rub">q</i>
1.9	bigger_worse	-18	135	Орехово-Зуево	9.59	98	/city/orehovo-zuevo	/city/orehovo-zuevo	<i class="rub">q</i>
1.9	bigger_worse	-2	28	Оренбург	9.58	99	/city/orenburg	/city/orenburg	<i class="rub">q</i>
1.9	bigger_worse	-4	132	Первоуральск	9.58	100	/city/pervouralsk	/city/pervouralsk	<i class="rub">q</i>
1.9	bigger_worse	-8	69	Кострома	9.57	101	/city/kostroma	/city/kostroma	<i class="rub">q</i>
1.8	bigger_worse	-10	50	Нижний Тагил	9.51	102	/city/nizhniy-tagil	/city/nizhniy-tagil	<i class="rub">q</i>
1.8	bigger_worse	1	154	Обнинск	9.47	103	/city/obninsk	/city/obninsk	<i class="rub">q</i>
1.8	bigger_worse	1	44	Магнитогорск	9.43	104	/city/magnitogorsk	/city/magnitogorsk	<i class="rub">q</i>
1.8	bigger_worse	2	18	Тольятти	9.4	105	/city/tolyatti	/city/tolyatti	<i class="rub">q</i>
1.8	bigger_worse	2	75	Новороссийск	9.39	106	/city/novorossiysk	/city/novorossiysk	<i class="rub">q</i>
1.8	bigger_worse	2	6	Казань	9.36	107	/city/kazan	/city/kazan	<i class="rub">q</i>
1.8	bigger_worse	-13	59	Орёл	9.35	108	/city/orel	/city/orel	<i class="rub">q</i>
1.8	bigger_worse	-9	7	Самара	9.34	109	/city/samara	/city/samara	<i class="rub">q</i>
1.7	bigger_worse	1	45	Брянск	9.28	110	/city/bryansk	/city/bryansk	<i class="rub">q</i>
1.7	bigger_worse	1	66	Тамбов	9.28	111	/city/tambov	/city/tambov	<i class="rub">q</i>
1.7	bigger_worse	-2	9	Челябинск	9.21	112	/city/chelyabinsk	/city/chelyabinsk	<i class="rub">q</i>
1.7	bigger_worse	4	31	Кемерово	9.2	113	/city/kemerovo	/city/kemerovo	<i class="rub">q</i>
1.7	bigger_worse	-1	8	Омск	9.18	114	/city/omsk	/city/omsk	<i class="rub">q</i>
1.7	bigger_worse	6	57	Курган	9.18	115	/city/kurgan	/city/kurgan	<i class="rub">q</i>
1.7	bigger_worse	3	134	Нефтекамск	9.12	116	/city/neftekamsk	/city/neftekamsk	<i class="rub">q</i>
1.6	bigger_worse	1	11	Уфа	9.09	117	/city/ufa	/city/ufa	<i class="rub">q</i>
1.6	bigger_worse	-3	48	Белгород	9.09	118	/city/belgorod	/city/belgorod	<i class="rub">q</i>
1.6	bigger_worse	-3	93	Прокопьевск	9.07	119	/city/prokopevsk	/city/prokopevsk	<i class="rub">q</i>
1.6	bigger_worse	-6	25	Ярославль	9.06	120	/city/yaroslavl	/city/yaroslavl	<i class="rub">q</i>
1.6	bigger_worse	-1	15	Воронеж	8.94	121	/city/voronezh	/city/voronezh	<i class="rub">q</i>
1.6	bigger_worse	4	136	Димитровград	8.94	122	/city/dimitrovgrad	/city/dimitrovgrad	<i class="rub">q</i>
1.4	bigger_worse	0	36	Липецк	8.62	123	/city/lipeck	/city/lipeck	<i class="rub">q</i>
1.4	bigger_worse	1	41	Курск	8.52	124	/city/kursk	/city/kursk	<i class="rub">q</i>
1.4	bigger_worse	3	92	Бийск	8.5	125	/city/biysk	/city/biysk	<i class="rub">q</i>
1.4	bigger_worse	-2	33	Астрахань	8.47	126	/city/astrahan	/city/astrahan	<i class="rub">q</i>
1.4	bigger_worse	-5	21	Барнаул	8.46	127	/city/barnaul	/city/barnaul	<i class="rub">q</i>
1.4	bigger_worse	-1	53	Калуга	8.46	128	/city/kaluga	/city/kaluga	<i class="rub">q</i>
1.3	bigger_worse	0	104	Сызрань	8.34	129	/city/syzran	/city/syzran	<i class="rub">q</i>
1.3	bigger_worse	0	115	Миасс	8.28	130	/city/miass	/city/miass	<i class="rub">q</i>
1.2	bigger_worse	0	151	Елец	8.01	131	/city/elec	/city/elec	<i class="rub">q</i>
1.1	bigger_worse	2	95	Балаково	7.95	132	/city/balakovo	/city/balakovo	<i class="rub">q</i>
1.1	bigger_worse	0	34	Пенза	7.83	133	/city/penza	/city/penza	<i class="rub">q</i>
1.1	bigger_worse	1	16	Саратов	7.82	134	/city/saratov	/city/saratov	<i class="rub">q</i>
1.1	bigger_worse	-3	117	Рубцовск	7.78	135	/city/rubcovsk	/city/rubcovsk	<i class="rub">q</i>
1	bigger_worse	1	139	Камышин	7.71	136	/city/kamyshin	/city/kamyshin	<i class="rub">q</i>
1	bigger_worse	-1	12	Волгоград	7.63	137	/city/volgograd	/city/volgograd	<i class="rub">q</i>
