epochs	information_source	description	name	epoch	display	type	short_name	stat
["2014.12","2014.11","2014.10","2014.09","2014.08","2014.07","2014.06","2014.05","2014.04","2014.03","2014.02","2014.01","2013.12","2013.11","2013.10","2013.09","2013.08","2013.07","2013.06","2013.05","2013.04","2013.03","2013.02","2013.01"]	Росриэлт	Актуальная средняя стоимость 1 кв.м жилья отражает актуальное состояние рынка недвижимости в городе. Рейтинг составляется как из показателей стоимости квартир в новостройках, так и из данных по вторичному жилищному фонду 	Покупка жилья	2014.12	value	city	the_cost_of_housing	143


rate	order	rate_grow	object_id	object_name	value	rating_place	url	object_url	units
10	bigger_worse	0	1	Москва	230746	1	/city/moskva	/city/moskva	<i class="rub">q</i>
4.6	bigger_worse	0	85	Химки	111414	2	/city/himki	/city/himki	<i class="rub">q</i>
4.2	bigger_worse	0	99	Королёв	103122	3	/city/korolev	/city/korolev	<i class="rub">q</i>
4.1	bigger_worse	0	2	Санкт-Петербург	101729	4	/city/sankt-peterburg	/city/sankt-peterburg	<i class="rub">q</i>
3.9	bigger_worse	0	140	Новый Уренгой	97321	5	/city/novyy-urengoy	/city/novyy-urengoy	<i class="rub">q</i>
3.9	bigger_worse	0	153	Жуковский	95919	6	/city/zhukovskiy	/city/zhukovskiy	<i class="rub">q</i>
3.5	bigger_worse	0	83	Балашиха	88175	7	/city/balashiha	/city/balashiha	<i class="rub">q</i>
3.5	bigger_worse	0	90	Подольск	87180	8	/city/podolsk	/city/podolsk	<i class="rub">q</i>
3.4	bigger_worse	0	58	Сургут	85956	9	/city/surgut	/city/surgut	<i class="rub">q</i>
3.3	bigger_worse	0	157	Домодедово	83405	10	/city/domodedovo	/city/domodedovo	<i class="rub">q</i>
3.2	bigger_worse	0	26	Хабаровск	80038	11	/city/habarovsk	/city/habarovsk	<i class="rub">q</i>
3.1	bigger_worse	0	154	Обнинск	78512	12	/city/obninsk	/city/obninsk	<i class="rub">q</i>
2.9	bigger_worse	1	11	Уфа	74909	13	/city/ufa	/city/ufa	<i class="rub">q</i>
2.9	bigger_worse	-1	4	Екатеринбург	74584	14	/city/ekaterinburg	/city/ekaterinburg	<i class="rub">q</i>
2.8	bigger_worse	0	5	Нижний Новгород	72610	15	/city/nizhniy-novgorod	/city/nizhniy-novgorod	<i class="rub">q</i>
2.7	bigger_worse	0	49	Сочи	69417	16	/city/sochi	/city/sochi	<i class="rub">q</i>
2.6	bigger_worse	0	71	Нижневартовск	67114	17	/city/nizhnevartovsk	/city/nizhnevartovsk	<i class="rub">q</i>
2.5	bigger_worse	2	6	Казань	66008	18	/city/kazan	/city/kazan	<i class="rub">q</i>
2.5	bigger_worse	-1	112	Электросталь	65791	19	/city/elektrostal	/city/elektrostal	<i class="rub">q</i>
2.5	bigger_worse	1	48	Белгород	64519	20	/city/belgorod	/city/belgorod	<i class="rub">q</i>
2.4	bigger_worse	1	19	Тюмень	64283	21	/city/tyumen	/city/tyumen	<i class="rub">q</i>
2.4	bigger_worse	-3	13	Красноярск	64274	22	/city/krasnoyarsk	/city/krasnoyarsk	<i class="rub">q</i>
2.4	bigger_worse	0	10	Ростов-на-Дону	64037	23	/city/rostov-na-donu	/city/rostov-na-donu	<i class="rub">q</i>
2.4	bigger_worse	0	7	Самара	63979	24	/city/samara	/city/samara	<i class="rub">q</i>
2.4	bigger_worse	1	3	Новосибирск	63795	25	/city/novosibirsk	/city/novosibirsk	<i class="rub">q</i>
2.4	bigger_worse	-1	53	Калуга	63283	26	/city/kaluga	/city/kaluga	<i class="rub">q</i>
2.3	bigger_worse	1	129	Серпухов	60790	27	/city/serpuhov	/city/serpuhov	<i class="rub">q</i>
2.3	bigger_worse	-1	88	Благовещенск	60368	28	/city/blagoveschensk	/city/blagoveschensk	<i class="rub">q</i>
2.3	bigger_worse	1	40	Калининград	60201	29	/city/kaliningrad	/city/kaliningrad	<i class="rub">q</i>
2.1	bigger_worse	-1	23	Иркутск	57426	30	/city/irkutsk	/city/irkutsk	<i class="rub">q</i>
2.1	bigger_worse	1	25	Ярославль	57122	31	/city/yaroslavl	/city/yaroslavl	<i class="rub">q</i>
2.1	bigger_worse	-1	14	Пермь	56759	32	/city/perm	/city/perm	<i class="rub">q</i>
2	bigger_worse	0	75	Новороссийск	55170	33	/city/novorossiysk	/city/novorossiysk	<i class="rub">q</i>
2	bigger_worse	0	110	Находка	54858	34	/city/nahodka	/city/nahodka	<i class="rub">q</i>
2	bigger_worse	0	31	Кемерово	54544	35	/city/kemerovo	/city/kemerovo	<i class="rub">q</i>
2	bigger_worse	2	28	Оренбург	53847	36	/city/orenburg	/city/orenburg	<i class="rub">q</i>
2	bigger_worse	-1	37	Тула	53799	37	/city/tula	/city/tula	<i class="rub">q</i>
2	bigger_worse	-1	64	Саранск	53570	38	/city/saransk	/city/saransk	<i class="rub">q</i>
1.9	bigger_worse	0	52	Владимир	52611	39	/city/vladimir	/city/vladimir	<i class="rub">q</i>
1.9	bigger_worse	1	54	Чита	52571	40	/city/chita	/city/chita	<i class="rub">q</i>
1.9	bigger_worse	-1	30	Томск	52385	41	/city/tomsk	/city/tomsk	<i class="rub">q</i>
1.9	bigger_worse	1	12	Волгоград	51842	42	/city/volgograd	/city/volgograd	<i class="rub">q</i>
1.9	bigger_worse	-1	39	Чебоксары	51650	43	/city/cheboksary	/city/cheboksary	<i class="rub">q</i>
1.9	bigger_worse	0	21	Барнаул	51572	44	/city/barnaul	/city/barnaul	<i class="rub">q</i>
1.9	bigger_worse	1	17	Краснодар	51103	45	/city/krasnodar	/city/krasnodar	<i class="rub">q</i>
1.8	bigger_worse	2	15	Воронеж	50936	46	/city/voronezh	/city/voronezh	<i class="rub">q</i>
1.8	bigger_worse	-2	135	Орехово-Зуево	50873	47	/city/orehovo-zuevo	/city/orehovo-zuevo	<i class="rub">q</i>
1.8	bigger_worse	-1	42	Улан-Удэ	50164	48	/city/ulan-ude	/city/ulan-ude	<i class="rub">q</i>
1.8	bigger_worse	0	141	Батайск	49709	49	/city/bataysk	/city/bataysk	<i class="rub">q</i>
1.8	bigger_worse	1	8	Омск	49357	50	/city/omsk	/city/omsk	<i class="rub">q</i>
1.8	bigger_worse	2	38	Киров	49183	51	/city/kirov	/city/kirov	<i class="rub">q</i>
1.8	bigger_worse	0	55	Смоленск	49020	52	/city/smolensk	/city/smolensk	<i class="rub">q</i>
1.7	bigger_worse	-3	36	Липецк	48785	53	/city/lipeck	/city/lipeck	<i class="rub">q</i>
1.7	bigger_worse	2	20	Ижевск	48017	54	/city/izhevsk	/city/izhevsk	<i class="rub">q</i>
1.7	bigger_worse	0	33	Астрахань	47920	55	/city/astrahan	/city/astrahan	<i class="rub">q</i>
1.7	bigger_worse	-2	34	Пенза	47811	56	/city/penza	/city/penza	<i class="rub">q</i>
1.7	bigger_worse	1	118	Пятигорск	47272	57	/city/pyatigorsk	/city/pyatigorsk	<i class="rub">q</i>
1.6	bigger_worse	3	50	Нижний Тагил	46487	58	/city/nizhniy-tagil	/city/nizhniy-tagil	<i class="rub">q</i>
1.6	bigger_worse	0	59	Орёл	46431	59	/city/orel	/city/orel	<i class="rub">q</i>
1.6	bigger_worse	2	133	Новочебоксарск	46147	60	/city/novocheboksarsk	/city/novocheboksarsk	<i class="rub">q</i>
1.6	bigger_worse	3	22	Ульяновск	45863	61	/city/ulyanovsk	/city/ulyanovsk	<i class="rub">q</i>
1.6	bigger_worse	-2	9	Челябинск	45343	62	/city/chelyabinsk	/city/chelyabinsk	<i class="rub">q</i>
1.6	bigger_worse	-6	46	Иваново	45320	63	/city/ivanovo	/city/ivanovo	<i class="rub">q</i>
1.5	bigger_worse	-1	41	Курск	43692	64	/city/kursk	/city/kursk	<i class="rub">q</i>
1.5	bigger_worse	1	126	Кисловодск	43515	65	/city/kislovodsk	/city/kislovodsk	<i class="rub">q</i>
1.5	bigger_worse	-1	84	Ангарск	43477	66	/city/angarsk	/city/angarsk	<i class="rub">q</i>
1.4	bigger_worse	2	86	Старый Оскол	42106	67	/city/staryy-oskol	/city/staryy-oskol	<i class="rub">q</i>
1.4	bigger_worse	-1	61	Владикавказ	42060	68	/city/vladikavkaz	/city/vladikavkaz	<i class="rub">q</i>
1.4	bigger_worse	1	16	Саратов	42021	69	/city/saratov	/city/saratov	<i class="rub">q</i>
1.4	bigger_worse	-2	57	Курган	41133	70	/city/kurgan	/city/kurgan	<i class="rub">q</i>
1.3	bigger_worse	0	74	Таганрог	39707	71	/city/taganrog	/city/taganrog	<i class="rub">q</i>
1.3	bigger_worse	3	92	Бийск	39104	72	/city/biysk	/city/biysk	<i class="rub">q</i>
1.3	bigger_worse	-1	45	Брянск	39038	73	/city/bryansk	/city/bryansk	<i class="rub">q</i>
1.3	bigger_worse	0	94	Рыбинск	38868	74	/city/rybinsk	/city/rybinsk	<i class="rub">q</i>
1.3	bigger_worse	-2	29	Новокузнецк	38255	75	/city/novokuzneck	/city/novokuzneck	<i class="rub">q</i>
1.3	bigger_worse	1	89	Энгельс	37948	76	/city/engels	/city/engels	<i class="rub">q</i>
1.2	bigger_worse	-1	43	Ставрополь	37281	77	/city/stavropol	/city/stavropol	<i class="rub">q</i>
1.2	bigger_worse	0	27	Махачкала	36307	78	/city/mahachkala	/city/mahachkala	<i class="rub">q</i>
1.1	bigger_worse	0	162	Ессентуки	34724	79	/city/essentuki	/city/essentuki	<i class="rub">q</i>
1	bigger_worse	0	76	Братск	32651	80	/city/bratsk	/city/bratsk	<i class="rub">q</i>
1	bigger_worse	0	44	Магнитогорск	32357	81	/city/magnitogorsk	/city/magnitogorsk	<i class="rub">q</i>
