epochs	information_source	description	name	epoch	display	type	short_name	stat
["2013"]	Министерство образования и науки РФ	Рейтинг городов по количеству высших учебных заведений.	Количество вузов	2013	value	city	univesities	358


rate	order	rate_grow	object_id	object_name	value	rating_place	url	object_url	units
10	bigger_better	0	1	Москва	298	1	/city/moskva	/city/moskva	ед
4.3	bigger_better	0	2	Санкт-Петербург	109	2	/city/sankt-peterburg	/city/sankt-peterburg	ед
2.3	bigger_better	0	4	Екатеринбург	43	3	/city/ekaterinburg	/city/ekaterinburg	ед
2.1	bigger_better	0	3	Новосибирск	37	4	/city/novosibirsk	/city/novosibirsk	ед
2.1	bigger_better	0	7	Самара	37	5	/city/samara	/city/samara	ед
2.1	bigger_better	0	10	Ростов-на-Дону	36	6	/city/rostov-na-donu	/city/rostov-na-donu	ед
2	bigger_better	0	5	Нижний Новгород	35	7	/city/nizhniy-novgorod	/city/nizhniy-novgorod	ед
2	bigger_better	0	6	Казань	34	8	/city/kazan	/city/kazan	ед
2	bigger_better	0	15	Воронеж	33	9	/city/voronezh	/city/voronezh	ед
1.9	bigger_better	0	17	Краснодар	31	10	/city/krasnodar	/city/krasnodar	ед
1.9	bigger_better	0	14	Пермь	30	11	/city/perm	/city/perm	ед
1.8	bigger_better	0	8	Омск	29	12	/city/omsk	/city/omsk	ед
1.8	bigger_better	0	9	Челябинск	29	13	/city/chelyabinsk	/city/chelyabinsk	ед
1.8	bigger_better	0	43	Ставрополь	28	14	/city/stavropol	/city/stavropol	ед
1.8	bigger_better	0	55	Смоленск	27	15	/city/smolensk	/city/smolensk	ед
1.8	bigger_better	0	11	Уфа	26	16	/city/ufa	/city/ufa	ед
1.8	bigger_better	0	13	Красноярск	26	17	/city/krasnoyarsk	/city/krasnoyarsk	ед
1.7	bigger_better	0	26	Хабаровск	25	18	/city/habarovsk	/city/habarovsk	ед
1.7	bigger_better	0	12	Волгоград	24	19	/city/volgograd	/city/volgograd	ед
1.7	bigger_better	0	27	Махачкала	24	20	/city/mahachkala	/city/mahachkala	ед
1.7	bigger_better	0	40	Калининград	23	21	/city/kaliningrad	/city/kaliningrad	ед
1.6	bigger_better	0	32	Рязань	22	22	/city/ryazan	/city/ryazan	ед
1.6	bigger_better	0	38	Киров	22	23	/city/kirov	/city/kirov	ед
1.6	bigger_better	0	16	Саратов	21	24	/city/saratov	/city/saratov	ед
1.6	bigger_better	0	25	Ярославль	21	25	/city/yaroslavl	/city/yaroslavl	ед
1.6	bigger_better	0	41	Курск	21	26	/city/kursk	/city/kursk	ед
1.6	bigger_better	0	63	Мурманск	21	27	/city/murmansk	/city/murmansk	ед
1.6	bigger_better	0	65	Якутск	21	28	/city/yakutsk	/city/yakutsk	ед
1.6	bigger_better	0	21	Барнаул	20	29	/city/barnaul	/city/barnaul	ед
1.6	bigger_better	0	35	Набережные Челны	20	30	/city/naberezhnye-chelny	/city/naberezhnye-chelny	ед
1.5	bigger_better	0	18	Тольятти	19	31	/city/tolyatti	/city/tolyatti	ед
1.5	bigger_better	0	23	Иркутск	19	32	/city/irkutsk	/city/irkutsk	ед
1.5	bigger_better	0	28	Оренбург	19	33	/city/orenburg	/city/orenburg	ед
1.5	bigger_better	0	33	Астрахань	19	34	/city/astrahan	/city/astrahan	ед
1.5	bigger_better	0	45	Брянск	19	35	/city/bryansk	/city/bryansk	ед
1.5	bigger_better	0	51	Архангельск	19	36	/city/arhangelsk	/city/arhangelsk	ед
1.5	bigger_better	0	20	Ижевск	18	37	/city/izhevsk	/city/izhevsk	ед
1.5	bigger_better	0	30	Томск	18	38	/city/tomsk	/city/tomsk	ед
1.5	bigger_better	0	39	Чебоксары	18	39	/city/cheboksary	/city/cheboksary	ед
1.5	bigger_better	0	37	Тула	17	40	/city/tula	/city/tula	ед
1.5	bigger_better	0	47	Тверь	17	41	/city/tver	/city/tver	ед
1.5	bigger_better	0	24	Владивосток	16	42	/city/vladivostok	/city/vladivostok	ед
1.5	bigger_better	0	36	Липецк	16	43	/city/lipeck	/city/lipeck	ед
1.5	bigger_better	0	46	Иваново	16	44	/city/ivanovo	/city/ivanovo	ед
1.4	bigger_better	0	19	Тюмень	15	45	/city/tyumen	/city/tyumen	ед
1.4	bigger_better	0	34	Пенза	15	46	/city/penza	/city/penza	ед
1.4	bigger_better	0	49	Сочи	15	47	/city/sochi	/city/sochi	ед
1.4	bigger_better	0	31	Кемерово	14	48	/city/kemerovo	/city/kemerovo	ед
1.4	bigger_better	0	42	Улан-Удэ	13	49	/city/ulan-ude	/city/ulan-ude	ед
1.4	bigger_better	0	61	Владикавказ	13	50	/city/vladikavkaz	/city/vladikavkaz	ед
1.4	bigger_better	0	118	Пятигорск	13	51	/city/pyatigorsk	/city/pyatigorsk	ед
1.4	bigger_better	0	137	Дербент	13	52	/city/derbent	/city/derbent	ед
1.3	bigger_better	0	48	Белгород	12	53	/city/belgorod	/city/belgorod	ед
1.3	bigger_better	0	70	Петрозаводск	12	54	/city/petrozavodsk	/city/petrozavodsk	ед
1.3	bigger_better	0	91	Псков	12	55	/city/pskov	/city/pskov	ед
1.3	bigger_better	0	22	Ульяновск	11	56	/city/ulyanovsk	/city/ulyanovsk	ед
1.3	bigger_better	0	29	Новокузнецк	11	57	/city/novokuzneck	/city/novokuzneck	ед
1.3	bigger_better	0	52	Владимир	11	58	/city/vladimir	/city/vladimir	ед
1.3	bigger_better	0	58	Сургут	11	59	/city/surgut	/city/surgut	ед
1.3	bigger_better	0	59	Орёл	11	60	/city/orel	/city/orel	ед
1.3	bigger_better	0	66	Тамбов	11	61	/city/tambov	/city/tambov	ед
1.3	bigger_better	0	71	Нижневартовск	11	62	/city/nizhnevartovsk	/city/nizhnevartovsk	ед
1.3	bigger_better	0	75	Новороссийск	11	63	/city/novorossiysk	/city/novorossiysk	ед
1.3	bigger_better	0	62	Вологда	10	64	/city/vologda	/city/vologda	ед
1.3	bigger_better	0	77	Сыктывкар	10	65	/city/syktyvkar	/city/syktyvkar	ед
1.3	bigger_better	0	88	Благовещенск	10	66	/city/blagoveschensk	/city/blagoveschensk	ед
1.3	bigger_better	0	100	Петропавловск-Камчатский	10	67	/city/petropavlovsk-kamchatskiy	/city/petropavlovsk-kamchatskiy	ед
1.2	bigger_better	0	60	Череповец	9	68	/city/cherepovec	/city/cherepovec	ед
1.2	bigger_better	0	96	Армавир	9	69	/city/armavir	/city/armavir	ед
1.2	bigger_better	0	44	Магнитогорск	8	70	/city/magnitogorsk	/city/magnitogorsk	ед
1.2	bigger_better	0	50	Нижний Тагил	8	71	/city/nizhniy-tagil	/city/nizhniy-tagil	ед
1.2	bigger_better	0	54	Чита	8	72	/city/chita	/city/chita	ед
1.2	bigger_better	0	56	Волжский	8	73	/city/volzhskiy	/city/volzhskiy	ед
1.2	bigger_better	0	64	Саранск	8	74	/city/saransk	/city/saransk	ед
1.2	bigger_better	0	68	Стерлитамак	8	75	/city/sterlitamak	/city/sterlitamak	ед
1.2	bigger_better	0	78	Нальчик	8	76	/city/nalchik	/city/nalchik	ед
1.2	bigger_better	0	97	Южно-Сахалинск	8	77	/city/yuzhno-sahalinsk	/city/yuzhno-sahalinsk	ед
1.2	bigger_better	0	111	Уссурийск	8	78	/city/ussuriysk	/city/ussuriysk	ед
1.2	bigger_better	0	120	Майкоп	8	79	/city/maykop	/city/maykop	ед
1.2	bigger_better	0	57	Курган	7	80	/city/kurgan	/city/kurgan	ед
1.2	bigger_better	0	73	Йошкар-Ола	7	81	/city/yoshkar-ola	/city/yoshkar-ola	ед
1.2	bigger_better	0	82	Нижнекамск	7	82	/city/nizhnekamsk	/city/nizhnekamsk	ед
1.2	bigger_better	0	87	Великий Новгород	7	83	/city/velikiy-novgorod	/city/velikiy-novgorod	ед
1.2	bigger_better	0	110	Находка	7	84	/city/nahodka	/city/nahodka	ед
1.2	bigger_better	0	129	Серпухов	7	85	/city/serpuhov	/city/serpuhov	ед
1.2	bigger_better	0	130	Черкесск	7	86	/city/cherkessk	/city/cherkessk	ед
1.2	bigger_better	0	158	Элиста	7	87	/city/elista	/city/elista	ед
1.2	bigger_better	0	69	Кострома	6	88	/city/kostroma	/city/kostroma	ед
1.2	bigger_better	0	74	Таганрог	6	89	/city/taganrog	/city/taganrog	ед
1.2	bigger_better	0	80	Шахты	6	90	/city/shahty	/city/shahty	ед
1.2	bigger_better	0	81	Орск	6	91	/city/orsk	/city/orsk	ед
1.2	bigger_better	0	93	Прокопьевск	6	92	/city/prokopevsk	/city/prokopevsk	ед
1.2	bigger_better	0	108	Волгодонск	6	93	/city/volgodonsk	/city/volgodonsk	ед
1.2	bigger_better	0	112	Электросталь	6	94	/city/elektrostal	/city/elektrostal	ед
1.2	bigger_better	0	116	Альметьевск	6	95	/city/almetevsk	/city/almetevsk	ед
1.2	bigger_better	0	136	Димитровград	6	96	/city/dimitrovgrad	/city/dimitrovgrad	ед
1.2	bigger_better	0	150	Ноябрьск	6	97	/city/noyabrsk	/city/noyabrsk	ед
1.2	bigger_better	0	154	Обнинск	6	98	/city/obninsk	/city/obninsk	ед
1.1	bigger_better	0	79	Дзержинск	5	99	/city/dzerzhinsk	/city/dzerzhinsk	ед
1.1	bigger_better	0	83	Балашиха	5	100	/city/balashiha	/city/balashiha	ед
1.1	bigger_better	0	85	Химки	5	101	/city/himki	/city/himki	ед
1.1	bigger_better	0	92	Бийск	5	102	/city/biysk	/city/biysk	ед
1.1	bigger_better	0	94	Рыбинск	5	103	/city/rybinsk	/city/rybinsk	ед
1.1	bigger_better	0	95	Балаково	5	104	/city/balakovo	/city/balakovo	ед
1.1	bigger_better	0	101	Люберцы	5	105	/city/lyubercy	/city/lyubercy	ед
1.1	bigger_better	0	103	Норильск	5	106	/city/norilsk	/city/norilsk	ед
1.1	bigger_better	0	109	Абакан	5	107	/city/abakan	/city/abakan	ед
1.1	bigger_better	0	148	Ачинск	5	108	/city/achinsk	/city/achinsk	ед
1.1	bigger_better	0	149	Сергиев Посад	5	109	/city/sergiev-posad	/city/sergiev-posad	ед
1.1	bigger_better	0	155	Арзамас	5	110	/city/arzamas	/city/arzamas	ед
1.1	bigger_better	0	72	Комсомольск-на-Амуре	4	111	/city/komsomolsk-na-amure	/city/komsomolsk-na-amure	ед
1.1	bigger_better	0	76	Братск	4	112	/city/bratsk	/city/bratsk	ед
1.1	bigger_better	0	86	Старый Оскол	4	113	/city/staryy-oskol	/city/staryy-oskol	ед
1.1	bigger_better	0	90	Подольск	4	114	/city/podolsk	/city/podolsk	ед
1.1	bigger_better	0	113	Салават	4	115	/city/salavat	/city/salavat	ед
1.1	bigger_better	0	119	Коломна	4	116	/city/kolomna	/city/kolomna	ед
1.1	bigger_better	0	125	Хасавюрт	4	117	/city/hasavyurt	/city/hasavyurt	ед
1.1	bigger_better	0	126	Кисловодск	4	118	/city/kislovodsk	/city/kislovodsk	ед
1.1	bigger_better	0	131	Нефтеюганск	4	119	/city/nefteyugansk	/city/nefteyugansk	ед
1.1	bigger_better	0	135	Орехово-Зуево	4	120	/city/orehovo-zuevo	/city/orehovo-zuevo	ед
1.1	bigger_better	0	140	Новый Уренгой	4	121	/city/novyy-urengoy	/city/novyy-urengoy	ед
1.1	bigger_better	0	153	Жуковский	4	122	/city/zhukovskiy	/city/zhukovskiy	ед
1.1	bigger_better	0	162	Ессентуки	4	123	/city/essentuki	/city/essentuki	ед
1.1	bigger_better	0	67	Грозный	3	124	/city/groznyy	/city/groznyy	ед
1.1	bigger_better	0	84	Ангарск	3	125	/city/angarsk	/city/angarsk	ед
1.1	bigger_better	0	102	Мытищи	3	126	/city/mytischi	/city/mytischi	ед
1.1	bigger_better	0	104	Сызрань	3	127	/city/syzran	/city/syzran	ед
1.1	bigger_better	0	106	Златоуст	3	128	/city/zlatoust	/city/zlatoust	ед
1.1	bigger_better	0	107	Каменск-Уральский	3	129	/city/kamensk-uralskiy	/city/kamensk-uralskiy	ед
1.1	bigger_better	0	114	Березники	3	130	/city/berezniki	/city/berezniki	ед
1.1	bigger_better	0	115	Миасс	3	131	/city/miass	/city/miass	ед
1.1	bigger_better	0	117	Рубцовск	3	132	/city/rubcovsk	/city/rubcovsk	ед
1.1	bigger_better	0	124	Одинцово	3	133	/city/odincovo	/city/odincovo	ед
1.1	bigger_better	0	133	Новочебоксарск	3	134	/city/novocheboksarsk	/city/novocheboksarsk	ед
1.1	bigger_better	0	138	Невинномысск	3	135	/city/nevinnomyssk	/city/nevinnomyssk	ед
1.1	bigger_better	0	144	Муром	3	136	/city/murom	/city/murom	ед
1.1	bigger_better	0	145	Октябрьский	3	137	/city/oktyabrskiy	/city/oktyabrskiy	ед
1.1	bigger_better	0	146	Новошахтинск	3	138	/city/novoshahtinsk	/city/novoshahtinsk	ед
1.1	bigger_better	0	151	Елец	3	139	/city/elec	/city/elec	ед
1.1	bigger_better	0	160	Назрань	3	140	/city/nazran	/city/nazran	ед
1.1	bigger_better	0	161	Артём	3	141	/city/artem	/city/artem	ед
1	bigger_better	0	89	Энгельс	2	142	/city/engels	/city/engels	ед
1	bigger_better	0	98	Северодвинск	2	143	/city/severodvinsk	/city/severodvinsk	ед
1	bigger_better	0	99	Королёв	2	144	/city/korolev	/city/korolev	ед
1	bigger_better	0	105	Новочеркасск	2	145	/city/novocherkassk	/city/novocherkassk	ед
1	bigger_better	0	121	Ковров	2	146	/city/kovrov	/city/kovrov	ед
1	bigger_better	0	127	Новомосковск	2	147	/city/novomoskovsk	/city/novomoskovsk	ед
1	bigger_better	0	128	Красногорск	2	148	/city/krasnogorsk	/city/krasnogorsk	ед
1	bigger_better	0	134	Нефтекамск	2	149	/city/neftekamsk	/city/neftekamsk	ед
1	bigger_better	0	139	Камышин	2	150	/city/kamyshin	/city/kamyshin	ед
1	bigger_better	0	141	Батайск	2	151	/city/bataysk	/city/bataysk	ед
1	bigger_better	0	142	Кызыл	2	152	/city/kyzyl	/city/kyzyl	ед
1	bigger_better	0	157	Домодедово	2	153	/city/domodedovo	/city/domodedovo	ед
1	bigger_better	0	166	Сарапул	2	154	/city/sarapul	/city/sarapul	ед
1	bigger_better	0	122	Железнодорожный	1	155	/city/zheleznodorozhnyy	/city/zheleznodorozhnyy	ед
1	bigger_better	0	132	Первоуральск	1	156	/city/pervouralsk	/city/pervouralsk	ед
1	bigger_better	0	156	Пушкино	1	157	/city/pushkino	/city/pushkino	ед
1	bigger_better	0	159	Каспийск	1	158	/city/kaspiysk	/city/kaspiysk	ед
1	bigger_better	0	163	Ногинск	1	159	/city/noginsk	/city/noginsk	ед
1	bigger_better	0	164	Раменское	1	160	/city/ramenskoe	/city/ramenskoe	ед
1	bigger_better	0	165	Бердск	1	161	/city/berdsk	/city/berdsk	ед
