epochs	information_source	description	name	epoch	display	type	short_name	stat
["2013","2012","2011"]	Российский союз инженеров	Рейтинг городов по индексу привлекательности городской среды. Индекс рассчитывается по 13 показателям состояния и динамики развития города.	Привлекательность городской среды	2013	value	city	urban_attractiveness	9


rate	order	rate_grow	object_id	object_name	value	rating_place	url	object_url	units
10	bigger_better	0	1	Москва	56.14	1	/city/moskva	/city/moskva	
6.9	bigger_better	0	2	Санкт-Петербург	44.31	2	/city/sankt-peterburg	/city/sankt-peterburg	
6.8	bigger_better	3	6	Казань	43.67	3	/city/kazan	/city/kazan	
6.4	bigger_better	3	3	Новосибирск	42.4	4	/city/novosibirsk	/city/novosibirsk	
6.2	bigger_better	0	4	Екатеринбург	41.59	5	/city/ekaterinburg	/city/ekaterinburg	
6.2	bigger_better	-2	90	Подольск	41.41	6	/city/podolsk	/city/podolsk	
6.1	bigger_better	-4	17	Краснодар	41.24	7	/city/krasnodar	/city/krasnodar	
6	bigger_better	1	83	Балашиха	40.66	8	/city/balashiha	/city/balashiha	
5.8	bigger_better	1	124	Одинцово	40.08	9	/city/odincovo	/city/odincovo	
5.8	bigger_better	13	48	Белгород	40.02	10	/city/belgorod	/city/belgorod	
5.8	bigger_better	1	71	Нижневартовск	39.96	11	/city/nizhnevartovsk	/city/nizhnevartovsk	
5.8	bigger_better	-4	128	Красногорск	39.79	12	/city/krasnogorsk	/city/krasnogorsk	
5.7	bigger_better	12	10	Ростов-на-Дону	39.67	13	/city/rostov-na-donu	/city/rostov-na-donu	
5.5	bigger_better	4	157	Домодедово	38.69	14	/city/domodedovo	/city/domodedovo	
5.3	bigger_better	17	13	Красноярск	37.87	15	/city/krasnoyarsk	/city/krasnoyarsk	
5.3	bigger_better	10	24	Владивосток	37.87	16	/city/vladivostok	/city/vladivostok	
5.2	bigger_better	-2	156	Пушкино	37.41	17	/city/pushkino	/city/pushkino	
5	bigger_better	1	102	Мытищи	36.83	18	/city/mytischi	/city/mytischi	
4.1	bigger_better	1	153	Жуковский	33.47	19	/city/zhukovskiy	/city/zhukovskiy	
4.1	bigger_better	-3	99	Королёв	33.41	20	/city/korolev	/city/korolev	
4	bigger_better	3	122	Железнодорожный	33.12	21	/city/zheleznodorozhnyy	/city/zheleznodorozhnyy	
4	bigger_better	-6	164	Раменское	33.12	22	/city/ramenskoe	/city/ramenskoe	
4	bigger_better	-12	101	Люберцы	32.89	23	/city/lyubercy	/city/lyubercy	
3.9	bigger_better	-11	58	Сургут	32.54	24	/city/surgut	/city/surgut	
3.9	bigger_better	30	40	Калининград	32.48	25	/city/kaliningrad	/city/kaliningrad	
3.8	bigger_better	-5	116	Альметьевск	32.13	26	/city/almetevsk	/city/almetevsk	
3.8	bigger_better	-13	140	Новый Уренгой	32.02	27	/city/novyy-urengoy	/city/novyy-urengoy	
3.7	bigger_better	-6	143	Щёлково	31.96	28	/city/schelkovo	/city/schelkovo	
3.7	bigger_better	8	49	Сочи	31.9	29	/city/sochi	/city/sochi	
3.7	bigger_better	-3	85	Химки	31.9	30	/city/himki	/city/himki	
3.7	bigger_better	21	86	Старый Оскол	31.84	31	/city/staryy-oskol	/city/staryy-oskol	
3.7	bigger_better	11	37	Тула	31.67	32	/city/tula	/city/tula	
3.6	bigger_better	20	11	Уфа	31.55	33	/city/ufa	/city/ufa	
3.6	bigger_better	-1	62	Вологда	31.49	34	/city/vologda	/city/vologda	
3.6	bigger_better	-4	8	Омск	31.44	35	/city/omsk	/city/omsk	
3.6	bigger_better	13	149	Сергиев Посад	31.38	36	/city/sergiev-posad	/city/sergiev-posad	
3.5	bigger_better	4	36	Липецк	31.03	37	/city/lipeck	/city/lipeck	
3.5	bigger_better	-9	82	Нижнекамск	31.03	38	/city/nizhnekamsk	/city/nizhnekamsk	
3.5	bigger_better	-5	5	Нижний Новгород	30.86	39	/city/nizhniy-novgorod	/city/nizhniy-novgorod	
3.5	bigger_better	-12	108	Волгодонск	30.86	40	/city/volgodonsk	/city/volgodonsk	
3.5	bigger_better	1	131	Нефтеюганск	30.86	41	/city/nefteyugansk	/city/nefteyugansk	
3.4	bigger_better	-7	15	Воронеж	30.8	42	/city/voronezh	/city/voronezh	
3.4	bigger_better	-5	51	Архангельск	30.8	43	/city/arhangelsk	/city/arhangelsk	
3.4	bigger_better	0	67	Грозный	30.8	44	/city/groznyy	/city/groznyy	
3.4	bigger_better	0	23	Иркутск	30.74	45	/city/irkutsk	/city/irkutsk	
3.4	bigger_better	-7	150	Ноябрьск	30.74	46	/city/noyabrsk	/city/noyabrsk	
3.4	bigger_better	-7	44	Магнитогорск	30.68	47	/city/magnitogorsk	/city/magnitogorsk	
3.4	bigger_better	-2	119	Коломна	30.68	48	/city/kolomna	/city/kolomna	
3.4	bigger_better	26	53	Калуга	30.62	49	/city/kaluga	/city/kaluga	
3.4	bigger_better	-20	155	Арзамас	30.62	50	/city/arzamas	/city/arzamas	
3.4	bigger_better	-15	43	Ставрополь	30.57	51	/city/stavropol	/city/stavropol	
3.4	bigger_better	-4	12	Волгоград	30.51	52	/city/volgograd	/city/volgograd	
3.4	bigger_better	-2	60	Череповец	30.51	53	/city/cherepovec	/city/cherepovec	
3.3	bigger_better	8	19	Тюмень	30.39	54	/city/tyumen	/city/tyumen	
3.3	bigger_better	12	41	Курск	30.39	55	/city/kursk	/city/kursk	
3.3	bigger_better	1	45	Брянск	30.28	56	/city/bryansk	/city/bryansk	
3.3	bigger_better	11	26	Хабаровск	30.04	57	/city/habarovsk	/city/habarovsk	
3.3	bigger_better	-2	50	Нижний Тагил	30.04	58	/city/nizhniy-tagil	/city/nizhniy-tagil	
3.3	bigger_better	1	75	Новороссийск	30.04	59	/city/novorossiysk	/city/novorossiysk	
3.3	bigger_better	-13	109	Абакан	30.04	60	/city/abakan	/city/abakan	
3.2	bigger_better	2	31	Кемерово	29.99	61	/city/kemerovo	/city/kemerovo	
3.2	bigger_better	2	74	Таганрог	29.87	62	/city/taganrog	/city/taganrog	
3.2	bigger_better	3	105	Новочеркасск	29.87	63	/city/novocherkassk	/city/novocherkassk	
3.2	bigger_better	7	129	Серпухов	29.87	64	/city/serpuhov	/city/serpuhov	
3.2	bigger_better	-6	35	Набережные Челны	29.81	65	/city/naberezhnye-chelny	/city/naberezhnye-chelny	
3.2	bigger_better	-16	163	Ногинск	29.81	66	/city/noginsk	/city/noginsk	
3.2	bigger_better	3	21	Барнаул	29.75	67	/city/barnaul	/city/barnaul	
3.2	bigger_better	-7	84	Ангарск	29.75	68	/city/angarsk	/city/angarsk	
3.2	bigger_better	-15	107	Каменск-Уральский	29.75	69	/city/kamensk-uralskiy	/city/kamensk-uralskiy	
3.2	bigger_better	6	20	Ижевск	29.7	70	/city/izhevsk	/city/izhevsk	
3.2	bigger_better	-13	114	Березники	29.7	71	/city/berezniki	/city/berezniki	
3.2	bigger_better	-7	161	Артём	29.7	72	/city/artem	/city/artem	
3.1	bigger_better	4	14	Пермь	29.64	73	/city/perm	/city/perm	
3.1	bigger_better	9	32	Рязань	29.58	74	/city/ryazan	/city/ryazan	
3.1	bigger_better	21	162	Ессентуки	29.46	75	/city/essentuki	/city/essentuki	
3.1	bigger_better	6	72	Комсомольск-на-Амуре	29.29	76	/city/komsomolsk-na-amure	/city/komsomolsk-na-amure	
3	bigger_better	3	9	Челябинск	29.17	77	/city/chelyabinsk	/city/chelyabinsk	
3	bigger_better	-9	56	Волжский	29.17	78	/city/volzhskiy	/city/volzhskiy	
3	bigger_better	-1	136	Димитровград	29.17	79	/city/dimitrovgrad	/city/dimitrovgrad	
3	bigger_better	1	118	Пятигорск	29.12	80	/city/pyatigorsk	/city/pyatigorsk	
3	bigger_better	3	7	Самара	29.06	81	/city/samara	/city/samara	
3	bigger_better	4	138	Невинномысск	29.06	82	/city/nevinnomyssk	/city/nevinnomyssk	
3	bigger_better	-4	165	Бердск	29.06	83	/city/berdsk	/city/berdsk	
3	bigger_better	7	30	Томск	29	84	/city/tomsk	/city/tomsk	
3	bigger_better	8	34	Пенза	29	85	/city/penza	/city/penza	
3	bigger_better	-14	78	Нальчик	29	86	/city/nalchik	/city/nalchik	
3	bigger_better	-14	160	Назрань	29	87	/city/nazran	/city/nazran	
3	bigger_better	-1	87	Великий Новгород	28.94	88	/city/velikiy-novgorod	/city/velikiy-novgorod	
3	bigger_better	1	16	Саратов	28.88	89	/city/saratov	/city/saratov	
3	bigger_better	-5	97	Южно-Сахалинск	28.88	90	/city/yuzhno-sahalinsk	/city/yuzhno-sahalinsk	
2.9	bigger_better	4	135	Орехово-Зуево	28.86	91	/city/orehovo-zuevo	/city/orehovo-zuevo	
2.9	bigger_better	47	64	Саранск	28.84	92	/city/saransk	/city/saransk	
2.9	bigger_better	-1	88	Благовещенск	28.84	93	/city/blagoveschensk	/city/blagoveschensk	
2.9	bigger_better	0	95	Балаково	28.83	94	/city/balakovo	/city/balakovo	
2.9	bigger_better	-21	103	Норильск	28.83	95	/city/norilsk	/city/norilsk	
2.9	bigger_better	2	141	Батайск	28.78	96	/city/bataysk	/city/bataysk	
2.9	bigger_better	-9	76	Братск	28.77	97	/city/bratsk	/city/bratsk	
2.9	bigger_better	3	113	Салават	28.77	98	/city/salavat	/city/salavat	
2.9	bigger_better	5	42	Улан-Удэ	28.71	99	/city/ulan-ude	/city/ulan-ude	
2.9	bigger_better	8	66	Тамбов	28.65	100	/city/tambov	/city/tambov	
2.9	bigger_better	22	25	Ярославль	28.54	101	/city/yaroslavl	/city/yaroslavl	
2.8	bigger_better	14	28	Оренбург	28.48	102	/city/orenburg	/city/orenburg	
2.8	bigger_better	-14	148	Ачинск	28.48	103	/city/achinsk	/city/achinsk	
2.8	bigger_better	-7	63	Мурманск	28.36	104	/city/murmansk	/city/murmansk	
2.8	bigger_better	-3	112	Электросталь	28.36	105	/city/elektrostal	/city/elektrostal	
2.8	bigger_better	-3	126	Кисловодск	28.3	106	/city/kislovodsk	/city/kislovodsk	
2.8	bigger_better	-8	46	Иваново	28.25	107	/city/ivanovo	/city/ivanovo	
2.8	bigger_better	1	52	Владимир	28.25	108	/city/vladimir	/city/vladimir	
2.8	bigger_better	1	61	Владикавказ	28.19	109	/city/vladikavkaz	/city/vladikavkaz	
2.8	bigger_better	-10	68	Стерлитамак	28.19	110	/city/sterlitamak	/city/sterlitamak	
2.8	bigger_better	0	69	Кострома	28.19	111	/city/kostroma	/city/kostroma	
2.8	bigger_better	-6	96	Армавир	28.19	112	/city/armavir	/city/armavir	
2.8	bigger_better	5	154	Обнинск	28.19	113	/city/obninsk	/city/obninsk	
2.8	bigger_better	-2	91	Псков	28.13	114	/city/pskov	/city/pskov	
2.8	bigger_better	-1	134	Нефтекамск	28.13	115	/city/neftekamsk	/city/neftekamsk	
2.7	bigger_better	1	29	Новокузнецк	28.07	116	/city/novokuzneck	/city/novokuzneck	
2.7	bigger_better	-12	100	Петропавловск-Камчатский	28.07	117	/city/petropavlovsk-kamchatskiy	/city/petropavlovsk-kamchatskiy	
2.7	bigger_better	-11	120	Майкоп	27.96	118	/city/maykop	/city/maykop	
2.7	bigger_better	-4	18	Тольятти	27.9	119	/city/tolyatti	/city/tolyatti	
2.7	bigger_better	-1	55	Смоленск	27.9	120	/city/smolensk	/city/smolensk	
2.7	bigger_better	5	22	Ульяновск	27.84	121	/city/ulyanovsk	/city/ulyanovsk	
2.7	bigger_better	3	39	Чебоксары	27.84	122	/city/cheboksary	/city/cheboksary	
2.7	bigger_better	1	152	Новокуйбышевск	27.84	123	/city/novokuybyshevsk	/city/novokuybyshevsk	
2.7	bigger_better	3	132	Первоуральск	27.72	124	/city/pervouralsk	/city/pervouralsk	
2.6	bigger_better	3	65	Якутск	27.61	125	/city/yakutsk	/city/yakutsk	
2.6	bigger_better	9	70	Петрозаводск	27.61	126	/city/petrozavodsk	/city/petrozavodsk	
2.6	bigger_better	-7	127	Новомосковск	27.61	127	/city/novomoskovsk	/city/novomoskovsk	
2.6	bigger_better	14	47	Тверь	27.55	128	/city/tver	/city/tver	
2.6	bigger_better	0	77	Сыктывкар	27.55	129	/city/syktyvkar	/city/syktyvkar	
2.6	bigger_better	-9	38	Киров	27.49	130	/city/kirov	/city/kirov	
2.6	bigger_better	3	139	Камышин	27.49	131	/city/kamyshin	/city/kamyshin	
2.6	bigger_better	-10	144	Муром	27.49	132	/city/murom	/city/murom	
2.6	bigger_better	0	33	Астрахань	27.38	133	/city/astrahan	/city/astrahan	
2.6	bigger_better	-4	79	Дзержинск	27.38	134	/city/dzerzhinsk	/city/dzerzhinsk	
2.6	bigger_better	2	151	Елец	27.38	135	/city/elec	/city/elec	
2.5	bigger_better	-23	142	Кызыл	27.32	136	/city/kyzyl	/city/kyzyl	
2.5	bigger_better	-6	110	Находка	27.14	137	/city/nahodka	/city/nahodka	
2.5	bigger_better	-2	27	Махачкала	27.03	138	/city/mahachkala	/city/mahachkala	
2.5	bigger_better	1	104	Сызрань	27.03	139	/city/syzran	/city/syzran	
2.5	bigger_better	-2	145	Октябрьский	27.03	140	/city/oktyabrskiy	/city/oktyabrskiy	
2.4	bigger_better	0	115	Миасс	26.85	141	/city/miass	/city/miass	
2.4	bigger_better	1	73	Йошкар-Ола	26.8	142	/city/yoshkar-ola	/city/yoshkar-ola	
2.4	bigger_better	1	130	Черкесск	26.74	143	/city/cherkessk	/city/cherkessk	
2.4	bigger_better	2	59	Орёл	26.68	144	/city/orel	/city/orel	
2.4	bigger_better	2	92	Бийск	26.62	145	/city/biysk	/city/biysk	
2.3	bigger_better	8	54	Чита	26.51	146	/city/chita	/city/chita	
2.3	bigger_better	-2	57	Курган	26.51	147	/city/kurgan	/city/kurgan	
2.3	bigger_better	-16	89	Энгельс	26.51	148	/city/engels	/city/engels	
2.3	bigger_better	0	133	Новочебоксарск	26.39	149	/city/novocheboksarsk	/city/novocheboksarsk	
2.3	bigger_better	0	81	Орск	26.33	150	/city/orsk	/city/orsk	
2.2	bigger_better	4	111	Уссурийск	26.1	151	/city/ussuriysk	/city/ussuriysk	
2.2	bigger_better	-4	80	Шахты	26.04	152	/city/shahty	/city/shahty	
2.2	bigger_better	-1	159	Каспийск	25.87	153	/city/kaspiysk	/city/kaspiysk	
2.1	bigger_better	-1	121	Ковров	25.58	154	/city/kovrov	/city/kovrov	
1.9	bigger_better	6	117	Рубцовск	24.94	155	/city/rubcovsk	/city/rubcovsk	
1.9	bigger_better	-5	98	Северодвинск	24.88	156	/city/severodvinsk	/city/severodvinsk	
1.9	bigger_better	-1	94	Рыбинск	24.77	157	/city/rybinsk	/city/rybinsk	
1.9	bigger_better	-1	137	Дербент	24.71	158	/city/derbent	/city/derbent	
1.9	bigger_better	-1	158	Элиста	24.65	159	/city/elista	/city/elista	
1.8	bigger_better	0	123	Копейск	24.24	160	/city/kopeysk	/city/kopeysk	
1.7	bigger_better	-2	106	Златоуст	23.95	161	/city/zlatoust	/city/zlatoust	
1.7	bigger_better	0	166	Сарапул	23.9	162	/city/sarapul	/city/sarapul	
1.3	bigger_better	0	125	Хасавюрт	22.45	163	/city/hasavyurt	/city/hasavyurt	
1.2	bigger_better	0	146	Новошахтинск	22.27	164	/city/novoshahtinsk	/city/novoshahtinsk	
1	bigger_better	0	93	Прокопьевск	21.34	165	/city/prokopevsk	/city/prokopevsk	
