epochs	information_source	description	name	epoch	display	type	short_name	stat
["2012"]	Градотека	Рейтинг городов по проценту проголосовавших за Владимира Путина на президентских выборах 4 марта 2012 года.	Рейтинг Владимира Путина на выборах-2012	2012	value	city	vibori_vp	10042


rate	order	rate_grow	object_id	object_name	value	rating_place	url	object_url	units
10	bigger_better	0	67	Грозный	99.8301	1	/city/groznyy	/city/groznyy	%
9.3	bigger_better	0	137	Дербент	95.678	2	/city/derbent	/city/derbent	%
9	bigger_better	0	125	Хасавюрт	93.6119	3	/city/hasavyurt	/city/hasavyurt	%
8.6	bigger_better	0	160	Назрань	91.6733	4	/city/nazran	/city/nazran	%
8.5	bigger_better	0	130	Черкесск	90.6987	5	/city/cherkessk	/city/cherkessk	%
8.5	bigger_better	0	27	Махачкала	90.6686	6	/city/mahachkala	/city/mahachkala	%
8.3	bigger_better	0	159	Каспийск	89.415	7	/city/kaspiysk	/city/kaspiysk	%
7.6	bigger_better	0	93	Прокопьевск	85.3654	8	/city/prokopevsk	/city/prokopevsk	%
7.6	bigger_better	0	142	Кызыл	85.0619	9	/city/kyzyl	/city/kyzyl	%
7.5	bigger_better	0	150	Ноябрьск	85.03	10	/city/noyabrsk	/city/noyabrsk	%
7.5	bigger_better	0	140	Новый Уренгой	84.5866	11	/city/novyy-urengoy	/city/novyy-urengoy	%
7.1	bigger_better	0	116	Альметьевск	82.1264	12	/city/almetevsk	/city/almetevsk	%
6.9	bigger_better	0	64	Саранск	81.1424	13	/city/saransk	/city/saransk	%
6.6	bigger_better	0	78	Нальчик	79.0465	14	/city/nalchik	/city/nalchik	%
6.3	bigger_better	0	111	Уссурийск	77.336	15	/city/ussuriysk	/city/ussuriysk	%
5.9	bigger_better	0	6	Казань	75.0817	16	/city/kazan	/city/kazan	%
5.9	bigger_better	0	35	Набережные Челны	74.9365	17	/city/naberezhnye-chelny	/city/naberezhnye-chelny	%
5.5	bigger_better	0	113	Салават	72.8608	18	/city/salavat	/city/salavat	%
5.5	bigger_better	0	75	Новороссийск	72.7496	19	/city/novorossiysk	/city/novorossiysk	%
5.5	bigger_better	0	68	Стерлитамак	72.7174	20	/city/sterlitamak	/city/sterlitamak	%
5.4	bigger_better	0	89	Энгельс	72.3049	21	/city/engels	/city/engels	%
5.4	bigger_better	0	145	Октябрьский	71.9059	22	/city/oktyabrskiy	/city/oktyabrskiy	%
5.3	bigger_better	0	80	Шахты	71.3493	23	/city/shahty	/city/shahty	%
5.2	bigger_better	0	31	Кемерово	71.0835	24	/city/kemerovo	/city/kemerovo	%
5.2	bigger_better	0	155	Арзамас	70.9828	25	/city/arzamas	/city/arzamas	%
5.2	bigger_better	0	33	Астрахань	70.9299	26	/city/astrahan	/city/astrahan	%
5.2	bigger_better	0	29	Новокузнецк	70.8702	27	/city/novokuzneck	/city/novokuzneck	%
5.2	bigger_better	0	127	Новомосковск	70.6476	28	/city/novomoskovsk	/city/novomoskovsk	%
5.2	bigger_better	0	161	Артём	70.6086	29	/city/artem	/city/artem	%
5.1	bigger_better	0	61	Владикавказ	70.4291	30	/city/vladikavkaz	/city/vladikavkaz	%
5.1	bigger_better	0	96	Армавир	70.1523	31	/city/armavir	/city/armavir	%
5	bigger_better	0	103	Норильск	69.8122	32	/city/norilsk	/city/norilsk	%
5	bigger_better	0	126	Кисловодск	69.6158	33	/city/kislovodsk	/city/kislovodsk	%
5	bigger_better	0	114	Березники	69.4841	34	/city/berezniki	/city/berezniki	%
4.9	bigger_better	0	16	Саратов	69.2823	35	/city/saratov	/city/saratov	%
4.9	bigger_better	0	132	Первоуральск	68.9941	36	/city/pervouralsk	/city/pervouralsk	%
4.9	bigger_better	0	122	Железнодорожный	68.9241	37	/city/zheleznodorozhnyy	/city/zheleznodorozhnyy	%
4.8	bigger_better	0	85	Химки	68.6643	38	/city/himki	/city/himki	%
4.8	bigger_better	0	138	Невинномысск	68.6225	39	/city/nevinnomyssk	/city/nevinnomyssk	%
4.8	bigger_better	0	43	Ставрополь	68.5821	40	/city/stavropol	/city/stavropol	%
4.8	bigger_better	0	107	Каменск-Уральский	68.4986	41	/city/kamensk-uralskiy	/city/kamensk-uralskiy	%
4.6	bigger_better	0	123	Копейск	67.4423	42	/city/kopeysk	/city/kopeysk	%
4.6	bigger_better	0	66	Тамбов	67.3187	43	/city/tambov	/city/tambov	%
4.6	bigger_better	0	82	Нижнекамск	67.2447	44	/city/nizhnekamsk	/city/nizhnekamsk	%
4.6	bigger_better	0	19	Тюмень	67.1383	45	/city/tyumen	/city/tyumen	%
4.6	bigger_better	0	44	Магнитогорск	66.9318	46	/city/magnitogorsk	/city/magnitogorsk	%
4.5	bigger_better	0	134	Нефтекамск	66.79	47	/city/neftekamsk	/city/neftekamsk	%
4.5	bigger_better	0	141	Батайск	66.6469	48	/city/bataysk	/city/bataysk	%
4.5	bigger_better	0	131	Нефтеюганск	66.5147	49	/city/nefteyugansk	/city/nefteyugansk	%
4.5	bigger_better	0	50	Нижний Тагил	66.5002	50	/city/nizhniy-tagil	/city/nizhniy-tagil	%
4.5	bigger_better	0	108	Волгодонск	66.4502	51	/city/volgodonsk	/city/volgodonsk	%
4.4	bigger_better	0	166	Сарапул	66.1843	52	/city/sarapul	/city/sarapul	%
4.3	bigger_better	0	11	Уфа	65.6782	53	/city/ufa	/city/ufa	%
4.3	bigger_better	0	90	Подольск	65.6002	54	/city/podolsk	/city/podolsk	%
4.3	bigger_better	0	71	Нижневартовск	65.2575	55	/city/nizhnevartovsk	/city/nizhnevartovsk	%
4.2	bigger_better	0	120	Майкоп	64.8889	56	/city/maykop	/city/maykop	%
4.2	bigger_better	0	65	Якутск	64.7445	57	/city/yakutsk	/city/yakutsk	%
4.2	bigger_better	0	146	Новошахтинск	64.6491	58	/city/novoshahtinsk	/city/novoshahtinsk	%
4.1	bigger_better	0	37	Тула	64.0942	59	/city/tula	/city/tula	%
4.1	bigger_better	0	58	Сургут	63.9866	60	/city/surgut	/city/surgut	%
4.1	bigger_better	0	101	Люберцы	63.9143	61	/city/lyubercy	/city/lyubercy	%
4	bigger_better	0	12	Волгоград	63.7829	62	/city/volgograd	/city/volgograd	%
3.9	bigger_better	0	158	Элиста	62.9742	63	/city/elista	/city/elista	%
3.8	bigger_better	0	139	Камышин	62.2734	64	/city/kamyshin	/city/kamyshin	%
3.8	bigger_better	0	118	Пятигорск	62.1158	65	/city/pyatigorsk	/city/pyatigorsk	%
3.7	bigger_better	0	49	Сочи	62.0648	66	/city/sochi	/city/sochi	%
3.7	bigger_better	0	54	Чита	61.8826	67	/city/chita	/city/chita	%
3.7	bigger_better	0	162	Ессентуки	61.803	68	/city/essentuki	/city/essentuki	%
3.7	bigger_better	0	115	Миасс	61.566	69	/city/miass	/city/miass	%
3.7	bigger_better	0	56	Волжский	61.5194	70	/city/volzhskiy	/city/volzhskiy	%
3.6	bigger_better	0	9	Челябинск	61.4642	71	/city/chelyabinsk	/city/chelyabinsk	%
3.6	bigger_better	0	106	Златоуст	61.4373	72	/city/zlatoust	/city/zlatoust	%
3.6	bigger_better	0	5	Нижний Новгород	61.2588	73	/city/nizhniy-novgorod	/city/nizhniy-novgorod	%
3.5	bigger_better	0	42	Улан-Удэ	60.7856	74	/city/ulan-ude	/city/ulan-ude	%
3.5	bigger_better	0	7	Самара	60.5324	75	/city/samara	/city/samara	%
3.5	bigger_better	0	83	Балашиха	60.4987	76	/city/balashiha	/city/balashiha	%
3.5	bigger_better	0	110	Находка	60.2795	77	/city/nahodka	/city/nahodka	%
3.4	bigger_better	0	163	Ногинск	59.9879	78	/city/noginsk	/city/noginsk	%
3.4	bigger_better	0	20	Ижевск	59.9091	79	/city/izhevsk	/city/izhevsk	%
3.3	bigger_better	0	10	Ростов-на-Дону	59.6575	80	/city/rostov-na-donu	/city/rostov-na-donu	%
3.3	bigger_better	0	81	Орск	59.6457	81	/city/orsk	/city/orsk	%
3.3	bigger_better	0	2	Санкт-Петербург	59.6014	82	/city/sankt-peterburg	/city/sankt-peterburg	%
3.3	bigger_better	0	95	Балаково	59.5514	83	/city/balakovo	/city/balakovo	%
3.3	bigger_better	0	63	Мурманск	59.5469	84	/city/murmansk	/city/murmansk	%
3.3	bigger_better	0	104	Сызрань	59.2448	85	/city/syzran	/city/syzran	%
3.3	bigger_better	0	77	Сыктывкар	59.1414	86	/city/syktyvkar	/city/syktyvkar	%
3.3	bigger_better	0	46	Иваново	59.1089	87	/city/ivanovo	/city/ivanovo	%
3.3	bigger_better	0	100	Петропавловск-Камчатский	59.0868	88	/city/petropavlovsk-kamchatskiy	/city/petropavlovsk-kamchatskiy	%
3.3	bigger_better	0	45	Брянск	59.0823	89	/city/bryansk	/city/bryansk	%
3.1	bigger_better	0	17	Краснодар	58.3777	90	/city/krasnodar	/city/krasnodar	%
3.1	bigger_better	0	60	Череповец	58.3182	91	/city/cherepovec	/city/cherepovec	%
3.1	bigger_better	0	151	Елец	58.1606	92	/city/elec	/city/elec	%
3.1	bigger_better	0	14	Пермь	57.9371	93	/city/perm	/city/perm	%
3	bigger_better	0	4	Екатеринбург	57.5986	94	/city/ekaterinburg	/city/ekaterinburg	%
3	bigger_better	0	39	Чебоксары	57.4194	95	/city/cheboksary	/city/cheboksary	%
3	bigger_better	0	135	Орехово-Зуево	57.2976	96	/city/orehovo-zuevo	/city/orehovo-zuevo	%
2.9	bigger_better	0	157	Домодедово	57.164	97	/city/domodedovo	/city/domodedovo	%
2.9	bigger_better	0	88	Благовещенск	57.1467	98	/city/blagoveschensk	/city/blagoveschensk	%
2.9	bigger_better	0	57	Курган	56.822	99	/city/kurgan	/city/kurgan	%
2.9	bigger_better	0	91	Псков	56.7305	100	/city/pskov	/city/pskov	%
2.8	bigger_better	0	53	Калуга	56.4253	101	/city/kaluga	/city/kaluga	%
2.8	bigger_better	0	164	Раменское	56.2892	102	/city/ramenskoe	/city/ramenskoe	%
2.8	bigger_better	0	133	Новочебоксарск	56.2576	103	/city/novocheboksarsk	/city/novocheboksarsk	%
2.8	bigger_better	0	38	Киров	56.1486	104	/city/kirov	/city/kirov	%
2.8	bigger_better	0	13	Красноярск	56.0889	105	/city/krasnoyarsk	/city/krasnoyarsk	%
2.7	bigger_better	0	148	Ачинск	55.8624	106	/city/achinsk	/city/achinsk	%
2.7	bigger_better	0	41	Курск	55.8147	107	/city/kursk	/city/kursk	%
2.7	bigger_better	0	62	Вологда	55.7044	108	/city/vologda	/city/vologda	%
2.7	bigger_better	0	72	Комсомольск-на-Амуре	55.7008	109	/city/komsomolsk-na-amure	/city/komsomolsk-na-amure	%
2.7	bigger_better	0	112	Электросталь	55.4549	110	/city/elektrostal	/city/elektrostal	%
2.6	bigger_better	0	149	Сергиев Посад	55.4053	111	/city/sergiev-posad	/city/sergiev-posad	%
2.6	bigger_better	0	79	Дзержинск	55.3528	112	/city/dzerzhinsk	/city/dzerzhinsk	%
2.6	bigger_better	0	18	Тольятти	55.2449	113	/city/tolyatti	/city/tolyatti	%
2.6	bigger_better	0	48	Белгород	55.2202	114	/city/belgorod	/city/belgorod	%
2.6	bigger_better	0	76	Братск	55.0882	115	/city/bratsk	/city/bratsk	%
2.6	bigger_better	0	36	Липецк	55.0403	116	/city/lipeck	/city/lipeck	%
2.6	bigger_better	0	92	Бийск	54.9067	117	/city/biysk	/city/biysk	%
2.5	bigger_better	0	34	Пенза	54.6581	118	/city/penza	/city/penza	%
2.5	bigger_better	0	26	Хабаровск	54.5814	119	/city/habarovsk	/city/habarovsk	%
2.5	bigger_better	0	119	Коломна	54.4652	120	/city/kolomna	/city/kolomna	%
2.5	bigger_better	0	32	Рязань	54.447	121	/city/ryazan	/city/ryazan	%
2.5	bigger_better	0	129	Серпухов	54.3486	122	/city/serpuhov	/city/serpuhov	%
2.5	bigger_better	0	109	Абакан	54.3214	123	/city/abakan	/city/abakan	%
2.5	bigger_better	0	51	Архангельск	54.2674	124	/city/arhangelsk	/city/arhangelsk	%
2.4	bigger_better	0	124	Одинцово	54.0225	125	/city/odincovo	/city/odincovo	%
2.4	bigger_better	0	117	Рубцовск	53.9511	126	/city/rubcovsk	/city/rubcovsk	%
2.4	bigger_better	0	28	Оренбург	53.6866	127	/city/orenburg	/city/orenburg	%
2.4	bigger_better	0	25	Ярославль	53.6848	128	/city/yaroslavl	/city/yaroslavl	%
2.3	bigger_better	0	165	Бердск	53.4684	129	/city/berdsk	/city/berdsk	%
2.3	bigger_better	0	136	Димитровград	53.4342	130	/city/dimitrovgrad	/city/dimitrovgrad	%
2.3	bigger_better	0	21	Барнаул	53.3574	131	/city/barnaul	/city/barnaul	%
2.3	bigger_better	0	30	Томск	53.3508	132	/city/tomsk	/city/tomsk	%
2.3	bigger_better	0	98	Северодвинск	53.2831	133	/city/severodvinsk	/city/severodvinsk	%
2.3	bigger_better	0	87	Великий Новгород	53.2743	134	/city/velikiy-novgorod	/city/velikiy-novgorod	%
2.3	bigger_better	0	22	Ульяновск	53.0726	135	/city/ulyanovsk	/city/ulyanovsk	%
2.3	bigger_better	0	3	Новосибирск	53.0553	136	/city/novosibirsk	/city/novosibirsk	%
2.2	bigger_better	0	102	Мытищи	52.9477	137	/city/mytischi	/city/mytischi	%
2.2	bigger_better	0	15	Воронеж	52.8501	138	/city/voronezh	/city/voronezh	%
2.2	bigger_better	0	144	Муром	52.6876	139	/city/murom	/city/murom	%
2.2	bigger_better	0	121	Ковров	52.6838	140	/city/kovrov	/city/kovrov	%
2.2	bigger_better	0	152	Новокуйбышевск	52.6094	141	/city/novokuybyshevsk	/city/novokuybyshevsk	%
2.2	bigger_better	0	99	Королёв	52.5318	142	/city/korolev	/city/korolev	%
2.2	bigger_better	0	86	Старый Оскол	52.4599	143	/city/staryy-oskol	/city/staryy-oskol	%
2.1	bigger_better	0	73	Йошкар-Ола	52.0883	144	/city/yoshkar-ola	/city/yoshkar-ola	%
2.1	bigger_better	0	94	Рыбинск	52.0222	145	/city/rybinsk	/city/rybinsk	%
2.1	bigger_better	0	47	Тверь	51.9612	146	/city/tver	/city/tver	%
2	bigger_better	0	70	Петрозаводск	51.7223	147	/city/petrozavodsk	/city/petrozavodsk	%
2	bigger_better	0	74	Таганрог	51.6739	148	/city/taganrog	/city/taganrog	%
2	bigger_better	0	55	Смоленск	51.5386	149	/city/smolensk	/city/smolensk	%
2	bigger_better	0	105	Новочеркасск	51.4926	150	/city/novocherkassk	/city/novocherkassk	%
1.9	bigger_better	0	128	Красногорск	51.0044	151	/city/krasnogorsk	/city/krasnogorsk	%
1.9	bigger_better	0	143	Щёлково	50.9199	152	/city/schelkovo	/city/schelkovo	%
1.9	bigger_better	0	154	Обнинск	50.9164	153	/city/obninsk	/city/obninsk	%
1.9	bigger_better	0	23	Иркутск	50.7743	154	/city/irkutsk	/city/irkutsk	%
1.9	bigger_better	0	69	Кострома	50.7009	155	/city/kostroma	/city/kostroma	%
1.8	bigger_better	0	8	Омск	50.2675	156	/city/omsk	/city/omsk	%
1.8	bigger_better	0	97	Южно-Сахалинск	50.0817	157	/city/yuzhno-sahalinsk	/city/yuzhno-sahalinsk	%
1.6	bigger_better	0	52	Владимир	49.3827	158	/city/vladimir	/city/vladimir	%
1.4	bigger_better	0	1	Москва	47.9431	159	/city/moskva	/city/moskva	%
1.4	bigger_better	0	24	Владивосток	47.6845	160	/city/vladivostok	/city/vladivostok	%
1.4	bigger_better	0	40	Калининград	47.6758	161	/city/kaliningrad	/city/kaliningrad	%
1.3	bigger_better	0	156	Пушкино	47.0793	162	/city/pushkino	/city/pushkino	%
1.1	bigger_better	0	84	Ангарск	46.3779	163	/city/angarsk	/city/angarsk	%
1.1	bigger_better	0	59	Орёл	46.2156	164	/city/orel	/city/orel	%
1	bigger_better	0	153	Жуковский	45.4721	165	/city/zhukovskiy	/city/zhukovskiy	%
