q1	q2	maxCorr_lag
ЗДРАВООХРАНЕНИЕ--ЗОЖ	ЗДРАВООХРАНЕНИЕ--витамины	neg
ЗДРАВООХРАНЕНИЕ--ЗОЖ	ОБРАЗОВАНИЕ--учителя	pos
ЗДРАВООХРАНЕНИЕ--ЗОЖ	СЕЛЬСКОЕ_ХОЗЯЙСТВО--сельскохозяйственная_техника	neg
ЗДРАВООХРАНЕНИЕ--алкоголизм	СЕЛЬСКОЕ_ХОЗЯЙСТВО--фермер	pos
ЗДРАВООХРАНЕНИЕ--вегетарианство	ЗДРАВООХРАНЕНИЕ--ЗОЖ	pos
ЗДРАВООХРАНЕНИЕ--вегетарианство	ЗДРАВООХРАНЕНИЕ--витамины	neg
ЗДРАВООХРАНЕНИЕ--вегетарианство	ИНФРАСТРУКТУРА--общественный_транспорт	neg
ЗДРАВООХРАНЕНИЕ--вегетарианство	ИНФРАСТРУКТУРА--парковка	neg
ЗДРАВООХРАНЕНИЕ--вегетарианство	ИНФРАСТРУКТУРА--штраф	neg
ЗДРАВООХРАНЕНИЕ--вегетарианство	ОБРАЗОВАНИЕ--учителя	pos
ЗДРАВООХРАНЕНИЕ--вегетарианство	ТОРГОВЛЯ--интернет-магазин	pos
ЗДРАВООХРАНЕНИЕ--вегетарианство	ТУРИЗМ--санаторий	neg
ЗДРАВООХРАНЕНИЕ--витамины	НАСЕЛЕНИЕ--свадьба	neg
ЗДРАВООХРАНЕНИЕ--депрессия	ЗДРАВООХРАНЕНИЕ--ЗОЖ	pos
ЗДРАВООХРАНЕНИЕ--депрессия	ЗДРАВООХРАНЕНИЕ--витамины	neg
ЗДРАВООХРАНЕНИЕ--депрессия	ИНФРАСТРУКТУРА--общественный_транспорт	neg
ЗДРАВООХРАНЕНИЕ--депрессия	ИНФРАСТРУКТУРА--парковка	neg
ЗДРАВООХРАНЕНИЕ--депрессия	ИНФРАСТРУКТУРА--штраф	neg
ЗДРАВООХРАНЕНИЕ--депрессия	ОБРАЗОВАНИЕ--учителя	pos
ЗДРАВООХРАНЕНИЕ--депрессия	ТУРИЗМ--санаторий	neg
ЗДРАВООХРАНЕНИЕ--лекарства	ЭКОНОМИКА--ипотека	pos
ЗДРАВООХРАНЕНИЕ--нейро-дегенеративные_заболевания	ПРОИЗВОДСТВО--лёгкая_промышленность	neg
ЗДРАВООХРАНЕНИЕ--ожирение	ИНФРАСТРУКТУРА--общественный_транспорт	neg
ЗДРАВООХРАНЕНИЕ--ожирение	ИНФРАСТРУКТУРА--штраф	neg
ЗДРАВООХРАНЕНИЕ--ожирение	ОБРАЗОВАНИЕ--учителя	pos
ЗДРАВООХРАНЕНИЕ--сердечно-сосудистые_заболевания	НАСЕЛЕНИЕ--свадьба	pos
ЗДРАВООХРАНЕНИЕ--сердечно-сосудистые_заболевания	НАУКА--патент	pos
ЗДРАВООХРАНЕНИЕ--сердечно-сосудистые_заболевания	ОБРАЗОВАНИЕ--учителя	pos
ЗДРАВООХРАНЕНИЕ--сердечный_приступ	ЗДРАВООХРАНЕНИЕ--витамины	neg
ЗДРАВООХРАНЕНИЕ--сердечный_приступ	НАСЕЛЕНИЕ--свадьба	pos
ЗДРАВООХРАНЕНИЕ--сердечный_приступ	НАУКА--патент	pos
ЗДРАВООХРАНЕНИЕ--спорт	ИНФРАСТРУКТУРА--штраф	pos
ЗДРАВООХРАНЕНИЕ--спорт	ТОРГОВЛЯ--оптовая_торговля	neg
ЗДРАВООХРАНЕНИЕ--спорт	ТОРГОВЛЯ--розничная_торговля	neg
ИНФРАСТРУКТУРА--дороги	ТОРГОВЛЯ--оптовая_торговля	neg
ИНФРАСТРУКТУРА--дороги	ЭКОНОМИКА--цена_на_горючее	neg
ИНФРАСТРУКТУРА--общественный_транспорт	ЭКОНОМИКА--рост_цен	neg
ИНФРАСТРУКТУРА--парковка	ЗДРАВООХРАНЕНИЕ--витамины	pos
ИНФРАСТРУКТУРА--парковка	ЗДРАВООХРАНЕНИЕ--ожирение	neg
ИНФРАСТРУКТУРА--парковка	ИНФРАСТРУКТУРА--общественный_транспорт	pos
ИНФРАСТРУКТУРА--парковка	НАУКА--патент	neg
ИНФРАСТРУКТУРА--парковка	ОБРАЗОВАНИЕ--университет	pos
ИНФРАСТРУКТУРА--парковка	СЕЛЬСКОЕ_ХОЗЯЙСТВО--неурожай	neg
ИНФРАСТРУКТУРА--парковка	СЕЛЬСКОЕ_ХОЗЯЙСТВО--поголовье_скота	neg
ИНФРАСТРУКТУРА--парковка	ТОРГОВЛЯ--хлеб	pos
ИНФРАСТРУКТУРА--парковка	ТУРИЗМ--санаторий	pos
ИНФРАСТРУКТУРА--парковка	ЭКОНОМИКА--повышение_банковской_ставки	neg
ИНФРАСТРУКТУРА--строительство	ЗДРАВООХРАНЕНИЕ--алкоголизм	pos
ИНФРАСТРУКТУРА--строительство	ЗДРАВООХРАНЕНИЕ--витамины	pos
ИНФРАСТРУКТУРА--строительство	ИНФРАСТРУКТУРА--штраф	pos
ИНФРАСТРУКТУРА--строительство	ОБРАЗОВАНИЕ--учителя	neg
ИНФРАСТРУКТУРА--штраф	ЗДРАВООХРАНЕНИЕ--алкоголизм	pos
ИНФРАСТРУКТУРА--штраф	ЭКОНОМИКА--импортозамещение	pos
ИНФРАСТРУКТУРА--ямы	ПРОИЗВОДСТВО--автомобильная_промышленность	pos
НАСЕЛЕНИЕ--демографическая_яма	ЗДРАВООХРАНЕНИЕ--сердечно-сосудистые_заболевания	pos
НАСЕЛЕНИЕ--демографическая_яма	ЗДРАВООХРАНЕНИЕ--сердечный_приступ	pos
НАСЕЛЕНИЕ--демографическая_яма	НАСЕЛЕНИЕ--рождаемость	pos
НАСЕЛЕНИЕ--демографическая_яма	НАСЕЛЕНИЕ--смертность	pos
НАСЕЛЕНИЕ--демографическая_яма	СЕЛЬСКОЕ_ХОЗЯЙСТВО--поголовье_скота	pos
НАСЕЛЕНИЕ--демографическая_яма	ТОРГОВЛЯ--интернет-магазин	neg
НАСЕЛЕНИЕ--демографическая_яма	ТОРГОВЛЯ--супермаркет	neg
НАСЕЛЕНИЕ--демографическая_яма	ТУРИЗМ--отпуск	pos
НАСЕЛЕНИЕ--демографическая_яма	ЭКОНОМИКА--падение_цен	pos
НАСЕЛЕНИЕ--демографическая_яма	ЭКОНОМИКА--повышение_налогов	pos
НАСЕЛЕНИЕ--демографическая_яма	ЭКОНОМИКА--понижение_налогов	pos
НАСЕЛЕНИЕ--демографическая_яма	ЭКОНОМИКА--снижение_банковской_ставки	pos
НАСЕЛЕНИЕ--свадьба	ЗДРАВООХРАНЕНИЕ--лекарства	pos
НАСЕЛЕНИЕ--свадьба	ЗДРАВООХРАНЕНИЕ--нейро-дегенеративные_заболевания	pos
НАСЕЛЕНИЕ--смертность	НАСЕЛЕНИЕ--свадьба	pos
НАУКА--зарплаты	ЗДРАВООХРАНЕНИЕ--БАД	neg
НАУКА--зарплаты	ЗДРАВООХРАНЕНИЕ--алкоголизм	pos
НАУКА--зарплаты	ИНФРАСТРУКТУРА--ямы	neg
НАУКА--зарплаты	ОБРАЗОВАНИЕ--университет	pos
НАУКА--зарплаты	ОБРАЗОВАНИЕ--учёные	pos
НАУКА--зарплаты	ТОРГОВЛЯ--розничная_торговля	neg
НАУКА--зарплаты	ЭКОНОМИКА--импортозамещение	pos
НАУКА--инновации	ЗДРАВООХРАНЕНИЕ--лекарства	pos
НАУКА--институт	ЗДРАВООХРАНЕНИЕ--БАД	neg
НАУКА--институт	ЗДРАВООХРАНЕНИЕ--ЗОЖ	neg
НАУКА--институт	ЗДРАВООХРАНЕНИЕ--алкоголизм	pos
НАУКА--институт	ЗДРАВООХРАНЕНИЕ--витамины	pos
НАУКА--институт	ЗДРАВООХРАНЕНИЕ--ожирение	neg
НАУКА--институт	ЗДРАВООХРАНЕНИЕ--спорт	pos
НАУКА--институт	ИНФРАСТРУКТУРА--дороги	pos
НАУКА--институт	ИНФРАСТРУКТУРА--общественный_транспорт	pos
НАУКА--институт	ИНФРАСТРУКТУРА--штраф	pos
НАУКА--институт	НАУКА--монументальные_исследования	neg
НАУКА--институт	ОБРАЗОВАНИЕ--подготовка_инженеров	neg
НАУКА--институт	ОБРАЗОВАНИЕ--прикладные_исследования	neg
НАУКА--институт	ОБРАЗОВАНИЕ--учителя	neg
НАУКА--институт	ПРОИЗВОДСТВО--биотехнологии	neg
НАУКА--институт	ПРОИЗВОДСТВО--тяжёлая_промышленность	neg
НАУКА--институт	СЕЛЬСКОЕ_ХОЗЯЙСТВО--неурожай	neg
НАУКА--институт	СЕЛЬСКОЕ_ХОЗЯЙСТВО--поголовье_скота	neg
НАУКА--институт	СЕЛЬСКОЕ_ХОЗЯЙСТВО--урожай	neg
НАУКА--институт	ТОРГОВЛЯ--беспошлинная_торговля	neg
НАУКА--институт	ТОРГОВЛЯ--оптовая_торговля	neg
НАУКА--институт	ТОРГОВЛЯ--розничная_торговля	neg
НАУКА--институт	ТУРИЗМ--санаторий	pos
НАУКА--институт	ЭКОНОМИКА--ипотека	pos
НАУКА--институт	ЭКОНОМИКА--повышение_банковской_ставки	neg
НАУКА--конференции	ТОРГОВЛЯ--интернет-магазин	neg
НАУКА--монументальные_исследования	ЗДРАВООХРАНЕНИЕ--БАД	pos
НАУКА--монументальные_исследования	НАУКА--конференции	neg
НАУКА--монументальные_исследования	ОБРАЗОВАНИЕ--подготовка_рабочих	pos
НАУКА--монументальные_исследования	ОБРАЗОВАНИЕ--университет	neg
НАУКА--монументальные_исследования	ТОРГОВЛЯ--оптовая_торговля	pos
НАУКА--монументальные_исследования	ТОРГОВЛЯ--розничная_торговля	pos
НАУКА--монументальные_исследования	ТОРГОВЛЯ--хлеб	neg
НАУКА--монументальные_исследования	ЭКОНОМИКА--санкции	pos
НАУКА--монументальные_исследования	ЭКОНОМИКА--цена_на_семена	pos
НАУКА--наука	ИНФРАСТРУКТУРА--парковка	pos
НАУКА--наука	НАУКА--институт	pos
НАУКА--наука	ОБРАЗОВАНИЕ--прикладные_исследования	neg
НАУКА--наука	ОБРАЗОВАНИЕ--школа	pos
НАУКА--наука	ПРОИЗВОДСТВО--тяжёлая_промышленность	neg
НАУКА--наука	СЕЛЬСКОЕ_ХОЗЯЙСТВО--урожай	neg
НАУКА--наука	ЭКОНОМИКА--ипотека	pos
НАУКА--патент	ЗДРАВООХРАНЕНИЕ--ЗОЖ	pos
НАУКА--патент	НАУКА--зарплаты	neg
НАУКА--патент	СЕЛЬСКОЕ_ХОЗЯЙСТВО--пшеница	pos
НАУКА--патент	СЕЛЬСКОЕ_ХОЗЯЙСТВО--урожай	pos
НАУКА--патент	ТУРИЗМ--санаторий	neg
ОБРАЗОВАНИЕ--подготовка_инженеров	ЗДРАВООХРАНЕНИЕ--витамины	neg
ОБРАЗОВАНИЕ--подготовка_инженеров	ИНФРАСТРУКТУРА--штраф	neg
ОБРАЗОВАНИЕ--подготовка_инженеров	ОБРАЗОВАНИЕ--учителя	pos
ОБРАЗОВАНИЕ--подготовка_инженеров	ТОРГОВЛЯ--интернет-магазин	pos
ОБРАЗОВАНИЕ--подготовка_рабочих	ТОРГОВЛЯ--интернет-магазин	pos
ОБРАЗОВАНИЕ--прикладные_исследования	ОБРАЗОВАНИЕ--университет	neg
ОБРАЗОВАНИЕ--прикладные_исследования	ТОРГОВЛЯ--оптовая_торговля	pos
ОБРАЗОВАНИЕ--прикладные_исследования	ЭКОНОМИКА--санкции	pos
ОБРАЗОВАНИЕ--учителя	ПРОИЗВОДСТВО--текстильное_производство	pos
ОБРАЗОВАНИЕ--учителя	ЭКОНОМИКА--цена_на_горючее	pos
ОБРАЗОВАНИЕ--учёные	ЗДРАВООХРАНЕНИЕ--лекарства	pos
ОБРАЗОВАНИЕ--учёные	СЕЛЬСКОЕ_ХОЗЯЙСТВО--фермер	pos
ОБРАЗОВАНИЕ--школа	ЗДРАВООХРАНЕНИЕ--витамины	pos
ОБРАЗОВАНИЕ--школа	ИНФРАСТРУКТУРА--общественный_транспорт	pos
ОБРАЗОВАНИЕ--школа	ИНФРАСТРУКТУРА--штраф	pos
ОБРАЗОВАНИЕ--школа	НАУКА--патент	neg
ОБРАЗОВАНИЕ--школа	ОБРАЗОВАНИЕ--учителя	neg
ОБРАЗОВАНИЕ--школа	ТОРГОВЛЯ--интернет-магазин	neg
ОБРАЗОВАНИЕ--школа	ТОРГОВЛЯ--розничная_торговля	neg
ПРОИЗВОДСТВО--автомобильная_промышленность	ЗДРАВООХРАНЕНИЕ--БАД	pos
ПРОИЗВОДСТВО--автомобильная_промышленность	ЗДРАВООХРАНЕНИЕ--ЗОЖ	pos
ПРОИЗВОДСТВО--автомобильная_промышленность	ЗДРАВООХРАНЕНИЕ--витамины	neg
ПРОИЗВОДСТВО--автомобильная_промышленность	ЗДРАВООХРАНЕНИЕ--ожирение	pos
ПРОИЗВОДСТВО--автомобильная_промышленность	ЗДРАВООХРАНЕНИЕ--спорт	neg
ПРОИЗВОДСТВО--автомобильная_промышленность	ИНФРАСТРУКТУРА--дороги	neg
ПРОИЗВОДСТВО--автомобильная_промышленность	ИНФРАСТРУКТУРА--строительство	neg
ПРОИЗВОДСТВО--автомобильная_промышленность	НАУКА--конференции	neg
ПРОИЗВОДСТВО--автомобильная_промышленность	НАУКА--монументальные_исследования	pos
ПРОИЗВОДСТВО--автомобильная_промышленность	НАУКА--патент	pos
ПРОИЗВОДСТВО--автомобильная_промышленность	ОБРАЗОВАНИЕ--подготовка_инженеров	pos
ПРОИЗВОДСТВО--автомобильная_промышленность	ОБРАЗОВАНИЕ--университет	neg
ПРОИЗВОДСТВО--автомобильная_промышленность	ОБРАЗОВАНИЕ--школа	neg
ПРОИЗВОДСТВО--автомобильная_промышленность	ПРОИЗВОДСТВО--тяжёлая_промышленность	pos
ПРОИЗВОДСТВО--автомобильная_промышленность	СЕЛЬСКОЕ_ХОЗЯЙСТВО--неурожай	pos
ПРОИЗВОДСТВО--автомобильная_промышленность	СЕЛЬСКОЕ_ХОЗЯЙСТВО--поголовье_скота	pos
ПРОИЗВОДСТВО--автомобильная_промышленность	ТОРГОВЛЯ--беспошлинная_торговля	pos
ПРОИЗВОДСТВО--автомобильная_промышленность	ТОРГОВЛЯ--международное_сотрудничество	pos
ПРОИЗВОДСТВО--автомобильная_промышленность	ТОРГОВЛЯ--открытая_экономическая_зона	pos
ПРОИЗВОДСТВО--автомобильная_промышленность	ТОРГОВЛЯ--хлеб	neg
ПРОИЗВОДСТВО--автомобильная_промышленность	ТУРИЗМ--туризм	neg
ПРОИЗВОДСТВО--автомобильная_промышленность	ЭКОНОМИКА--санкции	pos
ПРОИЗВОДСТВО--автомобильная_промышленность	ЭКОНОМИКА--цена_на_топливо	pos
ПРОИЗВОДСТВО--биотехнологии	ЗДРАВООХРАНЕНИЕ--ЗОЖ	pos
ПРОИЗВОДСТВО--биотехнологии	ЗДРАВООХРАНЕНИЕ--витамины	neg
ПРОИЗВОДСТВО--биотехнологии	ИНФРАСТРУКТУРА--дороги	neg
ПРОИЗВОДСТВО--биотехнологии	ИНФРАСТРУКТУРА--парковка	neg
ПРОИЗВОДСТВО--биотехнологии	ИНФРАСТРУКТУРА--штраф	neg
ПРОИЗВОДСТВО--биотехнологии	НАСЕЛЕНИЕ--смертность	pos
ПРОИЗВОДСТВО--биотехнологии	НАУКА--монументальные_исследования	pos
ПРОИЗВОДСТВО--биотехнологии	ОБРАЗОВАНИЕ--прикладные_исследования	pos
ПРОИЗВОДСТВО--биотехнологии	ОБРАЗОВАНИЕ--учителя	pos
ПРОИЗВОДСТВО--биотехнологии	СЕЛЬСКОЕ_ХОЗЯЙСТВО--поголовье_скота	pos
ПРОИЗВОДСТВО--биотехнологии	СЕЛЬСКОЕ_ХОЗЯЙСТВО--урожай	pos
ПРОИЗВОДСТВО--биотехнологии	ТУРИЗМ--санаторий	neg
ПРОИЗВОДСТВО--лёгкая_промышленность	ЗДРАВООХРАНЕНИЕ--БАД	pos
ПРОИЗВОДСТВО--лёгкая_промышленность	ЗДРАВООХРАНЕНИЕ--ЗОЖ	pos
ПРОИЗВОДСТВО--лёгкая_промышленность	ЗДРАВООХРАНЕНИЕ--алкоголизм	neg
ПРОИЗВОДСТВО--лёгкая_промышленность	ИНФРАСТРУКТУРА--ямы	pos
ПРОИЗВОДСТВО--лёгкая_промышленность	НАУКА--зарплаты	neg
ПРОИЗВОДСТВО--лёгкая_промышленность	ОБРАЗОВАНИЕ--университет	neg
ПРОИЗВОДСТВО--лёгкая_промышленность	ОБРАЗОВАНИЕ--учёные	neg
ПРОИЗВОДСТВО--лёгкая_промышленность	ПРОИЗВОДСТВО--текстильное_производство	pos
ПРОИЗВОДСТВО--лёгкая_промышленность	ТОРГОВЛЯ--беспошлинная_торговля	pos
ПРОИЗВОДСТВО--лёгкая_промышленность	ТОРГОВЛЯ--оптовая_торговля	pos
ПРОИЗВОДСТВО--лёгкая_промышленность	ТОРГОВЛЯ--розничная_торговля	pos
ПРОИЗВОДСТВО--лёгкая_промышленность	ТОРГОВЛЯ--хлеб	neg
ПРОИЗВОДСТВО--лёгкая_промышленность	ЭКОНОМИКА--ипотека	neg
ПРОИЗВОДСТВО--лёгкая_промышленность	ЭКОНОМИКА--финансы	neg
ПРОИЗВОДСТВО--пищевая_промышленность	ЗДРАВООХРАНЕНИЕ--БАД	pos
ПРОИЗВОДСТВО--пищевая_промышленность	НАУКА--гранты	pos
ПРОИЗВОДСТВО--пищевая_промышленность	НАУКА--зарплаты	neg
ПРОИЗВОДСТВО--пищевая_промышленность	ОБРАЗОВАНИЕ--университет	neg
ПРОИЗВОДСТВО--пищевая_промышленность	ОБРАЗОВАНИЕ--учёные	neg
ПРОИЗВОДСТВО--пищевая_промышленность	ТОРГОВЛЯ--хлеб	neg
ПРОИЗВОДСТВО--пищевая_промышленность	ЭКОНОМИКА--санкции	pos
ПРОИЗВОДСТВО--текстильное_производство	ЗДРАВООХРАНЕНИЕ--БАД	pos
ПРОИЗВОДСТВО--текстильное_производство	ИНФРАСТРУКТУРА--ямы	pos
ПРОИЗВОДСТВО--текстильное_производство	ОБРАЗОВАНИЕ--университет	neg
ПРОИЗВОДСТВО--текстильное_производство	ТОРГОВЛЯ--беспошлинная_торговля	pos
ПРОИЗВОДСТВО--текстильное_производство	ТОРГОВЛЯ--розничная_торговля	pos
ПРОИЗВОДСТВО--текстильное_производство	ТОРГОВЛЯ--хлеб	neg
ПРОИЗВОДСТВО--текстильное_производство	ЭКОНОМИКА--санкции	pos
ПРОИЗВОДСТВО--текстильное_производство	ЭКОНОМИКА--цена_на_семена	pos
ПРОИЗВОДСТВО--тяжёлая_промышленность	ИНФРАСТРУКТУРА--штраф	neg
ПРОИЗВОДСТВО--тяжёлая_промышленность	ТОРГОВЛЯ--оптовая_торговля	pos
ПРОИЗВОДСТВО--тяжёлая_промышленность	ТОРГОВЛЯ--розничная_торговля	pos
ПРОИЗВОДСТВО--химическая_промышленность	ЗДРАВООХРАНЕНИЕ--БАД	pos
ПРОИЗВОДСТВО--химическая_промышленность	НАУКА--зарплаты	neg
ПРОИЗВОДСТВО--химическая_промышленность	ОБРАЗОВАНИЕ--университет	neg
СЕЛЬСКОЕ_ХОЗЯЙСТВО--неурожай	ИНФРАСТРУКТУРА--штраф	neg
СЕЛЬСКОЕ_ХОЗЯЙСТВО--пшеница	НАУКА--институт	pos
СЕЛЬСКОЕ_ХОЗЯЙСТВО--пшеница	ПРОИЗВОДСТВО--лёгкая_промышленность	neg
СЕЛЬСКОЕ_ХОЗЯЙСТВО--пшеница	ПРОИЗВОДСТВО--пищевая_промышленность	neg
СЕЛЬСКОЕ_ХОЗЯЙСТВО--пшеница	ПРОИЗВОДСТВО--текстильное_производство	neg
СЕЛЬСКОЕ_ХОЗЯЙСТВО--пшеница	ПРОИЗВОДСТВО--химическая_промышленность	neg
СЕЛЬСКОЕ_ХОЗЯЙСТВО--пшеница	ЭКОНОМИКА--ипотека	pos
СЕЛЬСКОЕ_ХОЗЯЙСТВО--пшеница	ЭКОНОМИКА--субсидии	pos
СЕЛЬСКОЕ_ХОЗЯЙСТВО--сельскохозяйственная_техника	ИНФРАСТРУКТУРА--ямы	pos
СЕЛЬСКОЕ_ХОЗЯЙСТВО--сельскохозяйственная_техника	НАУКА--гранты	pos
СЕЛЬСКОЕ_ХОЗЯЙСТВО--сельскохозяйственная_техника	ОБРАЗОВАНИЕ--учёные	neg
СЕЛЬСКОЕ_ХОЗЯЙСТВО--урожай	ЭКОНОМИКА--рост_цен	pos
СЕЛЬСКОЕ_ХОЗЯЙСТВО--фермер	НАУКА--институт	pos
СЕЛЬСКОЕ_ХОЗЯЙСТВО--фермер	ПРОИЗВОДСТВО--автомобильная_промышленность	neg
СЕЛЬСКОЕ_ХОЗЯЙСТВО--фермер	ПРОИЗВОДСТВО--лёгкая_промышленность	neg
СЕЛЬСКОЕ_ХОЗЯЙСТВО--фермер	ПРОИЗВОДСТВО--пищевая_промышленность	neg
ТОРГОВЛЯ--беспошлинная_торговля	ТОРГОВЛЯ--оптовая_торговля	pos
ТОРГОВЛЯ--беспошлинная_торговля	ТОРГОВЛЯ--розничная_торговля	pos
ТОРГОВЛЯ--интернет-магазин	ЭКОНОМИКА--импортозамещение	neg
ТОРГОВЛЯ--интернет-магазин	ЭКОНОМИКА--кредит	pos
ТОРГОВЛЯ--интернет-магазин	ЭКОНОМИКА--падение_цен	neg
ТОРГОВЛЯ--интернет-магазин	ЭКОНОМИКА--санкции	neg
ТОРГОВЛЯ--международное_сотрудничество	ЗДРАВООХРАНЕНИЕ--витамины	neg
ТОРГОВЛЯ--международное_сотрудничество	ИНФРАСТРУКТУРА--общественный_транспорт	neg
ТОРГОВЛЯ--международное_сотрудничество	ИНФРАСТРУКТУРА--штраф	neg
ТОРГОВЛЯ--международное_сотрудничество	НАУКА--зарплаты	neg
ТОРГОВЛЯ--международное_сотрудничество	ТОРГОВЛЯ--оптовая_торговля	pos
ТОРГОВЛЯ--международное_сотрудничество	ТОРГОВЛЯ--розничная_торговля	pos
ТОРГОВЛЯ--открытая_экономическая_зона	ИНФРАСТРУКТУРА--ямы	pos
ТОРГОВЛЯ--открытая_экономическая_зона	НАУКА--зарплаты	neg
ТОРГОВЛЯ--открытая_экономическая_зона	ТОРГОВЛЯ--оптовая_торговля	pos
ТОРГОВЛЯ--открытая_экономическая_зона	ТОРГОВЛЯ--розничная_торговля	pos
ТОРГОВЛЯ--розничная_торговля	ЗДРАВООХРАНЕНИЕ--лекарства	neg
ТОРГОВЛЯ--розничная_торговля	ИНФРАСТРУКТУРА--ямы	pos
ТОРГОВЛЯ--розничная_торговля	ОБРАЗОВАНИЕ--учёные	neg
ТОРГОВЛЯ--сигареты	ЗДРАВООХРАНЕНИЕ--ЗОЖ	pos
ТОРГОВЛЯ--сигареты	ЗДРАВООХРАНЕНИЕ--витамины	neg
ТОРГОВЛЯ--сигареты	ЗДРАВООХРАНЕНИЕ--сердечно-сосудистые_заболевания	pos
ТОРГОВЛЯ--сигареты	ЗДРАВООХРАНЕНИЕ--сердечный_приступ	pos
ТОРГОВЛЯ--сигареты	НАСЕЛЕНИЕ--рождаемость	pos
ТОРГОВЛЯ--сигареты	НАСЕЛЕНИЕ--смертность	pos
ТОРГОВЛЯ--сигареты	НАУКА--монументальные_исследования	pos
ТОРГОВЛЯ--сигареты	ОБРАЗОВАНИЕ--прикладные_исследования	pos
ТОРГОВЛЯ--сигареты	ПРОИЗВОДСТВО--тяжёлая_промышленность	pos
ТОРГОВЛЯ--сигареты	СЕЛЬСКОЕ_ХОЗЯЙСТВО--неурожай	pos
ТОРГОВЛЯ--сигареты	СЕЛЬСКОЕ_ХОЗЯЙСТВО--поголовье_скота	pos
ТОРГОВЛЯ--сигареты	СЕЛЬСКОЕ_ХОЗЯЙСТВО--сельскохозяйственная_техника	neg
ТОРГОВЛЯ--сигареты	ТУРИЗМ--отпуск	pos
ТОРГОВЛЯ--сигареты	ТУРИЗМ--санаторий	neg
ТОРГОВЛЯ--сигареты	ЭКОНОМИКА--падение_цен	pos
ТОРГОВЛЯ--сигареты	ЭКОНОМИКА--повышение_банковской_ставки	pos
ТОРГОВЛЯ--сигареты	ЭКОНОМИКА--повышение_налогов	pos
ТОРГОВЛЯ--сигареты	ЭКОНОМИКА--понижение_налогов	pos
ТОРГОВЛЯ--сигареты	ЭКОНОМИКА--снижение_банковской_ставки	pos
ТОРГОВЛЯ--супермаркет	ОБРАЗОВАНИЕ--подготовка_рабочих	neg
ТОРГОВЛЯ--супермаркет	ЭКОНОМИКА--санкции	neg
ТУРИЗМ--отдых_за_границей	ЗДРАВООХРАНЕНИЕ--ЗОЖ	pos
ТУРИЗМ--отдых_за_границей	ЗДРАВООХРАНЕНИЕ--витамины	neg
ТУРИЗМ--отдых_за_границей	ИНФРАСТРУКТУРА--дороги	neg
ТУРИЗМ--отдых_за_границей	ИНФРАСТРУКТУРА--штраф	neg
ТУРИЗМ--отдых_за_границей	НАУКА--патент	pos
ТУРИЗМ--отдых_за_границей	ОБРАЗОВАНИЕ--учителя	pos
ТУРИЗМ--отдых_за_границей	ТОРГОВЛЯ--розничная_торговля	pos
ТУРИЗМ--отпуск	ОБРАЗОВАНИЕ--учёные	pos
ТУРИЗМ--отпуск	СЕЛЬСКОЕ_ХОЗЯЙСТВО--пшеница	pos
ТУРИЗМ--отпуск	СЕЛЬСКОЕ_ХОЗЯЙСТВО--фермер	pos
ТУРИЗМ--отпуск	ТУРИЗМ--санаторий	neg
ТУРИЗМ--санаторий	ПРОИЗВОДСТВО--лёгкая_промышленность	pos
ТУРИЗМ--туризм	ЗДРАВООХРАНЕНИЕ--витамины	pos
ТУРИЗМ--туризм	ИНФРАСТРУКТУРА--дороги	pos
ТУРИЗМ--туризм	ИНФРАСТРУКТУРА--штраф	pos
ТУРИЗМ--туризм	НАУКА--монументальные_исследования	neg
ТУРИЗМ--туризм	ОБРАЗОВАНИЕ--учителя	neg
ТУРИЗМ--туризм	ТОРГОВЛЯ--оптовая_торговля	neg
ТУРИЗМ--туризм	ТОРГОВЛЯ--розничная_торговля	neg
ТУРИЗМ--туризм	ЭКОНОМИКА--ипотека	pos
ЭКОНОМИКА--импортозамещение	НАУКА--институт	pos
ЭКОНОМИКА--импортозамещение	ПРОИЗВОДСТВО--лёгкая_промышленность	neg
ЭКОНОМИКА--ипотека	ЗДРАВООХРАНЕНИЕ--БАД	neg
ЭКОНОМИКА--ипотека	ЗДРАВООХРАНЕНИЕ--депрессия	neg
ЭКОНОМИКА--ипотека	ЗДРАВООХРАНЕНИЕ--ожирение	neg
ЭКОНОМИКА--ипотека	ИНФРАСТРУКТУРА--дороги	pos
ЭКОНОМИКА--ипотека	ИНФРАСТРУКТУРА--общественный_транспорт	pos
ЭКОНОМИКА--ипотека	НАУКА--конференции	pos
ЭКОНОМИКА--ипотека	ОБРАЗОВАНИЕ--подготовка_инженеров	neg
ЭКОНОМИКА--ипотека	ОБРАЗОВАНИЕ--университет	pos
ЭКОНОМИКА--ипотека	СЕЛЬСКОЕ_ХОЗЯЙСТВО--неурожай	neg
ЭКОНОМИКА--ипотека	СЕЛЬСКОЕ_ХОЗЯЙСТВО--поголовье_скота	neg
ЭКОНОМИКА--ипотека	ТОРГОВЛЯ--беспошлинная_торговля	neg
ЭКОНОМИКА--ипотека	ТОРГОВЛЯ--оптовая_торговля	neg
ЭКОНОМИКА--ипотека	ТОРГОВЛЯ--розничная_торговля	neg
ЭКОНОМИКА--ипотека	ТОРГОВЛЯ--хлеб	pos
ЭКОНОМИКА--ипотека	ЭКОНОМИКА--падение_цен	neg
ЭКОНОМИКА--ипотека	ЭКОНОМИКА--цена_на_топливо	neg
ЭКОНОМИКА--кредит	НАСЕЛЕНИЕ--свадьба	neg
ЭКОНОМИКА--падение_цен	ЗДРАВООХРАНЕНИЕ--витамины	neg
ЭКОНОМИКА--падение_цен	ИНФРАСТРУКТУРА--дороги	neg
ЭКОНОМИКА--падение_цен	ОБРАЗОВАНИЕ--учителя	pos
ЭКОНОМИКА--падение_цен	СЕЛЬСКОЕ_ХОЗЯЙСТВО--урожай	pos
ЭКОНОМИКА--повышение_банковской_ставки	ИНФРАСТРУКТУРА--штраф	neg
ЭКОНОМИКА--повышение_банковской_ставки	ОБРАЗОВАНИЕ--учителя	pos
ЭКОНОМИКА--повышение_налогов	ИНФРАСТРУКТУРА--штраф	neg
ЭКОНОМИКА--повышение_налогов	НАУКА--патент	pos
ЭКОНОМИКА--понижение_налогов	ОБРАЗОВАНИЕ--подготовка_рабочих	pos
ЭКОНОМИКА--понижение_налогов	СЕЛЬСКОЕ_ХОЗЯЙСТВО--фермер	pos
ЭКОНОМИКА--санкции	ОБРАЗОВАНИЕ--учителя	pos
ЭКОНОМИКА--субсидии	ЗДРАВООХРАНЕНИЕ--БАД	neg
ЭКОНОМИКА--субсидии	ОБРАЗОВАНИЕ--университет	pos
ЭКОНОМИКА--субсидии	ТОРГОВЛЯ--международное_сотрудничество	neg
ЭКОНОМИКА--субсидии	ТОРГОВЛЯ--оптовая_торговля	neg
ЭКОНОМИКА--субсидии	ТОРГОВЛЯ--розничная_торговля	neg
ЭКОНОМИКА--финансы	ЗДРАВООХРАНЕНИЕ--ЗОЖ	neg
ЭКОНОМИКА--финансы	ЗДРАВООХРАНЕНИЕ--витамины	pos
ЭКОНОМИКА--финансы	ИНФРАСТРУКТУРА--общественный_транспорт	pos
ЭКОНОМИКА--финансы	ИНФРАСТРУКТУРА--парковка	pos
ЭКОНОМИКА--финансы	ИНФРАСТРУКТУРА--штраф	pos
ЭКОНОМИКА--финансы	НАУКА--монументальные_исследования	neg
ЭКОНОМИКА--финансы	ТУРИЗМ--санаторий	pos
ЭКОНОМИКА--финансы	ЭКОНОМИКА--ипотека	pos
ЭКОНОМИКА--цена_на_горючее	НАУКА--зарплаты	neg
ЭКОНОМИКА--цена_на_горючее	ТОРГОВЛЯ--интернет-магазин	pos
ЭКОНОМИКА--цена_на_семена	ЗДРАВООХРАНЕНИЕ--алкоголизм	neg
ЭКОНОМИКА--цена_на_семена	ИНФРАСТРУКТУРА--дороги	neg
ЭКОНОМИКА--цена_на_семена	ИНФРАСТРУКТУРА--штраф	neg
ЭКОНОМИКА--цена_на_семена	НАУКА--патент	pos
ЭКОНОМИКА--цена_на_семена	ТОРГОВЛЯ--оптовая_торговля	pos
ЭКОНОМИКА--цена_на_семена	ТОРГОВЛЯ--розничная_торговля	pos
ЭКОНОМИКА--цена_на_топливо	ЗДРАВООХРАНЕНИЕ--витамины	neg
ЭКОНОМИКА--цена_на_топливо	ЗДРАВООХРАНЕНИЕ--спорт	neg
ЭКОНОМИКА--цена_на_топливо	ИНФРАСТРУКТУРА--дороги	neg
ЭКОНОМИКА--цена_на_топливо	ИНФРАСТРУКТУРА--парковка	neg
ЭКОНОМИКА--цена_на_топливо	ИНФРАСТРУКТУРА--штраф	neg
ЭКОНОМИКА--цена_на_топливо	НАУКА--монументальные_исследования	pos
ЭКОНОМИКА--цена_на_топливо	ОБРАЗОВАНИЕ--прикладные_исследования	pos
ЭКОНОМИКА--цена_на_топливо	ОБРАЗОВАНИЕ--учителя	pos
ЭКОНОМИКА--цена_на_топливо	ПРОИЗВОДСТВО--тяжёлая_промышленность	pos
ЭКОНОМИКА--цена_на_топливо	СЕЛЬСКОЕ_ХОЗЯЙСТВО--неурожай	pos
ЭКОНОМИКА--цена_на_топливо	СЕЛЬСКОЕ_ХОЗЯЙСТВО--поголовье_скота	pos
ЭКОНОМИКА--цена_на_топливо	СЕЛЬСКОЕ_ХОЗЯЙСТВО--урожай	pos
ЭКОНОМИКА--цена_на_топливо	ТОРГОВЛЯ--интернет-магазин	pos
