q1	q2	maxCorr_lag
НАСЕЛЕНИЕ--свадьба	СЕЛЬСКОЕ_ХОЗЯЙСТВО--пшеница	pos
НАУКА--зарплаты	req_ТОРГОВЛЯ--интернет-магазин	pos
ОБРАЗОВАНИЕ--учителя	req_ЭКОНОМИКА--санкции	pos
ПРОИЗВОДСТВО--автомобильная_промышленность	req_ЭКОНОМИКА--цена_на_семена	neg
req_ЗДРАВООХРАНЕНИЕ--алкоголизм	req_НАУКА--зарплаты	neg
req_ЗДРАВООХРАНЕНИЕ--нейро-дегенеративные_заболевания	req_НАУКА--инновации	neg
req_ЗДРАВООХРАНЕНИЕ--нейро-дегенеративные_заболевания	req_СЕЛЬСКОЕ_ХОЗЯЙСТВО--сельскохозяйственная_техника	neg
req_ЗДРАВООХРАНЕНИЕ--нейро-дегенеративные_заболевания	req_ТОРГОВЛЯ--международное_сотрудничество	neg
req_ЗДРАВООХРАНЕНИЕ--нейро-дегенеративные_заболевания	req_ЭКОНОМИКА--финансы	neg
req_ЗДРАВООХРАНЕНИЕ--спорт	ИНФРАСТРУКТУРА--ямы	pos
req_ЗДРАВООХРАНЕНИЕ--спорт	req_ИНФРАСТРУКТУРА--ямы	pos
req_ИНФРАСТРУКТУРА--строительство	req_ЭКОНОМИКА--цена_на_семена	neg
req_ИНФРАСТРУКТУРА--штраф	req_ЗДРАВООХРАНЕНИЕ--ЗОЖ	pos
req_СЕЛЬСКОЕ_ХОЗЯЙСТВО--поголовье_скота	ТОРГОВЛЯ--супермаркет	pos
req_ТОРГОВЛЯ--открытая_экономическая_зона	ТОРГОВЛЯ--супермаркет	pos
req_ТОРГОВЛЯ--открытая_экономическая_зона	req_ТОРГОВЛЯ--супермаркет	neg
req_ТУРИЗМ--туризм	req_СЕЛЬСКОЕ_ХОЗЯЙСТВО--урожай	pos
req_ЭКОНОМИКА--падение_цен	СЕЛЬСКОЕ_ХОЗЯЙСТВО--сельскохозяйственная_техника	pos
req_ЭКОНОМИКА--падение_цен	ЭКОНОМИКА--финансы	pos
req_ЭКОНОМИКА--повышение_банковской_ставки	ПРОИЗВОДСТВО--пищевая_промышленность	pos
req_ЭКОНОМИКА--повышение_банковской_ставки	СЕЛЬСКОЕ_ХОЗЯЙСТВО--сельскохозяйственная_техника	pos
