q1	q2	maxCorr_lag
ЗДРАВООХРАНЕНИЕ--БАД	ЭКОНОМИКА--рост_цен	pos
ЗДРАВООХРАНЕНИЕ--алкоголизм	ЗДРАВООХРАНЕНИЕ--вегетарианство	neg
ЗДРАВООХРАНЕНИЕ--алкоголизм	ЗДРАВООХРАНЕНИЕ--депрессия	neg
ЗДРАВООХРАНЕНИЕ--алкоголизм	ЗДРАВООХРАНЕНИЕ--ожирение	neg
ЗДРАВООХРАНЕНИЕ--алкоголизм	ЗДРАВООХРАНЕНИЕ--спорт	pos
ЗДРАВООХРАНЕНИЕ--алкоголизм	ИНФРАСТРУКТУРА--дороги	pos
ЗДРАВООХРАНЕНИЕ--алкоголизм	НАУКА--монументальные_исследования	neg
ЗДРАВООХРАНЕНИЕ--алкоголизм	НАУКА--патент	neg
ЗДРАВООХРАНЕНИЕ--алкоголизм	ОБРАЗОВАНИЕ--прикладные_исследования	neg
ЗДРАВООХРАНЕНИЕ--алкоголизм	ОБРАЗОВАНИЕ--школа	pos
ЗДРАВООХРАНЕНИЕ--алкоголизм	ПРОИЗВОДСТВО--биотехнологии	neg
ЗДРАВООХРАНЕНИЕ--алкоголизм	ПРОИЗВОДСТВО--тяжёлая_промышленность	neg
ЗДРАВООХРАНЕНИЕ--алкоголизм	СЕЛЬСКОЕ_ХОЗЯЙСТВО--неурожай	neg
ЗДРАВООХРАНЕНИЕ--алкоголизм	СЕЛЬСКОЕ_ХОЗЯЙСТВО--поголовье_скота	neg
ЗДРАВООХРАНЕНИЕ--алкоголизм	СЕЛЬСКОЕ_ХОЗЯЙСТВО--урожай	neg
ЗДРАВООХРАНЕНИЕ--алкоголизм	ТОРГОВЛЯ--беспошлинная_торговля	neg
ЗДРАВООХРАНЕНИЕ--алкоголизм	ТОРГОВЛЯ--международное_сотрудничество	neg
ЗДРАВООХРАНЕНИЕ--алкоголизм	ТОРГОВЛЯ--открытая_экономическая_зона	neg
ЗДРАВООХРАНЕНИЕ--алкоголизм	ЭКОНОМИКА--повышение_банковской_ставки	neg
ЗДРАВООХРАНЕНИЕ--алкоголизм	ЭКОНОМИКА--финансы	pos
ЗДРАВООХРАНЕНИЕ--лекарства	ТОРГОВЛЯ--хлеб	pos
ЗДРАВООХРАНЕНИЕ--нейро-дегенеративные_заболевания	ЭКОНОМИКА--ипотека	pos
ЗДРАВООХРАНЕНИЕ--нейро-дегенеративные_заболевания	ЭКОНОМИКА--цена_на_топливо	neg
ЗДРАВООХРАНЕНИЕ--спорт	ЭКОНОМИКА--ипотека	pos
ИНФРАСТРУКТУРА--общественный_транспорт	ОБРАЗОВАНИЕ--учёные	neg
ИНФРАСТРУКТУРА--штраф	ТУРИЗМ--отпуск	neg
ИНФРАСТРУКТУРА--штраф	ЭКОНОМИКА--понижение_налогов	neg
НАСЕЛЕНИЕ--рождаемость	ЗДРАВООХРАНЕНИЕ--депрессия	neg
НАСЕЛЕНИЕ--свадьба	ЗДРАВООХРАНЕНИЕ--алкоголизм	pos
НАСЕЛЕНИЕ--свадьба	ОБРАЗОВАНИЕ--учёные	pos
НАСЕЛЕНИЕ--смертность	ЗДРАВООХРАНЕНИЕ--вегетарианство	neg
НАСЕЛЕНИЕ--смертность	ЗДРАВООХРАНЕНИЕ--депрессия	neg
НАСЕЛЕНИЕ--смертность	НАУКА--институт	pos
НАСЕЛЕНИЕ--смертность	ПРОИЗВОДСТВО--автомобильная_промышленность	neg
НАУКА--зарплаты	ЭКОНОМИКА--цена_на_топливо	neg
НАУКА--патент	ЗДРАВООХРАНЕНИЕ--БАД	neg
НАУКА--патент	ЗДРАВООХРАНЕНИЕ--витамины	pos
НАУКА--патент	ИНФРАСТРУКТУРА--общественный_транспорт	pos
НАУКА--патент	ИНФРАСТРУКТУРА--штраф	pos
НАУКА--патент	НАУКА--конференции	pos
НАУКА--патент	ТОРГОВЛЯ--розничная_торговля	neg
ОБРАЗОВАНИЕ--учёные	ИНФРАСТРУКТУРА--дороги	pos
ОБРАЗОВАНИЕ--школа	ЭКОНОМИКА--рост_цен	neg
ПРОИЗВОДСТВО--автомобильная_промышленность	ОБРАЗОВАНИЕ--учёные	neg
ПРОИЗВОДСТВО--лёгкая_промышленность	ОБРАЗОВАНИЕ--подготовка_инженеров	pos
ПРОИЗВОДСТВО--лёгкая_промышленность	ПРОИЗВОДСТВО--автомобильная_промышленность	pos
ПРОИЗВОДСТВО--лёгкая_промышленность	ЭКОНОМИКА--цена_на_семена	pos
ПРОИЗВОДСТВО--лёгкая_промышленность	ЭКОНОМИКА--цена_на_топливо	pos
ПРОИЗВОДСТВО--пищевая_промышленность	ОБРАЗОВАНИЕ--подготовка_инженеров	pos
ПРОИЗВОДСТВО--пищевая_промышленность	ПРОИЗВОДСТВО--автомобильная_промышленность	pos
ПРОИЗВОДСТВО--пищевая_промышленность	ТОРГОВЛЯ--розничная_торговля	pos
ПРОИЗВОДСТВО--пищевая_промышленность	ЭКОНОМИКА--цена_на_семена	pos
ПРОИЗВОДСТВО--пищевая_промышленность	ЭКОНОМИКА--цена_на_топливо	pos
ПРОИЗВОДСТВО--текстильное_производство	ЗДРАВООХРАНЕНИЕ--вегетарианство	pos
ПРОИЗВОДСТВО--текстильное_производство	ЗДРАВООХРАНЕНИЕ--депрессия	pos
ПРОИЗВОДСТВО--текстильное_производство	ИНФРАСТРУКТУРА--строительство	neg
ПРОИЗВОДСТВО--текстильное_производство	ЭКОНОМИКА--цена_на_топливо	pos
ПРОИЗВОДСТВО--химическая_промышленность	ОБРАЗОВАНИЕ--подготовка_инженеров	pos
ПРОИЗВОДСТВО--химическая_промышленность	ПРОИЗВОДСТВО--автомобильная_промышленность	pos
ПРОИЗВОДСТВО--химическая_промышленность	ЭКОНОМИКА--цена_на_семена	pos
ПРОИЗВОДСТВО--химическая_промышленность	ЭКОНОМИКА--цена_на_топливо	pos
СЕЛЬСКОЕ_ХОЗЯЙСТВО--сельскохозяйственная_техника	ПРОИЗВОДСТВО--автомобильная_промышленность	pos
СЕЛЬСКОЕ_ХОЗЯЙСТВО--сельскохозяйственная_техника	ЭКОНОМИКА--цена_на_топливо	pos
СЕЛЬСКОЕ_ХОЗЯЙСТВО--урожай	ТОРГОВЛЯ--розничная_торговля	neg
ТОРГОВЛЯ--интернет-магазин	ЗДРАВООХРАНЕНИЕ--сердечно-сосудистые_заболевания	pos
ТОРГОВЛЯ--оптовая_торговля	ЗДРАВООХРАНЕНИЕ--вегетарианство	pos
ТОРГОВЛЯ--оптовая_торговля	ЗДРАВООХРАНЕНИЕ--депрессия	pos
ТОРГОВЛЯ--оптовая_торговля	ИНФРАСТРУКТУРА--строительство	neg
ТОРГОВЛЯ--оптовая_торговля	ПРОИЗВОДСТВО--биотехнологии	pos
ТОРГОВЛЯ--оптовая_торговля	СЕЛЬСКОЕ_ХОЗЯЙСТВО--неурожай	pos
ТОРГОВЛЯ--оптовая_торговля	СЕЛЬСКОЕ_ХОЗЯЙСТВО--урожай	pos
ТОРГОВЛЯ--оптовая_торговля	ЭКОНОМИКА--финансы	neg
ТОРГОВЛЯ--оптовая_торговля	ЭКОНОМИКА--цена_на_топливо	pos
ТОРГОВЛЯ--розничная_торговля	ЭКОНОМИКА--цена_на_топливо	pos
ТОРГОВЛЯ--сигареты	ПРОИЗВОДСТВО--автомобильная_промышленность	neg
ТОРГОВЛЯ--сигареты	ЭКОНОМИКА--ипотека	pos
ТУРИЗМ--отпуск	ЗДРАВООХРАНЕНИЕ--БАД	neg
ТУРИЗМ--отпуск	ЗДРАВООХРАНЕНИЕ--вегетарианство	neg
ТУРИЗМ--отпуск	ЗДРАВООХРАНЕНИЕ--депрессия	neg
ТУРИЗМ--отпуск	ЗДРАВООХРАНЕНИЕ--ожирение	neg
ТУРИЗМ--отпуск	ЗДРАВООХРАНЕНИЕ--спорт	pos
ТУРИЗМ--отпуск	ИНФРАСТРУКТУРА--дороги	pos
ТУРИЗМ--отпуск	ИНФРАСТРУКТУРА--строительство	pos
ТУРИЗМ--отпуск	НАУКА--конференции	pos
ТУРИЗМ--отпуск	НАУКА--наука	pos
ТУРИЗМ--отпуск	НАУКА--патент	neg
ТУРИЗМ--отпуск	ОБРАЗОВАНИЕ--подготовка_инженеров	neg
ТУРИЗМ--отпуск	ОБРАЗОВАНИЕ--университет	pos
ТУРИЗМ--отпуск	ОБРАЗОВАНИЕ--школа	pos
ТУРИЗМ--отпуск	ПРОИЗВОДСТВО--биотехнологии	neg
ТУРИЗМ--отпуск	ТОРГОВЛЯ--беспошлинная_торговля	neg
ТУРИЗМ--отпуск	ТОРГОВЛЯ--международное_сотрудничество	neg
ТУРИЗМ--отпуск	ТОРГОВЛЯ--открытая_экономическая_зона	neg
ТУРИЗМ--отпуск	ТОРГОВЛЯ--розничная_торговля	neg
ТУРИЗМ--отпуск	ТУРИЗМ--отдых_за_границей	neg
ТУРИЗМ--отпуск	ЭКОНОМИКА--финансы	pos
ТУРИЗМ--отпуск	ЭКОНОМИКА--цена_на_семена	neg
ТУРИЗМ--отпуск	ЭКОНОМИКА--цена_на_топливо	neg
ТУРИЗМ--туризм	ЭКОНОМИКА--рост_цен	neg
ЭКОНОМИКА--ипотека	НАУКА--патент	neg
ЭКОНОМИКА--повышение_налогов	ТУРИЗМ--отпуск	neg
ЭКОНОМИКА--понижение_налогов	ЗДРАВООХРАНЕНИЕ--депрессия	neg
ЭКОНОМИКА--понижение_налогов	ЗДРАВООХРАНЕНИЕ--ожирение	neg
ЭКОНОМИКА--понижение_налогов	НАСЕЛЕНИЕ--рождаемость	neg
ЭКОНОМИКА--понижение_налогов	НАУКА--патент	neg
ЭКОНОМИКА--понижение_налогов	ОБРАЗОВАНИЕ--прикладные_исследования	neg
ЭКОНОМИКА--понижение_налогов	ПРОИЗВОДСТВО--биотехнологии	neg
ЭКОНОМИКА--понижение_налогов	ПРОИЗВОДСТВО--тяжёлая_промышленность	neg
ЭКОНОМИКА--понижение_налогов	СЕЛЬСКОЕ_ХОЗЯЙСТВО--неурожай	neg
ЭКОНОМИКА--понижение_налогов	СЕЛЬСКОЕ_ХОЗЯЙСТВО--поголовье_скота	neg
ЭКОНОМИКА--понижение_налогов	СЕЛЬСКОЕ_ХОЗЯЙСТВО--сельскохозяйственная_техника	pos
ЭКОНОМИКА--понижение_налогов	ТУРИЗМ--отпуск	neg
ЭКОНОМИКА--рост_цен	ЭКОНОМИКА--кредит	neg
ЭКОНОМИКА--цена_на_горючее	НАУКА--гранты	pos
ЭКОНОМИКА--цена_на_горючее	ТУРИЗМ--туризм	neg
ЭКОНОМИКА--цена_на_горючее	ЭКОНОМИКА--падение_цен	pos
ЭКОНОМИКА--цена_на_горючее	ЭКОНОМИКА--санкции	pos
